{
  "name": "+2 Armour Special Abilities",
  "flags": {},
  "description": "",
  "results": [
    {
      "_id": "AJnxbSBVWS1dvibY",
      "flags": {},
      "type": 0,
      "text": "Glamered",
      "weight": 12,
      "range": [1, 12],
      "drawn": false
    },
    {
      "_id": "EcMvL4bWqq3VIpkG",
      "flags": {},
      "type": 0,
      "text": "Jousting",
      "weight": 12,
      "range": [13, 24],
      "drawn": false
    },
    {
      "_id": "GiebWvsOjJCswek8",
      "flags": {},
      "type": 0,
      "text": "Shadow",
      "weight": 14,
      "range": [25, 38],
      "drawn": false
    },
    {
      "_id": "8UWLEb7zICnKub0d",
      "flags": {},
      "type": 0,
      "text": "Slick",
      "weight": 14,
      "range": [39, 52],
      "drawn": false
    },
    {
      "_id": "FcFW8ao0SHzrfz0c",
      "flags": {},
      "type": 0,
      "text": "Expeditious",
      "weight": 12,
      "range": [53, 64],
      "drawn": false
    },
    {
      "_id": "KXcSh0mn3zzbyMsQ",
      "flags": {},
      "type": 0,
      "text": "Creeping",
      "weight": 12,
      "range": [65, 76],
      "drawn": false
    },
    {
      "_id": "zQTOsJuIyz0S3TNl",
      "flags": {},
      "type": 0,
      "text": "Rallying",
      "weight": 12,
      "range": [77, 88],
      "drawn": false
    },
    {
      "_id": "pKyBS6yxiUBwMJ8e",
      "flags": {},
      "type": 0,
      "text": "Spell Resistance (13)",
      "weight": 12,
      "range": [89, 100],
      "drawn": false
    }
  ],
  "formula": "1d100",
  "replacement": true,
  "displayRoll": true,
  "_id": "YvQv6sJxSfsc3EDe"
}
