{
  "name": "Common Level 4 Divine Scrolls",
  "flags": {},
  "description": "",
  "results": [
    {
      "_id": "DC7YC013J23EaLRE",
      "flags": {},
      "type": 0,
      "text": "Scroll of Air Walk",
      "img": "icons/svg/d20-black.svg",
      "resultId": "",
      "weight": 4,
      "range": [1, 4],
      "drawn": false
    },
    {
      "_id": "NQcNZU4AAiMIkqe4",
      "flags": {},
      "type": 0,
      "text": "Scroll of Chaos Hammer",
      "img": "icons/svg/d20-black.svg",
      "resultId": "",
      "weight": 3,
      "range": [5, 7],
      "drawn": false
    },
    {
      "_id": "JMcdacHJw9VldbVH",
      "flags": {},
      "type": 0,
      "text": "Scroll of Cure Critical Wounds",
      "img": "icons/svg/d20-black.svg",
      "resultId": "",
      "weight": 8,
      "range": [8, 15],
      "drawn": false
    },
    {
      "_id": "oDcK18cv5FlMSxsQ",
      "flags": {},
      "type": 0,
      "text": "Scroll of Death Ward",
      "img": "icons/svg/d20-black.svg",
      "resultId": "",
      "weight": 4,
      "range": [16, 19],
      "drawn": false
    },
    {
      "_id": "jZvcCvpYM6VuFxCB",
      "flags": {},
      "type": 0,
      "text": "Scroll of Dimensional Anchor",
      "img": "icons/svg/d20-black.svg",
      "resultId": "",
      "weight": 3,
      "range": [20, 22],
      "drawn": false
    },
    {
      "_id": "X2yeEiMuBc9HKyjA",
      "flags": {},
      "type": 0,
      "text": "Scroll of Discern Lies",
      "img": "icons/svg/d20-black.svg",
      "resultId": "",
      "weight": 3,
      "range": [23, 25],
      "drawn": false
    },
    {
      "_id": "ZujOs5K9oii34mhf",
      "flags": {},
      "type": 0,
      "text": "Scroll of Dismissal",
      "img": "icons/svg/d20-black.svg",
      "resultId": "",
      "weight": 3,
      "range": [26, 28],
      "drawn": false
    },
    {
      "_id": "OdbWsxHnQNX17kt1",
      "flags": {},
      "type": 0,
      "text": "Scroll of Divine Power",
      "img": "icons/svg/d20-black.svg",
      "resultId": "",
      "weight": 5,
      "range": [29, 33],
      "drawn": false
    },
    {
      "_id": "Z34vaOOmY8BXNJtW",
      "flags": {},
      "type": 0,
      "text": "Scroll of Flame Strike",
      "img": "icons/svg/d20-black.svg",
      "resultId": "",
      "weight": 6,
      "range": [34, 39],
      "drawn": false
    },
    {
      "_id": "9B5PjBGbd6ghuLCr",
      "flags": {},
      "type": 0,
      "text": "Scroll of Freedom of Movement",
      "img": "icons/svg/d20-black.svg",
      "resultId": "",
      "weight": 4,
      "range": [40, 43],
      "drawn": false
    },
    {
      "_id": "WaOu5lwrm6txebZm",
      "flags": {},
      "type": 0,
      "text": "Scroll of Holy Smite",
      "img": "icons/svg/d20-black.svg",
      "resultId": "",
      "weight": 3,
      "range": [44, 46],
      "drawn": false
    },
    {
      "_id": "Vb3ooBsjDGGavoYL",
      "flags": {},
      "type": 0,
      "text": "Scroll of Inflict Critical Wounds",
      "img": "icons/svg/d20-black.svg",
      "resultId": "",
      "weight": 5,
      "range": [47, 51],
      "drawn": false
    },
    {
      "_id": "tdrTw1F5eQPTV62t",
      "flags": {},
      "type": 0,
      "text": "Scroll of Magic Weapon, Greater",
      "img": "icons/svg/d20-black.svg",
      "resultId": "",
      "weight": 5,
      "range": [52, 56],
      "drawn": false
    },
    {
      "_id": "SHITINLluXN93neX",
      "flags": {},
      "type": 0,
      "text": "Scroll of Neutralize Poison",
      "img": "icons/svg/d20-black.svg",
      "resultId": "",
      "weight": 5,
      "range": [57, 61],
      "drawn": false
    },
    {
      "_id": "5DN99ECkktxX76fq",
      "flags": {},
      "type": 0,
      "text": "Scroll of Order's Wrath",
      "img": "icons/svg/d20-black.svg",
      "resultId": "",
      "weight": 3,
      "range": [62, 64],
      "drawn": false
    },
    {
      "_id": "7uc5WIQ74N4zlwu8",
      "flags": {},
      "type": 0,
      "text": "Scroll of Poison",
      "img": "icons/svg/d20-black.svg",
      "resultId": "",
      "weight": 4,
      "range": [65, 68],
      "drawn": false
    },
    {
      "_id": "xOViZH16SoGqG2OG",
      "flags": {},
      "type": 0,
      "text": "Scroll of Spell Immunity",
      "img": "icons/svg/d20-black.svg",
      "resultId": "",
      "weight": 5,
      "range": [69, 73],
      "drawn": false
    },
    {
      "_id": "THUiz514Ziky0zgB",
      "flags": {},
      "type": 0,
      "text": "Scroll of Spike Stones",
      "img": "icons/svg/d20-black.svg",
      "resultId": "",
      "weight": 4,
      "range": [74, 77],
      "drawn": false
    },
    {
      "_id": "yFYmpujd781r09e0",
      "flags": {},
      "type": 0,
      "text": "Scroll of Summon Monster IV",
      "img": "icons/svg/d20-black.svg",
      "resultId": "",
      "weight": 3,
      "range": [78, 80],
      "drawn": false
    },
    {
      "_id": "U7O8lpDMKhzNas12",
      "flags": {},
      "type": 0,
      "text": "Scroll of Summon Nature's Ally IV",
      "img": "icons/svg/d20-black.svg",
      "resultId": "",
      "weight": 3,
      "range": [81, 83],
      "drawn": false
    },
    {
      "_id": "rGkyZJmZGAJgclBG",
      "flags": {},
      "type": 0,
      "text": "Scroll of Tongues",
      "img": "icons/svg/d20-black.svg",
      "resultId": "",
      "weight": 3,
      "range": [84, 86],
      "drawn": false
    },
    {
      "_id": "3blWsEfqO2ABBhK3",
      "flags": {},
      "type": 0,
      "text": "Scroll of Unholy Blight",
      "img": "icons/svg/d20-black.svg",
      "resultId": "",
      "weight": 3,
      "range": [87, 89],
      "drawn": false
    },
    {
      "_id": "tqkWBKiGyCFhCVtP",
      "flags": {},
      "type": 0,
      "text": "Scroll of Divination",
      "img": "icons/svg/d20-black.svg",
      "resultId": "",
      "weight": 4,
      "range": [90, 93],
      "drawn": false
    },
    {
      "_id": "ZzhYp4JPZs59c7dz",
      "flags": {},
      "type": 0,
      "text": "Scroll of Planar Ally, Lesser",
      "img": "icons/svg/d20-black.svg",
      "resultId": "",
      "weight": 3,
      "range": [94, 96],
      "drawn": false
    },
    {
      "_id": "uTNgMBbpVz1wLiJ4",
      "flags": {},
      "type": 0,
      "text": "Scroll of Restoration",
      "img": "icons/svg/d20-black.svg",
      "resultId": "",
      "weight": 4,
      "range": [97, 100],
      "drawn": false
    }
  ],
  "formula": "1d100",
  "replacement": true,
  "displayRoll": true,
  "_id": "RNrVll5rxHRbCQR3"
}
