{
  "name": "Greater Major Slotless",
  "flags": {},
  "description": "",
  "results": [
    {
      "_id": "4ODMsYwgpny8kSVF",
      "flags": {},
      "type": 0,
      "text": "\tCrystal Ball With See Invisibility",
      "weight": 3,
      "range": [1, 3],
      "drawn": false
    },
    {
      "_id": "jIM4izcEm4lDvrU0",
      "flags": {},
      "type": 0,
      "text": "\tHorn of Valhalla",
      "weight": 2,
      "range": [4, 5],
      "drawn": false
    },
    {
      "_id": "vAeppQ2og9gRDL8R",
      "flags": {},
      "type": 0,
      "text": "\tCrystal Ball With Detect Thoughts",
      "weight": 3,
      "range": [6, 8],
      "drawn": false
    },
    {
      "_id": "mYKvvVrKUHCthb07",
      "flags": {},
      "type": 0,
      "text": "Last Leaves of the Autumn Dryad",
      "weight": 1,
      "range": [9, 9],
      "drawn": false
    },
    {
      "_id": "9FdnID7AKb2KL4TH",
      "flags": {},
      "type": 0,
      "text": "\tInstant Fortress",
      "weight": 2,
      "range": [10, 11],
      "drawn": false
    },
    {
      "_id": "PsLWwEDMFGKPObgM",
      "flags": {},
      "type": 0,
      "text": "\tManual of Bodily Health +2",
      "weight": 4,
      "range": [12, 15],
      "drawn": false
    },
    {
      "_id": "ze61hkzTmvSkngXQ",
      "flags": {},
      "type": 0,
      "text": "\tManual of Gainful Exercise +2",
      "weight": 4,
      "range": [16, 19],
      "drawn": false
    },
    {
      "_id": "0Deqkd8qGJWh4ZmM",
      "flags": {},
      "type": 0,
      "text": "\tManual of Quickness of Action +2",
      "weight": 4,
      "range": [20, 23],
      "drawn": false
    },
    {
      "_id": "3tqqNbyoIIyw4vmw",
      "flags": {},
      "type": 0,
      "text": "\tTome of Clear Thought +2",
      "weight": 4,
      "range": [24, 27],
      "drawn": false
    },
    {
      "_id": "DZiClaJrLkiee7vn",
      "flags": {},
      "type": 0,
      "text": "\tTome of Leadership and Influence +2",
      "weight": 4,
      "range": [28, 31],
      "drawn": false
    },
    {
      "_id": "4ErXawAPLvMrxc6n",
      "flags": {},
      "type": 0,
      "text": "\tTome of Understanding +2",
      "weight": 4,
      "range": [32, 35],
      "drawn": false
    },
    {
      "_id": "ULfdh51Uvmj51WP7",
      "flags": {},
      "type": 0,
      "text": "Lord's Banner (Terror)",
      "weight": 1,
      "range": [36, 36],
      "drawn": false
    },
    {
      "_id": "fMrdAJcmAHIDWWQu",
      "flags": {},
      "type": 0,
      "text": "Carpet of Flying (10 ft. By 10 ft.)",
      "weight": 1,
      "range": [37, 37],
      "drawn": false
    },
    {
      "_id": "0nSqafvmmdfbpnE3",
      "flags": {},
      "type": 0,
      "text": "\tDarkskull",
      "weight": 2,
      "range": [38, 39],
      "drawn": false
    },
    {
      "_id": "RA5k6yXOH65wvLZi",
      "flags": {},
      "type": 0,
      "text": "Orb of Pure Law",
      "weight": 1,
      "range": [40, 40],
      "drawn": false
    },
    {
      "_id": "kmLecdh9YoPrOtgt",
      "flags": {},
      "type": 0,
      "text": "Cube of Force",
      "weight": 1,
      "range": [41, 41],
      "drawn": false
    },
    {
      "_id": "j7uX7k6l21zii15s",
      "flags": {},
      "type": 0,
      "text": "\tPage of Spell Knowledge (8th)",
      "weight": 2,
      "range": [42, 43],
      "drawn": false
    },
    {
      "_id": "ict0GGfNOX5wgEKM",
      "flags": {},
      "type": 0,
      "text": "\tPearl of Power (8th)",
      "weight": 6,
      "range": [44, 49],
      "drawn": false
    },
    {
      "_id": "hlhxXnmQ3cRMU4Mn",
      "flags": {},
      "type": 0,
      "text": "Crystal Ball With Telepathy",
      "weight": 1,
      "range": [50, 50],
      "drawn": false
    },
    {
      "_id": "Nc2IJYSbo2EcQoVs",
      "flags": {},
      "type": 0,
      "text": "Horn of Blasting (Greater)",
      "weight": 1,
      "range": [51, 51],
      "drawn": false
    },
    {
      "_id": "TU3zn9MOcb0cRusM",
      "flags": {},
      "type": 0,
      "text": "\tPearl of Power (Two Spells)",
      "weight": 3,
      "range": [52, 54],
      "drawn": false
    },
    {
      "_id": "KyFZLuzPgY3kW4Pr",
      "flags": {},
      "type": 0,
      "text": "Gem of Seeing",
      "weight": 1,
      "range": [55, 55],
      "drawn": false
    },
    {
      "_id": "jxzumFM8xqrAreBx",
      "flags": {},
      "type": 0,
      "text": "Lord's Banner (Victory)",
      "weight": 1,
      "range": [56, 56],
      "drawn": false
    },
    {
      "_id": "hKLOoBCEYyNsCG0D",
      "flags": {},
      "type": 0,
      "text": "Crystal Ball With True Seeing",
      "weight": 1,
      "range": [57, 57],
      "drawn": false
    },
    {
      "_id": "M7V7bbdYwwHdZer5",
      "flags": {},
      "type": 0,
      "text": "\tPage of Spell Knowledge (9th)",
      "weight": 2,
      "range": [58, 59],
      "drawn": false
    },
    {
      "_id": "Urt6Q7XTwLk2O70y",
      "flags": {},
      "type": 0,
      "text": "\tPearl of Power (9th)",
      "weight": 3,
      "range": [60, 62],
      "drawn": false
    },
    {
      "_id": "4c2vTiLu7ATFgn3x",
      "flags": {},
      "type": 0,
      "text": "Well of Many Worlds",
      "weight": 1,
      "range": [63, 63],
      "drawn": false
    },
    {
      "_id": "1qb0SRGzl3XjAycD",
      "flags": {},
      "type": 0,
      "text": "\tManual of Bodily Health +3",
      "weight": 2,
      "range": [64, 65],
      "drawn": false
    },
    {
      "_id": "PS9FTtF6r4Lw1cWD",
      "flags": {},
      "type": 0,
      "text": "\tManual of Gainful Exercise +3",
      "weight": 2,
      "range": [66, 67],
      "drawn": false
    },
    {
      "_id": "sjLIMUipbWLuhoVv",
      "flags": {},
      "type": 0,
      "text": "\tManual of Quickness of Action +3",
      "weight": 2,
      "range": [68, 69],
      "drawn": false
    },
    {
      "_id": "OrINsQe68bBOiEgz",
      "flags": {},
      "type": 0,
      "text": "\tTome of Clear Thought +3",
      "weight": 2,
      "range": [70, 71],
      "drawn": false
    },
    {
      "_id": "sLBIAxpdq1TnVPTb",
      "flags": {},
      "type": 0,
      "text": "\tTome of Leadership and Influence +3",
      "weight": 2,
      "range": [72, 73],
      "drawn": false
    },
    {
      "_id": "wvOd9SuUnMseo2DU",
      "flags": {},
      "type": 0,
      "text": "\tTome of Understanding +3",
      "weight": 2,
      "range": [74, 75],
      "drawn": false
    },
    {
      "_id": "F3nXk28kfF23Bfbo",
      "flags": {},
      "type": 0,
      "text": "Apparatus of the Crab",
      "weight": 1,
      "range": [76, 76],
      "drawn": false
    },
    {
      "_id": "7rGY6RWiUPmdxe91",
      "flags": {},
      "type": 0,
      "text": "Bowl of Conjuring Water Elementals",
      "weight": 1,
      "range": [77, 77],
      "drawn": false
    },
    {
      "_id": "BS9lRVnL1pUceMWK",
      "flags": {},
      "type": 0,
      "text": "Brazier of Conjuring Fire Elementals",
      "weight": 1,
      "range": [78, 78],
      "drawn": false
    },
    {
      "_id": "xExR7EK9zXmV1TXZ",
      "flags": {},
      "type": 0,
      "text": "Censer of Conjuring Air Elementals",
      "weight": 1,
      "range": [79, 79],
      "drawn": false
    },
    {
      "_id": "CLmbRCjC6CCJClqW",
      "flags": {},
      "type": 0,
      "text": "Stone of Conjuring Earth Elementals",
      "weight": 1,
      "range": [80, 80],
      "drawn": false
    },
    {
      "_id": "WDbfWG6w1DZswx6i",
      "flags": {},
      "type": 0,
      "text": "Mirror of Opposition",
      "weight": 1,
      "range": [81, 81],
      "drawn": false
    },
    {
      "_id": "1IwzB3K65BJc2UYg",
      "flags": {},
      "type": 0,
      "text": "Strand of Prayer Beads (Greater)",
      "weight": 1,
      "range": [82, 82],
      "drawn": false
    },
    {
      "_id": "522YAmIWydo0Owz3",
      "flags": {},
      "type": 0,
      "text": "Lord's Banner (Crusades)",
      "weight": 1,
      "range": [83, 83],
      "drawn": false
    },
    {
      "_id": "smlvFf5mUrf9Fyzh",
      "flags": {},
      "type": 0,
      "text": "Manual of Bodily Health +4",
      "weight": 1,
      "range": [84, 84],
      "drawn": false
    },
    {
      "_id": "nGagHIJ84r2OPzpo",
      "flags": {},
      "type": 0,
      "text": "Manual of Gainful Exercise +4",
      "weight": 1,
      "range": [85, 85],
      "drawn": false
    },
    {
      "_id": "m64hPPGX2SzUJk7Q",
      "flags": {},
      "type": 0,
      "text": "Manual of Quickness of Action +4",
      "weight": 1,
      "range": [86, 86],
      "drawn": false
    },
    {
      "_id": "a5HC947Uz7kQoqpM",
      "flags": {},
      "type": 0,
      "text": "Tome of Clear Thought +4",
      "weight": 1,
      "range": [87, 87],
      "drawn": false
    },
    {
      "_id": "Ai6N4I4xyQ5IGRKY",
      "flags": {},
      "type": 0,
      "text": "Tome of Leadership and Influence +4",
      "weight": 1,
      "range": [88, 88],
      "drawn": false
    },
    {
      "_id": "YIE7KB663e9gHi6M",
      "flags": {},
      "type": 0,
      "text": "Tome of Understanding +4",
      "weight": 1,
      "range": [89, 89],
      "drawn": false
    },
    {
      "_id": "duorf7ACbhDhwaz6",
      "flags": {},
      "type": 0,
      "text": "Manual of Bodily Health +5",
      "weight": 1,
      "range": [90, 90],
      "drawn": false
    },
    {
      "_id": "X6lD5sVu2Z6ATsGq",
      "flags": {},
      "type": 0,
      "text": "Manual of Gainful Exercise +5",
      "weight": 1,
      "range": [91, 91],
      "drawn": false
    },
    {
      "_id": "AjAg18Pe3Wq04ZoC",
      "flags": {},
      "type": 0,
      "text": "Manual of Quickness of Action +5",
      "weight": 1,
      "range": [92, 92],
      "drawn": false
    },
    {
      "_id": "pUKdnexPuMqezftA",
      "flags": {},
      "type": 0,
      "text": "Tome of Clear Thought +5",
      "weight": 1,
      "range": [93, 93],
      "drawn": false
    },
    {
      "_id": "hfGODKyLijh8CrWW",
      "flags": {},
      "type": 0,
      "text": "Tome of Leadership and Influence +5",
      "weight": 1,
      "range": [94, 94],
      "drawn": false
    },
    {
      "_id": "b7Gwd8D8i7AYn94L",
      "flags": {},
      "type": 0,
      "text": "Tome of Understanding +5",
      "weight": 1,
      "range": [95, 95],
      "drawn": false
    },
    {
      "_id": "5FWrnpYbTHFJYake",
      "flags": {},
      "type": 0,
      "text": "Efreeti Bottle",
      "weight": 1,
      "range": [96, 96],
      "drawn": false
    },
    {
      "_id": "JxoR68B6VIt9Dvcw",
      "flags": {},
      "type": 0,
      "text": "Cubic Gate",
      "weight": 1,
      "range": [97, 97],
      "drawn": false
    },
    {
      "_id": "8q0x0w6chK85Js0u",
      "flags": {},
      "type": 0,
      "text": "Iron Flask",
      "weight": 1,
      "range": [98, 98],
      "drawn": false
    },
    {
      "_id": "ZD4yi5QVO6VrdDzu",
      "flags": {},
      "type": 0,
      "text": "Mirror of Mental Prowess",
      "weight": 1,
      "range": [99, 99],
      "drawn": false
    },
    {
      "_id": "ZnExunZJ2hkLJ6ZM",
      "flags": {},
      "type": 0,
      "text": "Mirror of Life Trapping",
      "weight": 1,
      "range": [100, 100],
      "drawn": false
    }
  ],
  "formula": "1d100",
  "replacement": true,
  "displayRoll": true,
  "_id": "mFfZKiXHPwiDA31X"
}
