{
  "name": "Greater Medium Divine Scrolls",
  "flags": {},
  "description": "",
  "results": [
    {
      "_id": "MDYIHySptisAzjvH",
      "flags": {},
      "type": 0,
      "text": "Uncommon Level 3 Divine Scrolls",
      "weight": 20,
      "range": [1, 20],
      "drawn": false
    },
    {
      "_id": "7Nbqm0BHSqfcKxpE",
      "flags": {},
      "type": 0,
      "text": "Uncommon Level 4 Divine Scrolls",
      "weight": 40,
      "range": [21, 60],
      "drawn": false
    },
    {
      "_id": "VfvSxcRYu66CiEcf",
      "flags": {},
      "type": 0,
      "text": "Uncommon Level 5 Divine Scrolls",
      "weight": 40,
      "range": [61, 100],
      "drawn": false
    }
  ],
  "formula": "1d100",
  "replacement": true,
  "displayRoll": true,
  "_id": "d7skvTUpsb9tpEg5"
}
