{
  "name": "Greater Minor Hand",
  "flags": {},
  "description": "",
  "results": [
    {
      "_id": "hfDten0z1V1UgqiQ",
      "flags": {},
      "type": 0,
      "text": "\tGauntlets of the Skilled Maneuver",
      "weight": 12,
      "range": [1, 12],
      "drawn": false
    },
    {
      "_id": "IrbMtPAFcca4pW30",
      "flags": {},
      "type": 0,
      "text": "\tGhostvision Gloves",
      "weight": 9,
      "range": [13, 21],
      "drawn": false
    },
    {
      "_id": "vO9zLJfl6uMl4vjY",
      "flags": {},
      "type": 0,
      "text": "\tGloves of Arrow Snaring",
      "weight": 12,
      "range": [22, 33],
      "drawn": false
    },
    {
      "_id": "bDE2deoa0MUf6uLS",
      "flags": {},
      "type": 0,
      "text": "\tTrapspringer's Gloves",
      "weight": 10,
      "range": [34, 43],
      "drawn": false
    },
    {
      "_id": "W0SrVMqI2TI3qZuA",
      "flags": {},
      "type": 0,
      "text": "\tGloves of Arcane Striking",
      "weight": 12,
      "range": [44, 55],
      "drawn": false
    },
    {
      "_id": "hyaBnmZlTMkRTVYb",
      "flags": {},
      "type": 0,
      "text": "\tPoisoner's Gloves",
      "weight": 10,
      "range": [56, 65],
      "drawn": false
    },
    {
      "_id": "btyKmVXZsEEDkGEg",
      "flags": {},
      "type": 0,
      "text": "\tMagnetist's Gloves",
      "weight": 10,
      "range": [66, 75],
      "drawn": false
    },
    {
      "_id": "d1dR14VPlKfi2hNY",
      "flags": {},
      "type": 0,
      "text": "\tGloves of Swimming and Climbing",
      "weight": 25,
      "range": [76, 100],
      "drawn": false
    }
  ],
  "formula": "1d100",
  "replacement": true,
  "displayRoll": true,
  "_id": "KFxU1FjEQjFgGUTk"
}
