{
  "name": "Lesser Major Slotless",
  "flags": {},
  "description": "",
  "results": [
    {
      "_id": "EfK0sWvIibJLZBHd",
      "flags": {},
      "type": 0,
      "text": "\tFigurine of Wondrous Power (Obsidian Steed)",
      "weight": 4,
      "range": [1, 4],
      "drawn": false
    },
    {
      "_id": "tZyLFlpLF7NPWT9C",
      "flags": {},
      "type": 0,
      "text": "\tCauldron of the Dead",
      "weight": 3,
      "range": [5, 7],
      "drawn": false
    },
    {
      "_id": "GfuyJWbe88UE2OgZ",
      "flags": {},
      "type": 0,
      "text": "\tDrums of Panic",
      "weight": 4,
      "range": [8, 11],
      "drawn": false
    },
    {
      "_id": "ymd4FvmKxhFvulM3",
      "flags": {},
      "type": 0,
      "text": "\tIoun Stone (Orange Prism)",
      "weight": 4,
      "range": [12, 15],
      "drawn": false
    },
    {
      "_id": "37bQa5gUITdJHuNA",
      "flags": {},
      "type": 0,
      "text": "\tIoun Stone (Pale Green Prism)",
      "weight": 4,
      "range": [16, 19],
      "drawn": false
    },
    {
      "_id": "OxIUdxXUjwArwRyN",
      "flags": {},
      "type": 0,
      "text": "\tLantern of Revealing",
      "weight": 4,
      "range": [20, 23],
      "drawn": false
    },
    {
      "_id": "PUgJbFwYCaQ7scsI",
      "flags": {},
      "type": 0,
      "text": "\tRacing Broom of Flying",
      "weight": 4,
      "range": [24, 27],
      "drawn": false
    },
    {
      "_id": "YJ3sHIxtbXEv9VeF",
      "flags": {},
      "type": 0,
      "text": "\tCauldron of Resurrection",
      "weight": 4,
      "range": [28, 31],
      "drawn": false
    },
    {
      "_id": "pEPrkz4U4TjxZfx4",
      "flags": {},
      "type": 0,
      "text": "\tCarpet of Flying (5 ft. By 10 ft.)",
      "weight": 5,
      "range": [32, 36],
      "drawn": false
    },
    {
      "_id": "X91mtzgHoKG7BoM2",
      "flags": {},
      "type": 0,
      "text": "\tGolem Manual (Iron)",
      "weight": 2,
      "range": [37, 38],
      "drawn": false
    },
    {
      "_id": "S551pMGVzBSrEc2F",
      "flags": {},
      "type": 0,
      "text": "\tBoro Bead (6th)",
      "weight": 2,
      "range": [39, 40],
      "drawn": false
    },
    {
      "_id": "z3Fl3R5I6H46xUI5",
      "flags": {},
      "type": 0,
      "text": "\tIoun Stone (Vibrant Purple Prism)",
      "weight": 4,
      "range": [41, 44],
      "drawn": false
    },
    {
      "_id": "GESsMlA728YUytrR",
      "flags": {},
      "type": 0,
      "text": "\tOrb of Utter Chaos",
      "weight": 4,
      "range": [45, 48],
      "drawn": false
    },
    {
      "_id": "2aRUyZO5wUYsevLY",
      "flags": {},
      "type": 0,
      "text": "\tPage of Spell Knowledge (6th)",
      "weight": 2,
      "range": [49, 50],
      "drawn": false
    },
    {
      "_id": "fI1MrrNiHwM8Or7V",
      "flags": {},
      "type": 0,
      "text": "\tPearl of Power (6th)",
      "weight": 8,
      "range": [51, 58],
      "drawn": false
    },
    {
      "_id": "b32eEIBRFwhv1SNF",
      "flags": {},
      "type": 0,
      "text": "\tPreserving Flask (6th)",
      "weight": 2,
      "range": [59, 60],
      "drawn": false
    },
    {
      "_id": "kULNBUbRs7RP3cMb",
      "flags": {},
      "type": 0,
      "text": "\tCauldron of Flying",
      "weight": 4,
      "range": [61, 64],
      "drawn": false
    },
    {
      "_id": "vdvtgoFaQSZUUAUr",
      "flags": {},
      "type": 0,
      "text": "\tEnmity Fetish",
      "weight": 2,
      "range": [65, 66],
      "drawn": false
    },
    {
      "_id": "iy2LXDInBBr5y8DM",
      "flags": {},
      "type": 0,
      "text": "\tIoun Stone (Lavender and Green Ellipsoid)",
      "weight": 3,
      "range": [67, 69],
      "drawn": false
    },
    {
      "_id": "k3ojbZRvuh8risCy",
      "flags": {},
      "type": 0,
      "text": "\tRing Gates",
      "weight": 4,
      "range": [70, 73],
      "drawn": false
    },
    {
      "_id": "V327nYQPCLrQaXdq",
      "flags": {},
      "type": 0,
      "text": "\tCauldron of Seeing",
      "weight": 4,
      "range": [74, 77],
      "drawn": false
    },
    {
      "_id": "BhYnvuj8P6zs9fKi",
      "flags": {},
      "type": 0,
      "text": "\tCrystal Ball",
      "weight": 4,
      "range": [78, 81],
      "drawn": false
    },
    {
      "_id": "18zGudWz2QrNJz3j",
      "flags": {},
      "type": 0,
      "text": "\tGolem Manual (Stone Guardian)",
      "weight": 2,
      "range": [82, 83],
      "drawn": false
    },
    {
      "_id": "d9BwoOGxMBZZbz0v",
      "flags": {},
      "type": 0,
      "text": "\tDrums of Haste",
      "weight": 4,
      "range": [84, 87],
      "drawn": false
    },
    {
      "_id": "hBDfFfY6LTouiX5a",
      "flags": {},
      "type": 0,
      "text": "\tStrand of Prayer Beads (Standard)",
      "weight": 4,
      "range": [88, 91],
      "drawn": false
    },
    {
      "_id": "PnePcbY7i4HtuQrr",
      "flags": {},
      "type": 0,
      "text": "\tOrb of Storms",
      "weight": 3,
      "range": [92, 94],
      "drawn": false
    },
    {
      "_id": "DAcgSXoBWg3J1h4v",
      "flags": {},
      "type": 0,
      "text": "\tPage of Spell Knowledge (7th)",
      "weight": 2,
      "range": [95, 96],
      "drawn": false
    },
    {
      "_id": "r69Us53EmySqLZf5",
      "flags": {},
      "type": 0,
      "text": "\tPearl of Power (7th)",
      "weight": 4,
      "range": [97, 100],
      "drawn": false
    }
  ],
  "formula": "1d100",
  "replacement": true,
  "displayRoll": true,
  "_id": "wEGI07y5TyF2yGdS"
}
