{
  "name": "Lesser Major Ring",
  "flags": {},
  "description": "",
  "results": [
    {
      "_id": "cDymXQIjsQMCFRaZ",
      "flags": {},
      "type": 0,
      "text": "Ring of Energy Resistance (Sonic), Major",
      "weight": 9,
      "range": [1, 9],
      "drawn": false
    },
    {
      "_id": "9RhmfPonXndaRY3n",
      "flags": {},
      "type": 0,
      "text": "Ring of the Ecclesiarch",
      "weight": 7,
      "range": [10, 16],
      "drawn": false
    },
    {
      "_id": "G3n7lv0I4TexIheu",
      "flags": {},
      "type": 0,
      "text": "Ring of Protection +4",
      "weight": 17,
      "range": [17, 33],
      "drawn": false
    },
    {
      "_id": "HEJcoK0RxScVZ4su",
      "flags": {},
      "type": 0,
      "text": "Ring of Return",
      "weight": 6,
      "range": [34, 39],
      "drawn": false
    },
    {
      "_id": "0mobXb7PimkdkxLv",
      "flags": {},
      "type": 0,
      "text": "Ring of Freedom of Movement",
      "weight": 16,
      "range": [40, 55],
      "drawn": false
    },
    {
      "_id": "CqxIGvJ0wwUMc4Qc",
      "flags": {},
      "type": 0,
      "text": "Ring of Wizardry II",
      "weight": 15,
      "range": [56, 70],
      "drawn": false
    },
    {
      "_id": "l8WHMfx82kGe7SAf",
      "flags": {},
      "type": 0,
      "text": "Ring of Inner Fortitude, Major",
      "weight": 5,
      "range": [71, 75],
      "drawn": false
    },
    {
      "_id": "9QdxYZsHXYkm5ARk",
      "flags": {},
      "type": 0,
      "text": "Ring of Energy Resistance (Sonic), Greater",
      "weight": 17,
      "range": [76, 92],
      "drawn": false
    },
    {
      "_id": "7aLBrrlghZbH1y1l",
      "flags": {},
      "type": 0,
      "text": "Ring of Delayed Doom",
      "weight": 8,
      "range": [93, 100],
      "drawn": false
    }
  ],
  "formula": "1d100",
  "replacement": true,
  "displayRoll": true,
  "_id": "27S2TQrfJ7zdYmX4"
}
