{
  "_id": "dsO9UXhmgjJZQ4cw",
  "name": "Lesser Medium Weapon",
  "flags": {},
  "description": "",
  "results": [
    {
      "_id": "wf5QNqy352SNEDh4",
      "flags": {},
      "type": 0,
      "text": "+1",
      "img": "icons/svg/d20-black.svg",
      "resultId": "",
      "weight": 10,
      "range": [1, 7],
      "drawn": false
    },
    {
      "_id": "72WPTUjOrJxAxOYD",
      "flags": {},
      "type": 2,
      "text": "Weapon Type",
      "img": "icons/svg/d20-black.svg",
      "collection": "pf1.ultimate-equipment",
      "resultId": "RwcA3WdbaYSp3xze",
      "weight": 20,
      "range": [1, 50],
      "drawn": false
    },
    {
      "_id": "yyatqk9KhxBXlXyG",
      "flags": {},
      "type": 0,
      "text": "+2",
      "img": "icons/svg/d20-black.svg",
      "resultId": "",
      "weight": 10,
      "range": [8, 14],
      "drawn": false
    },
    {
      "_id": "WywfyHh8OCfbjM63",
      "flags": {},
      "type": 0,
      "text": "+3",
      "img": "icons/svg/d20-black.svg",
      "resultId": "",
      "weight": 12,
      "range": [15, 21],
      "drawn": false
    },
    {
      "_id": "04TxqUPj2pBJ7upd",
      "flags": {},
      "type": 0,
      "text": "+1, with one +1 special ability:",
      "img": "icons/svg/d20-black.svg",
      "resultId": "",
      "weight": 12,
      "range": [22, 28],
      "drawn": false
    },
    {
      "_id": "sIxk6mV3Ug4rzHQN",
      "flags": {},
      "type": 2,
      "text": "+1 Weapon Special Ability",
      "img": "icons/svg/d20-black.svg",
      "collection": "pf1.ultimate-equipment",
      "resultId": "TYiIMLFmg8vY5SzD",
      "weight": 20,
      "range": [22, 42],
      "drawn": false
    },
    {
      "_id": "o0lp1g56bARTMlT9",
      "flags": {},
      "type": 0,
      "text": "+1,  with two +1 special abilities:",
      "img": "icons/svg/d20-black.svg",
      "resultId": "",
      "weight": 12,
      "range": [29, 35],
      "drawn": false
    },
    {
      "_id": "zOOxHITA7tIrZbCW",
      "flags": {},
      "type": 2,
      "text": "+1 Weapon Special Ability",
      "img": "icons/svg/d20-black.svg",
      "collection": "pf1.ultimate-equipment",
      "resultId": "TYiIMLFmg8vY5SzD",
      "weight": 20,
      "range": [29, 35],
      "drawn": false
    },
    {
      "_id": "lAC9H2EC8n8EGWhc",
      "flags": {},
      "type": 0,
      "text": "+2, with one +1 special ability:",
      "img": "icons/svg/d20-black.svg",
      "resultId": "",
      "weight": 12,
      "range": [36, 42],
      "drawn": false
    },
    {
      "_id": "K5Yd3vdxPNK2NOj7",
      "flags": {},
      "type": 0,
      "text": "+1, with one +2 special ability:",
      "img": "icons/svg/d20-black.svg",
      "resultId": "",
      "weight": 12,
      "range": [43, 50],
      "drawn": false
    },
    {
      "_id": "Jjg2VmEeFv93dlEB",
      "flags": {},
      "type": 2,
      "text": "+2 Weapon Special Abilities",
      "img": "icons/svg/d20-black.svg",
      "collection": "pf1.ultimate-equipment",
      "resultId": "SRngNw1UlfWrcahB",
      "weight": 20,
      "range": [43, 50],
      "drawn": false
    },
    {
      "_id": "n1gqPkXmDAN9UZgh",
      "flags": {},
      "type": 2,
      "text": "Ranged",
      "img": "icons/svg/d20-black.svg",
      "collection": "pf1.ultimate-equipment",
      "resultId": "QMDELLppsdz5zS7S",
      "weight": 20,
      "range": [51, 70],
      "drawn": false
    },
    {
      "_id": "T2wjO791WNFRKQ13",
      "flags": {},
      "type": 0,
      "text": "+1",
      "img": "icons/svg/d20-black.svg",
      "resultId": "",
      "weight": 20,
      "range": [51, 53],
      "drawn": false
    },
    {
      "_id": "IzsJJyCp3ymLseP0",
      "flags": {},
      "type": 0,
      "text": "+2",
      "img": "icons/svg/d20-black.svg",
      "resultId": "",
      "weight": 20,
      "range": [54, 56],
      "drawn": false
    },
    {
      "_id": "zDk0Ll4I32GPt50b",
      "flags": {},
      "type": 0,
      "text": "+3",
      "img": "icons/svg/d20-black.svg",
      "resultId": "",
      "weight": 20,
      "range": [57, 59],
      "drawn": false
    },
    {
      "_id": "2QFq06gw9i1pJp1i",
      "flags": {},
      "type": 0,
      "text": "+1, with one +1 special ability:",
      "img": "icons/svg/d20-black.svg",
      "resultId": "",
      "weight": 20,
      "range": [60, 62],
      "drawn": false
    },
    {
      "_id": "5L5pcuuqxl5YsEO1",
      "flags": {},
      "type": 2,
      "text": "+1 Ranged Weapon Special Abilities",
      "img": "icons/svg/d20-black.svg",
      "collection": "pf1.ultimate-equipment",
      "resultId": "wKfZAs85tvd6gN0b",
      "weight": 20,
      "range": [60, 68],
      "drawn": false
    },
    {
      "_id": "Di1bnuttXsLzZkAs",
      "flags": {},
      "type": 0,
      "text": "+1,  with two +1 special abilities:",
      "img": "icons/svg/d20-black.svg",
      "resultId": "",
      "weight": 20,
      "range": [63, 65],
      "drawn": false
    },
    {
      "_id": "f89Ir3NMv8SaLMCj",
      "flags": {},
      "type": 2,
      "text": "+1 Ranged Weapon Special Abilities",
      "img": "icons/svg/d20-black.svg",
      "collection": "pf1.ultimate-equipment",
      "resultId": "wKfZAs85tvd6gN0b",
      "weight": 20,
      "range": [63, 65],
      "drawn": false
    },
    {
      "_id": "x5vTjGTOqLjDvaD7",
      "flags": {},
      "type": 0,
      "text": "+2, with one +1 special ability:",
      "img": "icons/svg/d20-black.svg",
      "resultId": "",
      "weight": 20,
      "range": [66, 68],
      "drawn": false
    },
    {
      "_id": "bofzv4ITFhNud4U8",
      "flags": {},
      "type": 0,
      "text": "+1, with one +2 special ability:",
      "img": "icons/svg/d20-black.svg",
      "resultId": "",
      "weight": 20,
      "range": [69, 70],
      "drawn": false
    },
    {
      "_id": "UXgQ4o4wmqNFnHj6",
      "flags": {},
      "type": 2,
      "text": "+2 Ranged Weapon Special Abilities",
      "img": "icons/svg/d20-black.svg",
      "collection": "pf1.ultimate-equipment",
      "resultId": "XEeC6Vz3hlDl4Tn2",
      "weight": 20,
      "range": [69, 70],
      "drawn": false
    },
    {
      "_id": "aObbYZJNQ8mgPWJK",
      "flags": {},
      "type": 2,
      "text": "Ammunition",
      "img": "icons/svg/d20-black.svg",
      "collection": "pf1.ultimate-equipment",
      "resultId": "HIi7oxxt0rIhvNA6",
      "weight": 20,
      "range": [71, 80],
      "drawn": false
    },
    {
      "_id": "sydAPkyDNbLbdkGS",
      "flags": {},
      "type": 0,
      "text": "+1",
      "img": "icons/svg/d20-black.svg",
      "resultId": "",
      "weight": 20,
      "range": [71, 72],
      "drawn": false
    },
    {
      "_id": "qTIrqUtIpZybLUk0",
      "flags": {},
      "type": 0,
      "text": "+2",
      "img": "icons/svg/d20-black.svg",
      "resultId": "",
      "weight": 20,
      "range": [73, 74],
      "drawn": false
    },
    {
      "_id": "su8GaosC9rAyMLBj",
      "flags": {},
      "type": 0,
      "text": "+3",
      "img": "icons/svg/d20-black.svg",
      "resultId": "",
      "weight": 20,
      "range": [75, 76],
      "drawn": false
    },
    {
      "_id": "BT1rQPtlW0mLy6n7",
      "flags": {},
      "type": 0,
      "text": "+1, with one +1 special ability:",
      "img": "icons/svg/d20-black.svg",
      "resultId": "",
      "weight": 20,
      "range": [77, 77],
      "drawn": false
    },
    {
      "_id": "ffG7KbLIQalStFo7",
      "flags": {},
      "type": 2,
      "text": "+1 Ammunition Special Abilities",
      "img": "icons/svg/d20-black.svg",
      "collection": "pf1.ultimate-equipment",
      "resultId": "y7aKImUJ8DQV1UaB",
      "weight": 20,
      "range": [77, 79],
      "drawn": false
    },
    {
      "_id": "KX5hXAJufbmhKD3K",
      "flags": {},
      "type": 0,
      "text": "+1,  with two +1 special abilities:",
      "img": "icons/svg/d20-black.svg",
      "resultId": "",
      "weight": 20,
      "range": [78, 78],
      "drawn": false
    },
    {
      "_id": "KwbQKmEjBl42pp85",
      "flags": {},
      "type": 2,
      "text": "+1 Ammunition Special Abilities",
      "img": "icons/svg/d20-black.svg",
      "collection": "pf1.ultimate-equipment",
      "resultId": "y7aKImUJ8DQV1UaB",
      "weight": 20,
      "range": [78, 78],
      "drawn": false
    },
    {
      "_id": "JTCUaJIAAKuiPZQ4",
      "flags": {},
      "type": 0,
      "text": "+2, with one +1 special ability:",
      "img": "icons/svg/d20-black.svg",
      "resultId": "",
      "weight": 20,
      "range": [79, 79],
      "drawn": false
    },
    {
      "_id": "qtXNo5K93SbpeYkX",
      "flags": {},
      "type": 0,
      "text": "+1, with one +2 special ability:",
      "img": "icons/svg/d20-black.svg",
      "resultId": "",
      "weight": 20,
      "range": [80, 80],
      "drawn": false
    },
    {
      "_id": "mPvB15CLdesGFtOC",
      "flags": {},
      "type": 2,
      "text": "+2 Ammunition Special Abilities",
      "img": "icons/svg/d20-black.svg",
      "collection": "pf1.ultimate-equipment",
      "resultId": "lkywV5vZLD28Vcf1",
      "weight": 20,
      "range": [80, 80],
      "drawn": false
    },
    {
      "_id": "FSfZLiRydik8Niga",
      "flags": {},
      "type": 2,
      "text": "Lesser Medium Specific Weapons",
      "img": "icons/svg/d20-black.svg",
      "collection": "pf1.ultimate-equipment",
      "resultId": "ziuAUh4A25WCv9fd",
      "weight": 20,
      "range": [81, 100],
      "drawn": false
    }
  ],
  "formula": "1d100",
  "replacement": true,
  "displayRoll": true
}
