{
  "name": "Uncommon Level 3 Potions and Oils",
  "flags": {},
  "description": "",
  "results": [
    {
      "_id": "oiIBMUkyr9JGxL6n",
      "flags": {},
      "type": 0,
      "text": "Potion of Burrow",
      "img": "icons/svg/d20-black.svg",
      "resultId": "",
      "weight": 12,
      "range": [102, 113],
      "drawn": false
    },
    {
      "_id": "Ujz08KdssXI1Wb9W",
      "flags": {},
      "type": 0,
      "text": "Potion of Countless Eyes",
      "img": "icons/svg/d20-black.svg",
      "resultId": "",
      "weight": 12,
      "range": [114, 125],
      "drawn": false
    },
    {
      "_id": "T3OgGvJyxGRgrzZK",
      "flags": {},
      "type": 0,
      "text": "Potion of Daylight",
      "img": "icons/svg/d20-black.svg",
      "resultId": "",
      "weight": 12,
      "range": [126, 137],
      "drawn": false
    },
    {
      "_id": "yGxT8bqrcPG3thex",
      "flags": {},
      "type": 0,
      "text": "Potion of Draconic Reservoir",
      "img": "icons/svg/d20-black.svg",
      "resultId": "",
      "weight": 15,
      "range": [138, 152],
      "drawn": false
    },
    {
      "_id": "y9Z8OLH0kqDqXzNQ",
      "flags": {},
      "type": 0,
      "text": "Potion of Flame Arrow",
      "img": "icons/svg/d20-black.svg",
      "resultId": "",
      "weight": 9,
      "range": [153, 161],
      "drawn": false
    },
    {
      "_id": "Y8OT2pFnbRfUL2iw",
      "flags": {},
      "type": 0,
      "text": "Potion of Shrink Item",
      "img": "icons/svg/d20-black.svg",
      "resultId": "",
      "weight": 9,
      "range": [162, 170],
      "drawn": false
    },
    {
      "_id": "PDD4YekFp68sVgii",
      "flags": {},
      "type": 0,
      "text": "Potion of Stone Shape",
      "img": "icons/svg/d20-black.svg",
      "resultId": "",
      "weight": 10,
      "range": [171, 180],
      "drawn": false
    },
    {
      "_id": "SxdAr10QYyHD26Ky",
      "flags": {},
      "type": 0,
      "text": "Potion of Fire Trap",
      "img": "icons/svg/d20-black.svg",
      "resultId": "",
      "weight": 10,
      "range": [181, 190],
      "drawn": false
    },
    {
      "_id": "JuYvsVZ2tqinvmpj",
      "flags": {},
      "type": 0,
      "text": "Potion of Nondetection",
      "img": "icons/svg/d20-black.svg",
      "resultId": "",
      "weight": 13,
      "range": [191, 203],
      "drawn": false
    }
  ],
  "formula": "1d203",
  "replacement": true,
  "displayRoll": true,
  "_id": "syOK3i5SVcAKvYuC"
}
