{
  "_id": "bP0vKIfcGKDgtiUc",
  "name": "Four-Mirror",
  "type": "equipment",
  "img": "systems/pf1/icons/items/armor/four-mirror.PNG",
  "sort": 0,
  "flags": {},
  "system": {
    "description": {
      "value": "<p>This armor consists of four plates harnessed together with leather shoulder straps. Two round plates protect your front and back, while two smaller rectangular plates cover the sides of the torso. Four-mirror armor is worn over chainmail to provide added protection, and comes with a spiked helmet with a chainmail hood.</p>"
    },
    "tags": [["Four-Mirror"]],
    "weight": {
      "value": 45
    },
    "price": 125,
    "hp": {
      "max": 30,
      "value": 30
    },
    "changes": [],
    "contextNotes": [],
    "actions": [],
    "attackNotes": [],
    "effectNotes": [],
    "links": {
      "children": [],
      "charges": []
    },
    "scriptCalls": [],
    "equipmentSubtype": "mediumArmor",
    "armor": {
      "value": 6,
      "dex": 2,
      "acp": 5
    },
    "spellFailure": 30,
    "slot": "armor"
  }
}
