{
  "_id": "LvqGhztGDLYS9QES",
  "name": "Ice Coat",
  "type": "equipment",
  "img": "systems/pf1/icons/items/armor/ice-coat.png",
  "sort": 0,
  "flags": {},
  "system": {
    "description": {
      "value": "<p>Used by the Erutaki human tribes and snowcaster elves native to the arctic tundra of the Crown of the World, this heavy parka is treated as an armored coatUE. It provides the benefits of a cold-weather outfit, and it can be donned or removed as a move action. In addition, the fluffy white fur of the parka blends into arctic landscapes, providing a +2 circumstance bonus on Stealth checks in snowy environments.</p>"
    },
    "tags": [["Ice Coat"]],
    "weight": {
      "value": 24
    },
    "price": 80,
    "hp": {
      "max": 20,
      "value": 20
    },
    "hardness": 2,
    "changes": [],
    "contextNotes": [],
    "actions": [],
    "attackNotes": [],
    "effectNotes": [],
    "links": {
      "children": [],
      "charges": []
    },
    "scriptCalls": [],
    "equipmentSubtype": "mediumArmor",
    "armor": {
      "value": 4,
      "dex": 3,
      "acp": 2
    },
    "spellFailure": 20,
    "slot": "armor"
  }
}
