{
  "_id": "KwwDSMKGF5P9vrQr",
  "name": "Kusari Gusoku",
  "type": "equipment",
  "img": "systems/pf1/icons/items/armor/kusari-gusoku.png",
  "sort": 0,
  "flags": {},
  "system": {
    "description": {
      "value": "<p>Kusari gusoku is similar to tatami-do armor; however, a katabira— a type of chain jacket—is worn in place of the chest armor.</p>"
    },
    "tags": [["Kusari Gusoku"]],
    "weight": {
      "value": 45
    },
    "price": 350,
    "hp": {
      "max": 35,
      "value": 35
    },
    "hardness": 10,
    "changes": [],
    "contextNotes": [],
    "actions": [],
    "attackNotes": [],
    "effectNotes": [],
    "links": {
      "children": [],
      "charges": []
    },
    "scriptCalls": [],
    "equipmentSubtype": "heavyArmor",
    "armor": {
      "value": 7,
      "dex": 1,
      "acp": 7
    },
    "spellFailure": 35,
    "slot": "armor"
  }
}
