{
  "_id": "xuSBPIosjkEQ0EKM",
  "name": "Leaf Armor",
  "type": "equipment",
  "img": "systems/pf1/icons/items/armor/leaf-armor.PNG",
  "sort": 0,
  "flags": {},
  "system": {
    "description": {
      "value": "<p>Druidic elves use alchemical compounds to treat special leaves used in crafting armor for their warriors. Leaf armor is always of masterwork quality.</p>"
    },
    "tags": [["Leaf Armor"]],
    "weight": {
      "value": 20
    },
    "price": 500,
    "hp": {
      "max": 15,
      "value": 15
    },
    "hardness": 2,
    "changes": [],
    "contextNotes": [],
    "actions": [],
    "attackNotes": [],
    "effectNotes": [],
    "links": {
      "children": [],
      "charges": []
    },
    "scriptCalls": [],
    "armor": {
      "value": 3,
      "dex": 5
    },
    "spellFailure": 15,
    "slot": "armor"
  }
}
