{
  "_id": "l1qNkx4xGXelq6yY",
  "name": "Light Wooden Shield",
  "type": "equipment",
  "img": "systems/pf1/icons/items/armor/shield-light-wood.png",
  "sort": 0,
  "flags": {},
  "system": {
    "description": {
      "value": "<p>A light wooden shield is essentially the same as a light steel shield, except it responds differently to some spells and effects (such as rusting grasp). A druid can use a light wooden shield, but not a light steel shield.</p>"
    },
    "tags": [],
    "weight": {
      "value": 5
    },
    "price": 3,
    "hp": {
      "max": 7,
      "value": 7
    },
    "hardness": 5,
    "changes": [],
    "contextNotes": [],
    "actions": [],
    "attackNotes": [],
    "effectNotes": [],
    "links": {
      "children": [],
      "charges": []
    },
    "scriptCalls": [],
    "subType": "shield",
    "equipmentSubtype": "lightShield",
    "armor": {
      "value": 1,
      "acp": 1
    },
    "spellFailure": 5,
    "slot": "shield"
  }
}
