{
  "_id": "1JyzDvOVL6t9uw2K",
  "name": "Cleric (Quick)",
  "type": "feat",
  "img": "systems/pf1/icons/skills/violet_07.jpg",
  "sort": 0,
  "flags": {},
  "system": {
    "description": {
      "value": "<p><strong>Acquired/Inherited Template</strong> Acquired<br><strong>Simple Template</strong> Yes<br><strong>Usable with Summons</strong> No<p>As a conduit of divine power, a cleric creature is often viewed with great respect by its community. A cleric creature's CR increases by 2 if the creature has 7 or more HD, and it increases by 3 if the creature has 13 or more HD. A cleric creature must worship a deity (which must be determined when the template is added) and its alignment must be within one step of that deity's.<p><strong>Quick Rules: </strong>+2 on all rolls based on Wis; can channel energy† a number of times per day equal to 3 + its Cha modifier (positive if good, negative if evil, choose if neutral; using its HD – 2 as its cleric level to determine the effect and DC, minimum 1); can cast a small number of cleric spells (see the Cleric, Druid, and Wizard Spell Slots table on page 251) using its HD as its CL.<p><strong>Rebuild Rules: </strong>Special Attacks channel energy† (can be used a number of times per day equal to 3 + is Cha modifier—positive if good, negative if evil, choose if neutral—using its HD – 2 as its cleric level to determine effect and DC, minimum 1); Cleric Spells can cast a small number of cleric spells (see the Cleric, Druid, and Wizard Spell Slots table on page 251) using its HD as its CL; Ability Scores +4 Wisdom.</p>\n<p><strong>Cleric, Druid, and Wizard Spells Slots</strong></p>\n<hr>\n<table>\n<tbody>\n<tr>\n<td><strong>HD</strong></td>\n<td><strong>0</strong></td>\n<td><strong>1</strong></td>\n<td><strong>2</strong></td>\n<td><strong>3</strong></td>\n<td><strong>4</strong></td>\n<td><strong>5</strong></td>\n<td><strong>6</strong></td>\n<td><strong>7</strong></td>\n<td><strong>8</strong></td>\n<td><strong>9</strong></td>\n</tr>\n<tr>\n<td>1-3</td>\n<td>2</td>\n<td>1</td>\n<td>—</td>\n<td>—</td>\n<td>—</td>\n<td>—</td>\n<td>—</td>\n<td>—</td>\n<td>—</td>\n<td>—</td>\n</tr>\n<tr>\n<td>4-6</td>\n<td>2</td>\n<td>2</td>\n<td>1</td>\n<td>—</td>\n<td>—</td>\n<td>—</td>\n<td>—</td>\n<td>—</td>\n<td>—</td>\n<td>—</td>\n</tr>\n<tr>\n<td>7-9</td>\n<td>‡</td>\n<td>2</td>\n<td>2</td>\n<td>1</td>\n<td>—</td>\n<td>—</td>\n<td>—</td>\n<td>—</td>\n<td>—</td>\n<td>—</td>\n</tr>\n<tr>\n<td>10-12</td>\n<td>‡</td>\n<td>‡</td>\n<td>2</td>\n<td>2</td>\n<td>1</td>\n<td>—</td>\n<td>—</td>\n<td>—</td>\n<td>—</td>\n<td>—</td>\n</tr>\n<tr>\n<td>13-15</td>\n<td>‡</td>\n<td>‡</td>\n<td>‡</td>\n<td>2</td>\n<td>2</td>\n<td>1</td>\n<td>—</td>\n<td>—</td>\n<td>—</td>\n<td>—</td>\n</tr>\n<tr>\n<td>16-18</td>\n<td>‡</td>\n<td>‡</td>\n<td>‡</td>\n<td>‡</td>\n<td>2</td>\n<td>2</td>\n<td>1</td>\n<td>—</td>\n<td>—</td>\n<td>—</td>\n</tr>\n<tr>\n<td>19-21</td>\n<td>‡</td>\n<td>‡</td>\n<td>‡</td>\n<td>‡</td>\n<td>‡</td>\n<td>2</td>\n<td>2</td>\n<td>1</td>\n<td>—</td>\n<td>—</td>\n</tr>\n<tr>\n<td>22-24</td>\n<td>‡</td>\n<td>‡</td>\n<td>‡</td>\n<td>‡</td>\n<td>‡</td>\n<td>‡</td>\n<td>2</td>\n<td>2</td>\n<td>1</td>\n<td>—</td>\n</tr>\n<tr>\n<td>25+</td>\n<td>‡</td>\n<td>‡</td>\n<td>‡</td>\n<td>‡</td>\n<td>‡</td>\n<td>‡</td>\n<td>‡</td>\n<td>2</td>\n<td>2</td>\n<td>1</td>\n</tr>\n</tbody>\n</table>"
    },
    "tags": [],
    "actions": [],
    "attackNotes": [],
    "effectNotes": [],
    "changes": [
      {
        "_id": "a1qpmyzs",
        "formula": "2",
        "operator": "add",
        "subTarget": "will",
        "modifier": "untyped",
        "priority": 0,
        "value": 0,
        "target": "savingThrows"
      },
      {
        "_id": "4ismtjh1",
        "formula": "2",
        "operator": "add",
        "subTarget": "wisSkills",
        "modifier": "untyped",
        "priority": 0,
        "value": 0,
        "target": "skills"
      },
      {
        "_id": "aszb7v22",
        "formula": "2",
        "operator": "add",
        "subTarget": "wisChecks",
        "modifier": "untyped",
        "priority": 0,
        "value": 0,
        "target": "abilityChecks"
      }
    ],
    "contextNotes": [],
    "links": {
      "children": [],
      "charges": []
    },
    "armorProf": {
      "value": []
    },
    "weaponProf": {
      "value": []
    },
    "languages": {
      "value": []
    },
    "scriptCalls": [],
    "subType": "template",
    "associations": {
      "classes": []
    },
    "crOffset": "(@attributes.hd.total >= 13) ? 3 : ((@attributes.hd.total > 6 && @attributes.hd.total < 13) ? 2 : 1)"
  }
}
