{
  "_id": "c33Zy5DJAhatfl1D",
  "name": "Deep Creature (Rebuild)",
  "type": "feat",
  "img": "systems/pf1/icons/skills/violet_07.jpg",
  "sort": 0,
  "flags": {},
  "system": {
    "description": {
      "value": "<p><strong>Acquired/Inherited Template</strong> Acquired</p>\n<p><strong>Simple Template </strong>Yes<br><strong>Usable with Summons</strong> No<p>Deep creatures have been twisted by the deep ones, whether through interbreeding or foul rituals.<p><strong>Quick Rules: </strong>+8 on Swim checks and can always take 10 on Swim checks; swim speed equal to base land speed; +1 to AC; +1 on rolls based on Con or Wis; +1 hp/HD; two claw attacks that each deal 1d4 points of damage (for Medium creatures); amphibious.<p><strong>Rebuild Rules:</strong> Type gain the aquatic and deep one subtypes; AC natural armor increases by 1; Speed swim speed equal to base land speed; Melee two claw attacks that each deal 1d4 points of damage (for Medium creatures); Special Qualities amphibious; Ability Scores +2 Str, +2 Con, +2 Wis.</p>"
    },
    "tags": [],
    "actions": [],
    "attackNotes": [],
    "effectNotes": [],
    "changes": [
      {
        "_id": "wlln0evk",
        "formula": "1",
        "operator": "add",
        "subTarget": "nac",
        "modifier": "untyped",
        "priority": 0,
        "value": 0,
        "target": "ac"
      },
      {
        "_id": "d0vzr7ll",
        "formula": "2",
        "operator": "add",
        "subTarget": "str",
        "modifier": "untyped",
        "priority": 0,
        "value": 0,
        "target": "ability"
      },
      {
        "_id": "zc4gy7a8",
        "formula": "2",
        "operator": "add",
        "subTarget": "con",
        "modifier": "untyped",
        "priority": 0,
        "value": 0,
        "target": "ability"
      },
      {
        "_id": "7dwr7b8c",
        "formula": "2",
        "operator": "add",
        "subTarget": "wis",
        "modifier": "untyped",
        "priority": 0,
        "value": 0,
        "target": "ability"
      }
    ],
    "contextNotes": [],
    "links": {
      "children": [],
      "charges": []
    },
    "armorProf": {
      "value": []
    },
    "weaponProf": {
      "value": []
    },
    "languages": {
      "value": []
    },
    "scriptCalls": [],
    "subType": "template",
    "associations": {
      "classes": []
    },
    "crOffset": "1"
  }
}
