{
  "_id": "gMtxmfemM0rZFyZO",
  "name": "Primordial",
  "type": "feat",
  "img": "systems/pf1/icons/skills/violet_07.jpg",
  "sort": 0,
  "flags": {},
  "system": {
    "description": {
      "value": "<p><strong>Acquired/Inherited Template</strong> Acquired<br><strong>Simple Template</strong> Yes<br><strong>Usable with Summons</strong> Yes - Requires the feat Versatile Summon Monster or Versatile Summon Nature's Ally<p>Primordial creatures are magical precursors or echoes of creatures from the Material Plane. A primordial creature’s CR increases by 1 only if the base creature has 5 or more HD.<p><strong>Rebuild Rules: </strong></p>\n<p><strong>Defensive Abilities</strong> gains DR as noted on the table below; SR gains SR equal to its new CR + 6;</p>\n<p><strong>Speed </strong>gains a +10-ft. bonus to all speeds;</p>\n<p><strong>Attacks </strong>the damage dice for one primary natural weapon increases as if the creature were one size larger (if the creature has more than one primary attack, the increased damage is applied to the first attack type it has from this list: bite, claw, slam, gore, talon, sting);</p>\n<p><strong>Spell-Like Abilities </strong>gains spell-like abilities listed on the table below according to its Hit Dice (including all the spell-like abilities of lower-Hit Die primordial creatures), each available 1/day. The DCs of any saves against these abilities are equal to 10 + the primordial creature’s Charisma bonus + spell level.</p>\n<hr>\n<table>\n<tbody>\n<tr>\n<td><strong>Hit Dice</strong></td>\n<td><strong>DR</strong></td>\n<td><strong>Spell-Like Abilities</strong></td>\n</tr>\n<tr>\n<td>1-4</td>\n<td>-</td>\n<td><em>Dancing lights</em></td>\n</tr>\n<tr>\n<td>5-10</td>\n<td>5/cold iron</td>\n<td><em>Faerie fire</em></td>\n</tr>\n<tr>\n<td>11+</td>\n<td>10/cold iron</td>\n<td><em>Lesser confusion</em></td>\n</tr>\n</tbody>\n</table>"
    },
    "tags": [],
    "actions": [],
    "attackNotes": [],
    "effectNotes": [],
    "changes": [],
    "contextNotes": [],
    "links": {
      "children": [],
      "charges": []
    },
    "armorProf": {
      "value": []
    },
    "weaponProf": {
      "value": []
    },
    "languages": {
      "value": []
    },
    "scriptCalls": [],
    "subType": "template",
    "associations": {
      "classes": []
    },
    "crOffset": "@attributes.hd.total >= 5 ? 1 : 0"
  }
}
