{
  "_id": "q1qyzlzQOF1I2hB5",
  "name": "Promethean Creature",
  "type": "feat",
  "img": "systems/pf1/icons/skills/violet_07.jpg",
  "sort": 0,
  "flags": {},
  "system": {
    "description": {
      "value": "<p><strong>Acquired/Inherited Template</strong> Acquired<br><strong>Simple Template</strong> Yes<br><strong>Usable with Summons </strong>No<p>A promethean creature has had some of its body replaced by golem parts.<p><strong>Quick Rules: </strong>+4 to AC; +2 on rolls based on Str; slam attack that deals 1d6 points of damage (for Medium creatures); +4 on saving throws vs. poison and disease; immune to emotionUM effects except those that produce rage, hatred, or anger; automatically stabilize when below 0 hp.<p><strong>Rebuild Rules: </strong>AC natural armor bonus increases by 4; Defensive Abilities +4 on saving throws vs. poison and disease, immune to emotion effects except those that produce rage, hatred, or anger; automatically stabilize when below 0 hp; Melee slam attack that deals 1d6 points of damage (for Medium creatures); Special Qualities doesn’t need to eat, sleep, or drink; Ability Scores +4 Str.</p>"
    },
    "tags": [],
    "actions": [],
    "attackNotes": [],
    "effectNotes": [],
    "changes": [
      {
        "_id": "n4pxe9i9",
        "formula": "4",
        "operator": "add",
        "subTarget": "nac",
        "modifier": "untyped",
        "priority": 0,
        "value": 0,
        "target": "ac"
      },
      {
        "_id": "y7bihzse",
        "formula": "4",
        "operator": "add",
        "subTarget": "str",
        "modifier": "untyped",
        "priority": 0,
        "value": 0,
        "target": "ability"
      }
    ],
    "contextNotes": [],
    "links": {
      "children": [],
      "charges": []
    },
    "armorProf": {
      "value": []
    },
    "weaponProf": {
      "value": []
    },
    "languages": {
      "value": []
    },
    "scriptCalls": [],
    "subType": "template",
    "associations": {
      "classes": []
    },
    "crOffset": "1"
  }
}
