{
  "_id": "yvYkW2QIxFIvStcu",
  "name": "Shadow Creature",
  "type": "feat",
  "img": "systems/pf1/icons/skills/violet_07.jpg",
  "sort": 0,
  "flags": {},
  "system": {
    "description": {
      "value": "<p><strong>Acquired/Inherited Template</strong> Inherited<br><strong>Simple Template</strong> No<br><strong>Usable with Summons</strong> Yes<p>Creatures with the shadow creature template dwell on the Shadow Plane, only rarely venturing onto other, brighter planes, and can be summoned by shadow callers. A shadow creature's CR increases by +1. A shadow creature's quick and rebuild rules are the same.<p><strong>Rebuild Rules:</strong></p>\n<p><strong>Senses</strong> gains darkvision 60 ft. and low-light vision;</p>\n<p><strong>Defensive Abilities </strong>gains energy resistance and DR as noted on the table below; SR gains SR equal to new CR + 6;</p>\n<p><strong>Special Abilities </strong><em>Shadow Blend (Su) </em>In any condition of illumination other than bright light, a shadow creature blends into the shadows, giving it concealment (20% miss chance). A shadow creature can suspend or resume this ability as a free action.</p>\n<hr>\n<table>\n<tbody>\n<tr>\n<td><strong>Hit Dice</strong></td>\n<td><strong>Resist Cold and Electricity</strong></td>\n<td><strong>DR</strong></td>\n</tr>\n<tr>\n<td>1–4</td>\n<td>5</td>\n<td>—</td>\n</tr>\n<tr>\n<td>5–10</td>\n<td>10</td>\n<td>5/magic</td>\n</tr>\n<tr>\n<td>11+</td>\n<td>15</td>\n<td>10/magic</td>\n</tr>\n</tbody>\n</table>"
    },
    "tags": [],
    "actions": [],
    "attackNotes": [],
    "effectNotes": [],
    "changes": [],
    "contextNotes": [],
    "links": {
      "children": [],
      "charges": []
    },
    "armorProf": {
      "value": []
    },
    "weaponProf": {
      "value": []
    },
    "languages": {
      "value": []
    },
    "scriptCalls": [],
    "subType": "template",
    "associations": {
      "classes": []
    },
    "crOffset": "1"
  }
}
