{
  "_id": "XRIfX0iS6TRzs5Ov",
  "name": "Terror Creature",
  "type": "feat",
  "img": "systems/pf1/icons/skills/violet_07.jpg",
  "sort": 0,
  "flags": {},
  "system": {
    "description": {
      "value": "<p><strong>Acquired/Inherited Template </strong>Acquired<br><strong>Simple Template</strong> Yes<br><strong>Usable with Summons</strong> Yes<p>Creatures with the terror template are warped by prolonged contact with the Negative Energy Plane. They are terrifying to behold and have developed special resistances and attacks. A terror creature’s quick and rebuild rules are the same.<p><strong>Rebuild Rules:</strong></p>\n<p><strong>Alignment </strong>changes to NE;</p>\n<p><strong>Senses </strong>gains darkvision 60 ft.;</p>\n<p><strong>Aura </strong>fear (as fear spell, 20 ft., Will save DC 10 + 1/2 terror creature’s racial HD + creature’s Charisma modifier);</p>\n<p><strong>Defensive Abilities </strong>negative energy absorption (Su; heals 1 hit point for every 3 points of damage that negative energy attacks would otherwise deal; a terror creature gets no saving throw against negative energy effects);</p>\n<p><strong>Immune </strong>fear effects</p>"
    },
    "tags": [],
    "actions": [],
    "attackNotes": [],
    "effectNotes": [],
    "changes": [],
    "contextNotes": [],
    "links": {
      "children": [],
      "charges": []
    },
    "armorProf": {
      "value": []
    },
    "weaponProf": {
      "value": []
    },
    "languages": {
      "value": []
    },
    "scriptCalls": [],
    "subType": "template",
    "associations": {
      "classes": []
    },
    "crOffset": "0"
  }
}
