{
  "_id": "9HhBrM5RbDURSxeM",
  "name": "Winter Fey",
  "type": "feat",
  "img": "systems/pf1/icons/skills/violet_07.jpg",
  "sort": 0,
  "flags": {},
  "system": {
    "description": {
      "value": "<p><strong>Acquired/Inherited Template </strong>Inherited<br><strong>Simple Template</strong> No<br><strong>Usable with Summons</strong> Yes<p>“Winter fey” is an inherited template that can be added to any fey creature without the fire subtype, referred to hereafter as the base creature. A winter fey uses all the base creature’s statistics and special abilities except as noted here.<p><strong>CR:</strong> As base creature +1.</p>\n<p><strong>Alignment: </strong>Any evil.</p>\n<p><strong>Type: </strong>The base creature’s type remains fey, but it gains the cold subtype.</p>\n<p><strong>AC: </strong>Natural armor improves by +2.</p>\n<p><strong>Defensive Abilities: </strong>A winter fey retains the base creature’s defensive abilities, and gains the following ability.</p>\n<p><em>Fast Healing (Su): </em>A winter fey gains fast healing 3 when in contact with ice or snow.</p>\n<p><strong>Speed: </strong>A winter fey retains the base creature’s normal movement and gains the following.</p>\n<p><em>Ice Walking (Ex): </em>A winter fey takes no penalty to speed or on Acrobatics, Climb, or Stealth checks in snowy or icy terrain or weather conditions and can walk across snow crusts or thin ice without breaking through.</p>\n<p><strong>Attacks: </strong>A winter fey retains all the natural weapons, manufactured weapon attacks, and weapon proficiencies of the base creature. A creature with hands gains one claw attack per hand; the winter fey can strike with each of its claw attacks at its full attack bonus. A claw attack deals damage as if the winter fey were one size category larger than its actual size (Pathfinder RPG Bestiary 301–302). If the base creature already had claw attacks with its hands, use the winter fey claw damage only if it’s better.</p>\n<p><strong>Special Attacks: </strong>A winter fey retains the base creature’s special attacks and gains the ones listed below.</p>\n<p><em>Frigid Touch (Su): </em>Once per day, a winter fey may attempt a touch attack against a foe; if successful, it deals 1d6 points of Dexterity damage by freezing the blood in its victim’s veins and numbing its victim to the bone.</p>\n<p><em>Frosty Grasp (Su): </em>A winter fey’s natural attacks, as well as any weapons it wields, deal an additional 1d6 points of cold damage.</p>\n<p><strong>Abilities: </strong>A winter fey’s Strength and Constitution increase by +2.</p>\n<p><strong>Skills: </strong>A winter fey gains a +4 racial bonus on Survival checks when in cold environments.</p>"
    },
    "tags": [],
    "actions": [],
    "attackNotes": [],
    "effectNotes": [],
    "changes": [
      {
        "_id": "za0wjlf0",
        "formula": "2",
        "operator": "add",
        "subTarget": "nac",
        "modifier": "untyped",
        "priority": 0,
        "value": 0,
        "target": "ac"
      },
      {
        "_id": "1grwzicl",
        "formula": "2",
        "operator": "add",
        "subTarget": "str",
        "modifier": "untyped",
        "priority": 0,
        "value": 0,
        "target": "ability"
      },
      {
        "_id": "d3a47xt6",
        "formula": "2",
        "operator": "add",
        "subTarget": "con",
        "modifier": "untyped",
        "priority": 0,
        "value": 0,
        "target": "ability"
      }
    ],
    "contextNotes": [],
    "links": {
      "children": [],
      "charges": []
    },
    "armorProf": {
      "value": []
    },
    "weaponProf": {
      "value": []
    },
    "languages": {
      "value": []
    },
    "scriptCalls": [],
    "subType": "template",
    "associations": {
      "classes": []
    },
    "crOffset": "1"
  }
}
