{
  "_id": "m1YCxlSsoQZM75C6",
  "name": "Zombie Lord",
  "type": "feat",
  "img": "systems/pf1/icons/skills/violet_07.jpg",
  "sort": 0,
  "flags": {},
  "system": {
    "description": {
      "value": "<p><strong>Acquired/Inherited Template </strong>Acquired<br><strong>Simple Template</strong> No<br><strong>Usable with Summons</strong> No<p>Zombie lords are the fleshy counterparts of skeletal champions—intelligent, cunning, and envious of creatures whose bodies aren’t rotting away. Despite their decaying flesh, they are not slow like common zombies, and can easily pursue fleeing prey. Zombie lords are more powerful than common zombies and retain their class levels.<p>“Zombie lord” is an acquired template that can be added to any corporeal creature (other than undead) that has a minimum Intelligence of 3. This corporeal creature is referred to hereafter as the base creature.<p><strong>CR:</strong> A zombie lord’s CR is 1 higher than that of a normal zombie with the same Hit Dice, plus the normal CR increase for class levels (if any).</p>\n<p><strong>Type: </strong>The creature’s type becomes undead. It keeps subtypes except for alignment subtypes and subtypes that indicate kind.</p>\n<p><strong>Alignment: </strong>Any evil.</p>\n<p><strong>Armor Class: </strong>Natural armor as per zombie (Pathfinder RPG Bestiary 288).</p>\n<p><strong>Hit Dice: </strong>Change all of the creature’s racial Hit Dice to d8s, then add 2 racial Hit Dice to this total (creatures without racial HD gain 2 undead HD). Hit Dice from class levels are unchanged.</p>\n<p><strong>Saving Throws: </strong>Base save bonuses for racial Hit Dice are Fort +1/3 HD, Ref +1/3 HD, and Will +1/2 HD + 2.</p>\n<p><strong>Defensive Abilities: </strong>A zombie lord gains DR 5/slashing and channel resistance +4, in addition to undead traits.</p>\n<p><strong>Speed: </strong>As zombie (Bestiary 288).</p>\n<p><strong>Attacks: </strong>As zombie (Bestiary 289).</p>\n<p><strong>Abilities: </strong>Str +2, Dex +2. As an undead, it has no Constitution score.</p>\n<p><strong>BAB: </strong>A zombie lord’s BAB for its racial HD is equal to 3/4 its HD.</p>\n<p><strong>Skills: </strong>A zombie lord gains skill ranks per racial Hit Die equal to 4 + its Int modifier (class skills as the undead type). Skills gained from class levels remain unchanged.</p>\n<p><strong>Feats: </strong>A zombie lord gains Toughness as a bonus feat.</p>\n<p><strong>Special Qualities: </strong>Unlike a common zombie, a zombie lord does not gain the staggered special quality.</p>"
    },
    "tags": [],
    "actions": [],
    "attackNotes": [],
    "effectNotes": [],
    "changes": [
      {
        "_id": "6avhhqzy",
        "formula": "2",
        "operator": "add",
        "subTarget": "str",
        "modifier": "untyped",
        "priority": 0,
        "value": 0,
        "target": "ability"
      },
      {
        "_id": "vghuu9vx",
        "formula": "2",
        "operator": "add",
        "subTarget": "dex",
        "modifier": "untyped",
        "priority": 0,
        "value": 0,
        "target": "ability"
      }
    ],
    "contextNotes": [],
    "links": {
      "children": [],
      "charges": []
    },
    "armorProf": {
      "value": []
    },
    "weaponProf": {
      "value": []
    },
    "languages": {
      "value": []
    },
    "scriptCalls": [],
    "subType": "template",
    "associations": {
      "classes": []
    },
    "crOffset": "1"
  }
}
