{
  "_id": "6Uh8PAjR3BE7dult",
  "name": "Monstrous Humanoid",
  "type": "class",
  "img": "systems/pf1/icons/skills/blue_32.jpg",
  "sort": 0,
  "flags": {},
  "system": {
    "description": {
      "value": "<p>Monstrous humanoids are similar to humanoids, but with monstrous or animalistic features. They often have magical abilities as well.</p>\n<h2>Features</h2>\n<p>A monstrous humanoid has the following features.</p>\n<ul>\n<li>d10 Hit Die.</li>\n<li>Base attack bonus equal to total Hit Dice (fast progression).</li>\n<li>Good <em>Reflex</em> and <em>Will</em> Saves.</li>\n<li>Skill points equal to 4 + Int modifier (minimum 1) per Hit Die. The following are class skills for monstrous humanoids: <em>Climb</em>, <em>Craft</em>, <em>Fly</em>, <em>Intimidate</em>, <em>Perception</em>, <em>Ride</em>, <em>Stealth</em>, <em>Survival</em>, and <em>Swim</em>.</li>\n</ul>\n<h2>Traits</h2>\n<p>A monstrous humanoid possesses the following traits (unless otherwise noted in a creature’s entry).</p>\n<ul>\n<li><em>Darkvision</em> 60 feet.</li>\n<li>Proficient with all simple weapons and any weapons mentioned in its entry.</li>\n<li>Proficient with whatever type of armor (light, medium, or heavy) it is described as wearing, as well as all lighter types. Monstrous humanoids not indicated as wearing armor are not proficient with armor. Monstrous humanoids are proficient with shields if they are proficient with any form of armor.</li>\n<li>Monstrous humanoids breathe, eat, and sleep.</li>\n</ul>"
    },
    "tags": [],
    "changes": [],
    "links": "",
    "tag": "monstrousHumanoid",
    "armorProf": {
      "value": []
    },
    "weaponProf": {
      "value": []
    },
    "languages": {
      "value": []
    },
    "scriptCalls": [],
    "subType": "racial",
    "hd": 10,
    "hp": 10,
    "bab": "high",
    "skillsPerLevel": 4,
    "savingThrows": {
      "ref": {
        "value": "high"
      },
      "will": {
        "value": "high"
      }
    },
    "classSkills": {
      "acr": false,
      "apr": false,
      "art": false,
      "blf": false,
      "clm": true,
      "crf": true,
      "dip": false,
      "dev": false,
      "dis": false,
      "esc": false,
      "fly": true,
      "han": false,
      "hea": false,
      "int": true,
      "kar": false,
      "kdu": false,
      "ken": false,
      "kge": false,
      "khi": false,
      "klo": false,
      "kna": false,
      "kno": false,
      "kpl": false,
      "kre": false,
      "lin": false,
      "lor": false,
      "per": true,
      "prf": false,
      "pro": false,
      "rid": true,
      "sen": false,
      "slt": false,
      "spl": false,
      "ste": true,
      "sur": true,
      "swm": true,
      "umd": false
    }
  }
}
