{
  "_id": "QvlxYVVsBDlykPKe",
  "name": "Arcane Strike",
  "type": "feat",
  "img": "systems/pf1/icons/feats/arcane-strike.jpg",
  "sort": 0,
  "flags": {},
  "system": {
    "description": {
      "value": "<i>You draw upon your arcane power to enhance your weapons with magical energy.</i>\n<p>\n<p><b>Prerequisites</b></p>\n<p>Ability to cast arcane spells.</p>\n<br>\n<p><b>Benefits</b></p>\n<p><p>As a swift action, you can imbue your weapons with a fraction of your power. For 1 round, your weapons deal +1 damage and are treated as magic for the purpose of overcoming damage reduction. For every five caster levels you possess, this bonus increases by +1, to a maximum of +5 at 20th level.</p></p>"
    },
    "tags": [["Combat"], ["Weapon"], ["Magic"], ["Offensive"]],
    "actions": [],
    "attackNotes": [],
    "effectNotes": [],
    "changes": [],
    "contextNotes": [],
    "links": {
      "children": [],
      "charges": []
    },
    "tag": "feat_arcaneStrike",
    "useCustomTag": true,
    "armorProf": {
      "value": []
    },
    "weaponProf": {
      "value": []
    },
    "languages": {
      "value": []
    },
    "scriptCalls": [],
    "associations": {
      "classes": []
    }
  }
}
