{
  "name": "Extra Bombs",
  "type": "feat",
  "img": "icons/weapons/thrown/bomb-fuse-black.webp",
  "system": {
    "description": {
      "value": "<p><strong>Source</strong> Advanced Player's Guide pg. 159</p><p><em>You can throw more bombs per day.</em></p><p><strong>Prerequisites</strong>: Bomb class feature.</p><p><strong>Benefit</strong>: You can throw two additional bombs per day.</p><p><strong>Special</strong>: You can gain Extra Bombs multiple times. Its effects stack.</p><p></p>"
    },
    "tags": [],
    "actions": [],
    "uses": {
      "per": ""
    },
    "attackNotes": [],
    "effectNotes": [],
    "changes": [],
    "contextNotes": [],
    "links": {
      "children": [],
      "charges": []
    },
    "armorProf": {
      "value": []
    },
    "weaponProf": {
      "value": []
    },
    "languages": {
      "value": []
    },
    "scriptCalls": [],
    "associations": {
      "classes": []
    },
    "classSkills": {
      "acr": false,
      "apr": false,
      "art": false,
      "blf": false,
      "clm": false,
      "crf": false,
      "dip": false,
      "dev": false,
      "dis": false,
      "esc": false,
      "fly": false,
      "han": false,
      "hea": false,
      "int": false,
      "kar": false,
      "kdu": false,
      "ken": false,
      "kge": false,
      "khi": false,
      "klo": false,
      "kna": false,
      "kno": false,
      "kpl": false,
      "kre": false,
      "lin": false,
      "lor": false,
      "per": false,
      "prf": false,
      "pro": false,
      "rid": false,
      "sen": false,
      "slt": false,
      "spl": false,
      "ste": false,
      "sur": false,
      "swm": false,
      "umd": false
    }
  },
  "flags": {},
  "sort": 0,
  "_id": "ViwAwl9iKWgh77pP"
}
