{
  "_id": "HMCAM3Zyo77kG8Yg",
  "name": "Far Shot",
  "type": "feat",
  "img": "systems/pf1/icons/feats/far-shot.jpg",
  "sort": 0,
  "flags": {},
  "system": {
    "description": {
      "value": "<p><em>You are more accurate at longer ranges.</em><p><strong>Prerequisites</strong><br>Point-Blank Shot.<p><strong>Benefits</strong><br>You only suffer a -1 penalty per full range increment between you and your target when using a ranged weapon.<p><strong>Normal</strong><br>You suffer a -2 penalty per full range increment between you and your target.<p><strong>Combat Trick</strong><br>When making a single ranged attack as a standard action, you can spend 5 stamina points to ignore all range penalties on that attack.</p>\n<p>Usage: apply</p>"
    },
    "tags": [["PFS"], ["Combat"]],
    "actions": [],
    "attackNotes": [],
    "effectNotes": [],
    "changes": [],
    "contextNotes": [
      {
        "subTarget": "rangedWeapon",
        "text": "Far Shot: decrease ranged penalties by half."
      }
    ],
    "links": {
      "children": [],
      "charges": []
    },
    "tag": "feat_farShot",
    "useCustomTag": true,
    "armorProf": {
      "value": []
    },
    "weaponProf": {
      "value": []
    },
    "languages": {
      "value": []
    },
    "scriptCalls": [],
    "associations": {
      "classes": []
    }
  }
}
