{
  "name": "Hurricane Punch",
  "type": "feat",
  "img": "systems/pf1/icons/skills/emerald_03.jpg",
  "system": {
    "description": {
      "value": "<p><strong>Source</strong> Elemental Master's Handbook pg. 19</p><p><em>Your fast strikes hit with the force of a hurricane, pushing your foes away.</em></p><p><strong>Prerequisites</strong>: Str 13, Improved Bull Rush, Improved Unarmed Strike, Power Attack.</p><p><strong>Benefit</strong>: When you hit the same creature with unarmed strikes at least twice in the same round, you can attempt a bull rush combat maneuver against that creature as a swift action. You can also move with the target even if you have no movement remaining, but the distance you move can’t exceed half your speed.</p>"
    },
    "tags": [["Combat"]],
    "actions": [],
    "uses": {
      "per": ""
    },
    "attackNotes": [],
    "effectNotes": [],
    "changes": [],
    "contextNotes": [],
    "links": {
      "children": [],
      "charges": []
    },
    "armorProf": {
      "value": []
    },
    "weaponProf": {
      "value": []
    },
    "languages": {
      "value": []
    },
    "scriptCalls": [],
    "associations": {
      "classes": []
    },
    "classSkills": {
      "acr": false,
      "apr": false,
      "art": false,
      "blf": false,
      "clm": false,
      "crf": false,
      "dip": false,
      "dev": false,
      "dis": false,
      "esc": false,
      "fly": false,
      "han": false,
      "hea": false,
      "int": false,
      "kar": false,
      "kdu": false,
      "ken": false,
      "kge": false,
      "khi": false,
      "klo": false,
      "kna": false,
      "kno": false,
      "kpl": false,
      "kre": false,
      "lin": false,
      "lor": false,
      "per": false,
      "prf": false,
      "pro": false,
      "rid": false,
      "sen": false,
      "slt": false,
      "spl": false,
      "ste": false,
      "sur": false,
      "swm": false,
      "umd": false
    }
  },
  "flags": {},
  "sort": 0,
  "_id": "SI5S8eZGMOwIDkiq"
}
