{
  "_id": "1hxjrJ68yWsiCCFD",
  "name": "Improved Great Fortitude",
  "type": "feat",
  "img": "systems/pf1/icons/feats/improved-great-fortitude.jpg",
  "sort": 0,
  "flags": {},
  "system": {
    "description": {
      "value": "<i>You can draw upon an inner reserve to resist diseases, poisons, and other grievous harm.</i>\n<p>\n<p><b>Prerequisites</b></p>\n<p>Great Fortitude.</p>\n<br>\n<p><b>Benefits</b></p>\n<p><p>Once per day, you may reroll a Fortitude save. You must decide to use this ability before the results are revealed. You must take the second roll, even if it is worse.</p></p>"
    },
    "tags": [["General"], ["Saving Throw"]],
    "actions": [],
    "attackNotes": [],
    "effectNotes": [],
    "changes": [],
    "contextNotes": [],
    "links": {
      "children": [],
      "charges": []
    },
    "tag": "feat_improvedGreatFortitude",
    "useCustomTag": true,
    "armorProf": {
      "value": []
    },
    "weaponProf": {
      "value": []
    },
    "languages": {
      "value": []
    },
    "scriptCalls": [],
    "associations": {
      "classes": []
    }
  }
}
