{
  "_id": "3fNdl7eIUJ5d5fwg",
  "name": "Improved Two-Weapon Fighting",
  "type": "feat",
  "img": "systems/pf1/icons/feats/improved-two-weapon-fighting.jpg",
  "sort": 0,
  "flags": {},
  "system": {
    "description": {
      "value": "<i>You are skilled at fighting with two weapons.</i>\n<p>\n<p><b>Prerequisites</b></p>\n<p>Dex 17, Two-Weapon Fighting, base attack bonus +6.</p>\n<br>\n<p><b>Benefits</b></p>\n<p><p>In addition to the standard single extra attack you get with an off-hand weapon, you get a second attack with it, albeit at a -5 penalty.</p></p>\n<br>\n<p><b>Normal</b></p>\n<p><p>Without this feat, you can only get a single extra attack with an off-hand weapon.</p></p>"
    },
    "tags": [["Combat"], ["Weapon"], ["Two Weapons"], ["Offensive"]],
    "actions": [],
    "attackNotes": [],
    "effectNotes": [],
    "changes": [],
    "contextNotes": [],
    "links": {
      "children": [],
      "charges": []
    },
    "tag": "feat_improvedTwoweaponFighting",
    "useCustomTag": true,
    "armorProf": {
      "value": []
    },
    "weaponProf": {
      "value": []
    },
    "languages": {
      "value": []
    },
    "scriptCalls": [],
    "associations": {
      "classes": []
    }
  }
}
