{
  "_id": "O0jbkTJcIji9BNiF",
  "name": "Intimidating Prowess",
  "type": "feat",
  "img": "systems/pf1/icons/feats/intimidating-prowess.jpg",
  "sort": 0,
  "flags": {},
  "system": {
    "description": {
      "value": "<i>Your physical might is intimidating to others.</i>\n<p>\n<p><b>Benefits</b></p>\n<p><p>Add your Strength modifier to Intimidate skill checks in addition to your Charisma modifier.</p></p>"
    },
    "tags": [["General"], ["Skill"]],
    "actions": [],
    "attackNotes": [],
    "effectNotes": [],
    "changes": [
      {
        "_id": "zy5pz0i8",
        "formula": "max(0, @abilities.str.mod)",
        "operator": "add",
        "subTarget": "skill.int",
        "modifier": "untyped",
        "priority": 0,
        "value": 0,
        "target": "skill"
      }
    ],
    "contextNotes": [],
    "links": {
      "children": [],
      "charges": []
    },
    "tag": "feat_intimidatingProwess",
    "useCustomTag": true,
    "armorProf": {
      "value": []
    },
    "weaponProf": {
      "value": []
    },
    "languages": {
      "value": []
    },
    "scriptCalls": [],
    "associations": {
      "classes": []
    }
  }
}
