{
  "_id": "0bZf3SDkvVOe2ujH",
  "name": "Lightning Reflexes",
  "type": "feat",
  "img": "systems/pf1/icons/feats/lighting-reflexes.jpg",
  "sort": 0,
  "flags": {},
  "system": {
    "description": {
      "value": "<i>You have faster reflexes than normal.</i>\n<p>\n<p><b>Benefits</b></p>\n<p><p>You get a +2 bonus on all Reflex saving throws.</p></p>"
    },
    "tags": [["General"], ["Saving Throw"]],
    "actions": [],
    "attackNotes": [],
    "effectNotes": [],
    "changes": [
      {
        "_id": "ni86uxwa",
        "formula": "2",
        "operator": "add",
        "subTarget": "ref",
        "modifier": "untyped",
        "priority": 0,
        "value": 0,
        "target": "savingThrows"
      }
    ],
    "contextNotes": [],
    "links": {
      "children": [],
      "charges": []
    },
    "tag": "feat_lightningReflexes",
    "useCustomTag": true,
    "armorProf": {
      "value": []
    },
    "weaponProf": {
      "value": []
    },
    "languages": {
      "value": []
    },
    "scriptCalls": [],
    "associations": {
      "classes": []
    }
  }
}
