{
  "_id": "tlRu8SYjzA7WCHN7",
  "name": "Scribe Scroll",
  "type": "feat",
  "img": "systems/pf1/icons/feats/scribe-scroll.jpg",
  "sort": 0,
  "flags": {},
  "system": {
    "description": {
      "value": "<i>You can create magic scrolls.</i>\n<p>\n<p><b>Prerequisites</b></p>\n<p>Caster level 1st.</p>\n<br>\n<p><b>Benefits</b></p>\n<p><p>You can create a scroll of any spell that you know. Scribing a scroll takes 2 hours if its base price is 250 gp or less, otherwise scribing a scroll takes 1 day for each 1,000 gp in its base price. To scribe a scroll, you must use up raw materials costing half of this base price. See the magic item creation rules in Magic Items for more information.</p></p>"
    },
    "tags": [["General"], ["Item Creation"]],
    "actions": [],
    "attackNotes": [],
    "effectNotes": [],
    "changes": [],
    "contextNotes": [],
    "links": {
      "children": [],
      "charges": []
    },
    "tag": "feat_scribeScroll",
    "useCustomTag": true,
    "armorProf": {
      "value": []
    },
    "weaponProf": {
      "value": []
    },
    "languages": {
      "value": []
    },
    "scriptCalls": [],
    "associations": {
      "classes": []
    }
  }
}
