{
  "_id": "8snLqsJN4LLL00Nq",
  "name": "Toughness",
  "type": "feat",
  "img": "systems/pf1/icons/feats/toughness.jpg",
  "sort": 0,
  "flags": {},
  "system": {
    "description": {
      "value": "<i>You have enhanced physical stamina.</i>\n<p>\n<p><b>Benefits</b></p>\n<p><p>You gain +3 hit points. For every Hit Die you possess beyond 3, you gain an additional +1 hit point. If you have more than 3 Hit Dice, you gain +1 hit points whenever you gain a Hit Die (such as when you gain a level).</p></p>"
    },
    "tags": [["General"], ["Defensive"]],
    "actions": [],
    "attackNotes": [],
    "effectNotes": [],
    "changes": [
      {
        "_id": "bl5pemy2",
        "formula": "max(3, @attributes.hd.total)",
        "operator": "add",
        "subTarget": "mhp",
        "modifier": "untyped",
        "priority": 0,
        "value": 0,
        "target": "misc"
      }
    ],
    "contextNotes": [],
    "links": {
      "children": [],
      "charges": []
    },
    "tag": "feat_toughness",
    "useCustomTag": true,
    "armorProf": {
      "value": []
    },
    "weaponProf": {
      "value": []
    },
    "languages": {
      "value": []
    },
    "scriptCalls": [],
    "associations": {
      "classes": []
    }
  }
}
