{
  "_id": "PxwM4Uf4mcYs3Auq",
  "name": "Tower Shield Proficiency",
  "type": "feat",
  "img": "systems/pf1/icons/items/armor/shield-tower.PNG",
  "sort": 0,
  "flags": {},
  "system": {
    "description": {
      "value": "<em>You are trained in how to properly use a tower shield.</em><p><b>Prerequisites</b><br>Shield Proficiency.<p><b>Benefits</b><br>When you use a tower shield, the shield's armor check penalty only applies to Strength and Dexterity-based skills.<p><b>Normal</b><br>A character using a shield with which he is not proficient takes the shield's armor check penalty on attack rolls and on all skill checks that involve moving, including Ride.<p><b>Special</b><br>Fighters automatically have Tower Shield Proficiency as a bonus feat. They need not select it."
    },
    "tags": [["PFS"], ["Combat"]],
    "actions": [],
    "attackNotes": [],
    "effectNotes": [],
    "changes": [],
    "contextNotes": [],
    "links": {
      "children": [],
      "charges": []
    },
    "tag": "feat_towerShieldProficiency",
    "useCustomTag": true,
    "armorProf": {
      "value": ["twr"]
    },
    "weaponProf": {
      "value": []
    },
    "languages": {
      "value": []
    },
    "scriptCalls": [],
    "associations": {
      "classes": []
    }
  }
}
