{
  "_id": "YDqp3yrAsuXh103W",
  "name": "Two-Weapon Defense",
  "type": "feat",
  "img": "systems/pf1/icons/feats/two-weapon-defense.jpg",
  "sort": 0,
  "flags": {},
  "system": {
    "description": {
      "value": "<i>You are skilled at defending yourself while dual-wielding.</i>\n<p>\n<p><b>Prerequisites</b></p>\n<p>Dex 15, Two-Weapon Fighting.</p>\n<br>\n<p><b>Benefits</b></p>\n<p><p>When wielding a double weapon or two weapons (not including natural weapons or unarmed strikes), you gain a +1 shield bonus to your AC.</p><p>When you are fighting defensively or using the total defense action, this shield bonus increases to +2.</p></p>"
    },
    "tags": [["Combat"], ["Weapon"], ["Two Weapons"], ["Defensive"]],
    "actions": [],
    "attackNotes": [],
    "effectNotes": [],
    "changes": [],
    "contextNotes": [],
    "links": {
      "children": [],
      "charges": []
    },
    "tag": "feat_twoweaponDefense",
    "useCustomTag": true,
    "armorProf": {
      "value": []
    },
    "weaponProf": {
      "value": []
    },
    "languages": {
      "value": []
    },
    "scriptCalls": [],
    "associations": {
      "classes": []
    }
  }
}
