{
  "_id": "g9GYFtD8FOxtUGvJ",
  "name": "Lashunta (Male)",
  "type": "race",
  "img": "systems/pf1/icons/spells/air-burst-jade-1.jpg",
  "sort": 0,
  "flags": {},
  "system": {
    "description": {
      "value": "<h2>Standard Racial Traits</h2><ul><li><strong>Ability Score Modifiers:</strong> Lashunta are almost universally intelligent and eager to learn. As a result, lashunta gain a +2 bonus to <em>Intelligence</em>.</li><li><strong>Sexual Dimorphism:</strong> Male and female lashunta have very different body and personality types, more so than most humanoid species. Male lashunta are muscular (+2 <em>Strength</em>) and often brash and unobservant (–2 <em>Wisdom</em>). Female lashunta, though beautiful and commanding (+2 <em>Charisma</em>), lack the males' rugged builds (–2 <em>Constitution</em>).</li><li><strong>Size:</strong> Lashunta are Medium creatures and have no bonuses or penalties due to their size.</li><li><strong>Base Speed:</strong> Lashunta have a base speed of 30 feet.</li><li><strong>Languages:</strong> Lashunta begin play speaking Elven and Lashunta. Lashunta with high <em>Intelligence</em> scores can choose any languages they want (except Druidic and other secret languages).</li></ul><h3>Skill Racial Features</h3><ul><li><strong>Knowledgeable:</strong> A lashunta gains a +2 <em>racial bonus</em> to any one <em>Knowledge</em> skill.</li></ul><h3>Spell-Like Abilities</h3><ul><li><strong>Lashunta Magic:</strong> A lashunta possessing an <em>Intelligence</em> score of 11 or higher gains the following <em>spell-like abilities</em>: At will–<em>daze</em>, <em>mage hand</em>; 1/day–<em>detect thoughts</em>. The <em>caster level</em> for these effects is equal to the lashunta's class levels.</li></ul><h3>Senses Racial Traits</h3><ul><li><strong>Limited Telepathy:</strong> A lashunta is able to mentally communicate with any creature within 30 feet with whom she shares a language. Otherwise this ability is identical to the <em>telepathy</em> ability.</li></ul>"
    },
    "tags": [],
    "changes": [
      {
        "_id": "cp4708h1",
        "formula": "2",
        "operator": "add",
        "subTarget": "int",
        "modifier": "racial",
        "priority": 0,
        "value": 0,
        "target": "ability"
      },
      {
        "_id": "7jjivyk8",
        "formula": "2",
        "operator": "add",
        "subTarget": "str",
        "modifier": "racial",
        "priority": 0,
        "value": 0,
        "target": "ability"
      },
      {
        "_id": "loz7kidx",
        "formula": "-2",
        "operator": "add",
        "subTarget": "wis",
        "modifier": "racial",
        "priority": 0,
        "value": 0,
        "target": "ability"
      }
    ],
    "contextNotes": [],
    "links": {
      "children": []
    },
    "armorProf": {
      "value": []
    },
    "weaponProf": {
      "value": []
    },
    "languages": {
      "value": ["elven"],
      "custom": "Lashunta"
    },
    "scriptCalls": [],
    "subTypes": [["Lashunta"]]
  }
}
