{
  "_id": "yAS41rHv0WzDmuRm",
  "name": "Tengu",
  "type": "race",
  "img": "systems/pf1/icons/races/tengu.png",
  "sort": 0,
  "flags": {},
  "system": {
    "description": {
      "value": "<h2>Standard Racial Traits</h2><ul><li><strong>Ability Score Racial Traits</strong>: Tengus are fast and observant, but relatively fragile and delicate. They gain +2 <em>Dexterity</em>, +2 <em>Wisdom</em>, –2 <em>Constitution</em>.</li><li><strong>Type:</strong> Tengus are <em>humanoids</em> with the <em>tengu</em> subtype.</li><li><strong>Size:</strong> Tengus are Medium creatures and receive no bonuses or penalties due to their size.</li><li><strong>Speed:</strong> Tengus have a base speed of 30 feet.</li><li><strong>Languages:</strong> Tengus begin play speaking Common and Tengu. Tengus with high <em>Intelligence</em> scores can choose any languages they want (except for secret languages, such as Druidic).</li></ul><h3>Feat and Skill Racial Traits</h3><ul><li><strong>Sneaky:</strong> Tengus gain a +2 <em>racial bonus</em> on @Compendium[pf1.skills.YYmmxDgp0g3ltSUG]{Perception} and @Compendium[pf1.skills.T6nefKotIb5vKE9h]{Stealth} checks.</li><li><strong>Gifted Linguist</strong>: Tengus gain a +4 <em>racial bonus</em> on @Compendium[pf1.skills.QXIYXqy6ivNHrDrW]{Linguistics} checks, and learn 2 languages each time they gain a rank in @Compendium[pf1.skills.QXIYXqy6ivNHrDrW]{Linguistics} rather than 1 language.</li></ul><h3>Offense Racial Traits</h3><ul><li><strong>Swordtrained:</strong> Tengus are trained from birth in swordplay, and as a result are automatically proficient with sword-like weapons (including @Compendium[pf1.weapons-and-ammo.KtgSPHGqIRTwhwZM]{bastard swords}, @Compendium[pf1.weapons-and-ammo.fOSuWwRSZLTrROch]{daggers}, @Compendium[pf1.weapons-and-ammo.iSbfuFMtzdCEhqgr]{elven curve blade}, @Compendium[pf1.weapons-and-ammo.v8Ee5Iagp62xsUQZ]{falchions}, @Compendium[pf1.weapons-and-ammo.oyUApQSVsAqzyjdz]{greatswords}, @Compendium[pf1.weapons-and-ammo.Uw42p33QKEUhlSMi]{kukri}, @Compendium[pf1.weapons-and-ammo.zWRlna42PMJVX6un]{longswords}, @Compendium[pf1.weapons-and-ammo.05NnBuNnkMsaNoXf]{punching dagger}, @Compendium[pf1.weapons-and-ammo.LA6TC5679iOXDNwq]{rapiers}, @Compendium[pf1.weapons-and-ammo.SjYkpvZqfgvh0EAd]{scimitars}, @Compendium[pf1.weapons-and-ammo.7tGcTtI2fEj1AFaT]{shortswords}, and @Compendium[pf1.weapons-and-ammo.4nFjnETINUoBFWKX]{two-bladed swords}).</li><li><strong>Natural Weapons</strong>: A tengu has a bite attack that deals 1d3 points of damage.</li></ul><h3>Senses Racial Traits</h3><ul><li><strong>Senses:</strong> Tengus have <em>low-light vision</em> allowing them to see twice as far as humans in conditions of dim light.</li></ul>"
    },
    "tags": [],
    "changes": [
      {
        "_id": "i834vuey",
        "formula": "2",
        "operator": "add",
        "subTarget": "dex",
        "modifier": "racial",
        "priority": 0,
        "value": 0,
        "target": "ability"
      },
      {
        "_id": "ktyd4wix",
        "formula": "2",
        "operator": "add",
        "subTarget": "wis",
        "modifier": "racial",
        "priority": 0,
        "value": 0,
        "target": "ability"
      },
      {
        "_id": "uvbcegzy",
        "formula": "-2",
        "operator": "add",
        "subTarget": "con",
        "modifier": "racial",
        "priority": 0,
        "value": 0,
        "target": "ability"
      },
      {
        "_id": "f1djrvlm",
        "formula": "2",
        "operator": "add",
        "subTarget": "skill.per",
        "modifier": "racial",
        "priority": 0,
        "value": 0,
        "target": "skill"
      },
      {
        "_id": "gkm4n4er",
        "formula": "2",
        "operator": "add",
        "subTarget": "skill.ste",
        "modifier": "racial",
        "priority": 0,
        "value": 0,
        "target": "skill"
      },
      {
        "_id": "93w1k7bi",
        "formula": "4",
        "operator": "add",
        "subTarget": "skill.lin",
        "modifier": "racial",
        "priority": 0,
        "value": 0,
        "target": "skill"
      }
    ],
    "contextNotes": [],
    "links": {
      "children": []
    },
    "armorProf": {
      "value": []
    },
    "weaponProf": {
      "value": []
    },
    "languages": {
      "value": ["common", "tengu"]
    },
    "scriptCalls": [],
    "subTypes": [["Tengu"]]
  }
}
