{
  "_id": "DQGhOq3M3uxTFKYO",
  "name": "Triton",
  "type": "race",
  "img": "systems/pf1/icons/items/weapons/trident.PNG",
  "sort": 0,
  "flags": {},
  "system": {
    "description": {
      "value": "<h2>Standard Racial Traits</h2><ul><li><strong>Ability Scores</strong>: +2 <em>Strength</em>, +2 <em>Charisma</em>, –2 <em>Dexterity</em>: Tritons are strong and have forceful personalities, but they are not very nimble.</li><li><strong>Size</strong>: Tritons are Medium creatures and have no bonuses or penalties due to their size.</li><li><strong>Type</strong>: Tritons are <em>native</em> <em>outsiders</em> with the <em>water</em> subtype.</li><li><strong>Languages</strong>: Tritons begin play speaking Aquan and Common. Tritons with a high <em>Intelligence</em> score can choose from the following: Aboleth, Aklo, Celestial, Draconic, Elven, Gnome, and Sylvan.</li><li><strong>Slow Speed</strong>: Tritons are ungainly out of the water and have a base speed of only 5 feet.</li><li><strong>Swim Speed</strong>: Tritons have a swim speed of 40 feet.</li></ul><h3>Senses</h3><ul><li><strong>Darkvision</strong>: Tritons have <em>darkvision</em> with a range of 60 feet.</li><li><strong>Low-Light Vision</strong>: Tritons have <em>low-light vision</em>.</li></ul><h3>Defensive Racial Abilities</h3><ul><li><strong>Natural Armor:</strong> Tritons have a +2 <em>natural armor bonus</em>.</li></ul><h3>Spell-Like Abilities</h3><ul><li><strong>Spell-Like Ability:</strong> Tritons can cast <em>summon nature's ally II</em> once per day to <em>summon</em> either a <em>small water elemental</em> or 1d3 <em>dolphins</em> only.</li></ul>"
    },
    "tags": [],
    "changes": [
      {
        "_id": "e2jjebq2",
        "formula": "2",
        "operator": "add",
        "subTarget": "str",
        "modifier": "racial",
        "priority": 0,
        "value": 0,
        "target": "ability"
      },
      {
        "_id": "js6rkdss",
        "formula": "2",
        "operator": "add",
        "subTarget": "cha",
        "modifier": "racial",
        "priority": 0,
        "value": 0,
        "target": "ability"
      },
      {
        "_id": "un15z00u",
        "formula": "-2",
        "operator": "add",
        "subTarget": "dex",
        "modifier": "racial",
        "priority": 0,
        "value": 0,
        "target": "ability"
      },
      {
        "_id": "sw5ujxwc",
        "formula": "2",
        "operator": "add",
        "subTarget": "nac",
        "modifier": "base",
        "priority": 0,
        "value": 0,
        "target": "ac"
      }
    ],
    "contextNotes": [],
    "links": {
      "children": []
    },
    "armorProf": {
      "value": []
    },
    "weaponProf": {
      "value": []
    },
    "languages": {
      "value": ["common", "aquan"]
    },
    "scriptCalls": [],
    "creatureType": "outsider",
    "subTypes": [["Native"]]
  }
}
