{
  "_id": "sXIQ3MFLInN9SF7m",
  "name": "Yaddithian",
  "type": "race",
  "img": "systems/pf1/icons/races/creature-types/abberation.png",
  "sort": 0,
  "flags": {},
  "system": {
    "description": {
      "value": "<h2>Standard Racial Traits</h2><ul><li><strong>Ability Scores:</strong> +2 <em>Constitution</em>, +2 <em>Intelligence</em>, –2 <em>Wisdom</em>.</li><li><strong>Size:</strong> Yaddithians are Medium creatures and thus receive no bonuses or penalties due to their size.</li><li><strong>Type:</strong> Yaddithians are Aberrations.</li><li><strong>Speed:</strong> Yaddithians have a land speed of 20 feet.</li><li><strong>Languages:</strong> Yaddithians begin play speaking Yaddithian. Those with high <em>Intelligence</em> scores can choose any language as a bonus language.</li></ul><h3>Senses</h3><ul><li><strong>Darkvision:</strong> Yaddithians can see in the dark up to 60 feet.</li></ul><h3>Offensive Racial Traits</h3><ul><li><strong>Claws:</strong> A Yaddithian has two claws that deal 1d4 points of damage each.</li></ul><h3>Defensive Racial Traits</h3><ul><li><strong>Defensive Abilities:</strong> Yaddithians have cold <em>resistance</em> 5 and the <em>no breath</em> ability.</li><li><strong>Rugose:</strong> A Yaddithian gains a +1 <em>natural armor bonus</em>.</li></ul><h3>Other Racial Traits</h3><ul><li><strong>Cosmic Mind (Ex)</strong>: A Yaddithian gets a +2 <em>racial bonus</em> on <em>Knowledge</em> and <em>Spellcraft</em> checks. A yaddithian spellcaster who would store spells in a <em>spellbook</em> or <em>familiar</em> instead stores those spells in its mind (but must expend the normal resources to learn new spells).</li><li><strong>Long-Lived (Ex)</strong>: Yaddithians live for thousands of years; they gain no benefit or penalty from aging and are immune to magical aging effects.</li></ul>"
    },
    "tags": [],
    "changes": [
      {
        "_id": "98zj9gl2",
        "formula": "2",
        "operator": "add",
        "subTarget": "con",
        "modifier": "racial",
        "priority": 0,
        "value": 0,
        "target": "ability"
      },
      {
        "_id": "6099nxwc",
        "formula": "2",
        "operator": "add",
        "subTarget": "int",
        "modifier": "racial",
        "priority": 0,
        "value": 0,
        "target": "ability"
      },
      {
        "_id": "os4rmk3g",
        "formula": "-2",
        "operator": "add",
        "subTarget": "wis",
        "modifier": "racial",
        "priority": 0,
        "value": 0,
        "target": "ability"
      },
      {
        "_id": "9b15p13d",
        "formula": "1",
        "operator": "add",
        "subTarget": "nac",
        "modifier": "base",
        "priority": 0,
        "value": 0,
        "target": "ac"
      },
      {
        "_id": "7qtnx2wd",
        "formula": "2",
        "operator": "add",
        "subTarget": "skill.kar",
        "modifier": "racial",
        "priority": 0,
        "value": 0,
        "target": "skill"
      },
      {
        "_id": "kygc6jl6",
        "formula": "2",
        "operator": "add",
        "subTarget": "skill.kdu",
        "modifier": "racial",
        "priority": 0,
        "value": 0,
        "target": "skill"
      },
      {
        "_id": "3v7zg6h2",
        "formula": "2",
        "operator": "add",
        "subTarget": "skill.ken",
        "modifier": "racial",
        "priority": 0,
        "value": 0,
        "target": "skill"
      },
      {
        "_id": "hrijl2vg",
        "formula": "2",
        "operator": "add",
        "subTarget": "skill.kge",
        "modifier": "racial",
        "priority": 0,
        "value": 0,
        "target": "skill"
      },
      {
        "_id": "54pugikv",
        "formula": "2",
        "operator": "add",
        "subTarget": "skill.khi",
        "modifier": "racial",
        "priority": 0,
        "value": 0,
        "target": "skill"
      },
      {
        "_id": "adiosrlh",
        "formula": "2",
        "operator": "add",
        "subTarget": "skill.klo",
        "modifier": "racial",
        "priority": 0,
        "value": 0,
        "target": "skill"
      },
      {
        "_id": "tz278l3k",
        "formula": "2",
        "operator": "add",
        "subTarget": "skill.kna",
        "modifier": "racial",
        "priority": 0,
        "value": 0,
        "target": "skill"
      },
      {
        "_id": "olntu3vg",
        "formula": "2",
        "operator": "add",
        "subTarget": "skill.kno",
        "modifier": "racial",
        "priority": 0,
        "value": 0,
        "target": "skill"
      },
      {
        "_id": "jf5ajvcz",
        "formula": "2",
        "operator": "add",
        "subTarget": "skill.kpl",
        "modifier": "racial",
        "priority": 0,
        "value": 0,
        "target": "skill"
      },
      {
        "_id": "krw4yj6d",
        "formula": "2",
        "operator": "add",
        "subTarget": "skill.kre",
        "modifier": "racial",
        "priority": 0,
        "value": 0,
        "target": "skill"
      },
      {
        "_id": "49umhs7d",
        "formula": "2",
        "operator": "add",
        "subTarget": "skill.spl",
        "modifier": "racial",
        "priority": 0,
        "value": 0,
        "target": "skill"
      }
    ],
    "contextNotes": [],
    "links": {
      "children": []
    },
    "armorProf": {
      "value": []
    },
    "weaponProf": {
      "value": []
    },
    "languages": {
      "value": [],
      "custom": "Yaddithian"
    },
    "scriptCalls": [],
    "creatureType": "aberration",
    "subTypes": []
  }
}
