{
  "_id": "FlkLzWMGz1Ffk6HQ",
  "name": "Alchemist's Fire (Siege)",
  "type": "loot",
  "img": "systems/pf1/icons/items/potions/magic-red.jpg",
  "sort": 0,
  "flags": {},
  "system": {
    "description": {
      "value": "<p><strong>Source</strong> <em>Ultimate Combat pg. 164</em></p>\n<h3>Statistics</h3>\n<p><strong>Cost</strong> 200 gp <strong>Weight</strong> 10 lbs.</p>\n<p><strong>Category</strong> Ammunition; <strong>Proficiency</strong> Siege Engine</p>\n<h3>Description</h3>\n<p>This hard, ceramic canister of alchemist's fire can be used as ammunition in catapults and trebuchets.</p>\n<p>When it hits its target square, it deals <strong>4d6 points of fire damage</strong> to each creature and wooden structure within 5 feet of the target space, and each creature must make a <strong>DC 20 Reflex saving throw</strong> or catch on fire (wooden objects automatically catch on fire).</p>\n<p>Every creature and wooden object within the area between <strong>5 and 30 feet</strong> of the target space must make a <strong>DC 20 Reflex saving throw</strong> or take half the fire damage, but they do not catch on fire.</p>\n<h3>Mishap</h3>\n<p>On a siege engine mishap, this ammunition explodes before it is launched, dealing its damage to the siege engine and all nearby creatures and wooden objects as if one of the spaces of the siege engine (crew leader's choice) were the target square.</p>\n<p>This alchemical fire ignores the hardness of wooden objects.</p>"
    },
    "tags": [],
    "weight": {
      "value": 10
    },
    "price": 200,
    "equipped": false,
    "hp": {
      "max": 1,
      "value": 1
    },
    "hardness": 5,
    "identifiedName": "Alchemist's Fire (Siege)",
    "changes": [],
    "contextNotes": [],
    "links": {
      "children": []
    },
    "tag": "alchemistsFireSiege",
    "scriptCalls": [],
    "subType": "ammo"
  }
}
