{
  "_id": "4g9phD8MC9sTtsNF",
  "name": "Blowgun Dart",
  "type": "loot",
  "img": "icons/weapons/ammunition/arrows-bodkin-yellow-red.webp",
  "sort": 0,
  "flags": {},
  "system": {
    "description": {
      "value": "<p><strong>Source</strong> <em>Ultimate Equipment pg. 22</em>, <em>Pathfinder Campaign Setting pg. 211</em>, <em>PRPG Core Rulebook pg. 142</em></p><h3><span title=\"PFS Legal\">[PFS]</span> Statistics</h3><p><strong>Cost</strong> 5 sp <strong>Weight</strong> -</p><p><strong>Category</strong> Ammunition; <strong>Proficiency</strong> Ammunition</p><h3>Description</h3><p>The thin, light darts used in a blowgun are usually made of hardwood with a stabilizing fletching of down or fur. A dart is usually loaded from the back end just before firing.</p>"
    },
    "tags": [],
    "quantity": 10,
    "weight": {
      "value": 0.1
    },
    "price": 0.05,
    "equipped": false,
    "hp": {
      "max": 1,
      "value": 1
    },
    "hardness": 5,
    "identifiedName": "Blowgun Dart",
    "changes": [],
    "contextNotes": [],
    "links": {
      "children": []
    },
    "tag": "blowgunDarts10",
    "scriptCalls": [],
    "subType": "ammo",
    "extraType": "dart"
  }
}
