{
  "_id": "LkmVBaF0F1FXu9fK",
  "name": "Chain Shot (Siege)",
  "type": "loot",
  "img": "icons/weapons/ammunition/shot-round-blue.webp",
  "sort": 0,
  "flags": {},
  "system": {
    "description": {
      "value": "<p><strong>Source</strong> <em>Ultimate Combat pg. 164</em></p>\n<h3>Statistics</h3>\n<p><strong>Cost</strong> 50 gp <strong>Weight</strong> 30 lbs</p>\n<p><strong>Category</strong> Ammunition; <strong>Proficiency</strong> Siege Engine</p>\n<h3>Description</h3>\n<p>This siege engine firearm ammunition can be loaded in a cannon or a fiend's mouth cannon. It is especially good at tearing through sails and dirigibles dealing double its normal damage to those forms of propulsion.</p>\n<p>When fired at a creature, on a hit, the creature must succeed at a <strong>DC 20 Fortitude saving throw</strong> or be knocked prone.</p>"
    },
    "tags": [],
    "weight": {
      "value": 30
    },
    "price": 50,
    "equipped": false,
    "hp": {
      "max": 1,
      "value": 1
    },
    "hardness": 5,
    "identifiedName": "Chain Shot (Siege)",
    "changes": [],
    "contextNotes": [],
    "links": {
      "children": []
    },
    "tag": "chainShotSiege",
    "scriptCalls": [],
    "subType": "ammo"
  }
}
