{
  "_id": "bR7EZEJNOVa2E9i6",
  "name": "Dragoon Cartridge",
  "type": "loot",
  "img": "icons/containers/ammunition/bullets-belt.webp",
  "sort": 0,
  "flags": {
    "pf1": {
      "abundant": false
    }
  },
  "system": {
    "description": {
      "value": "<p><strong>Source</strong> <em>Villain Codex pg. 57</em></p><h3>Statistics</h3><p><strong>Cost</strong> 30 gp <strong>Weight</strong> -</p><p><strong>Category</strong> Ammunition; <strong>Proficiency</strong> Exotic</p><h3>Description</h3><p>These clips of alchemical cartridges hold three bullets and fit the slot of either the dragoon musket or the dragoon pistol. They allow the wielder of those firearms to fire up to three shots in quick succession without the need to reload. Once the cartridge is spent, reloading another dragoon cartridge takes a full-round action, no matter the type of dragoon firearm in question. Rapid Reload can reduce the action time required, but abilities like the musket master's fast musket have no effect. Unlike other alchemical cartridges, dragoon cartridges don't increase a dragoon firearm's misfire chance by 1. Dragoon cartridges can be used only with dragoon firearms.</p><p>Magical bullets can be made in the form of dragoon cartridges, but the price and cost are three times greater than the listed value.</p>"
    },
    "tags": [],
    "price": 30,
    "equipped": false,
    "hp": {
      "max": 1,
      "value": 1
    },
    "hardness": 5,
    "identifiedName": "Dragoon Cartridge",
    "changes": [],
    "contextNotes": [],
    "links": {
      "children": []
    },
    "tag": "dragoonCartridge",
    "scriptCalls": [],
    "subType": "ammo",
    "extraType": "dragoonBullet"
  }
}
