{
  "_id": "3pMUGj64GvIVpAwS",
  "name": "Dwarven Heavy Pelletbow",
  "type": "weapon",
  "img": "systems/pf1/icons/items/weapons/dwarven-pelletbow.PNG",
  "sort": 0,
  "flags": {},
  "system": {
    "description": {
      "value": "<p><strong>Source</strong> <em>Heroes from the Fringe pg. 8</em></p><h3>Statistics</h3><p><strong>Cost</strong> 75 gp <strong>Weight</strong> 8 lbs.</p><p><strong>Damage</strong> 1d4 (small), 1d6 (medium); <strong>Critical</strong> 19-20/x3; <strong>Range</strong> 60 ft.; <strong>Type</strong> B; <strong>Special</strong> -</p><p><strong>Category</strong> Ranged; <strong>Proficiency</strong> Exotic</p><p><strong>Weapon Groups</strong> Crossbows</p><h3>Description</h3><p>The dwarven pelletbow is a crossbowlike weapon that is loaded with and fires sling bullets rather than bolts. A dwarven heavy pelletbow takes the same amount of time and effort to load as a light crossbow (normally a move action), and a dwarven light pelletbow can be reloaded as a free action (allowing characters to attack with it multiple times in a round). Normally a pelletbow takes two hands to operate, but you can shoot (but not load) a pelletbow with one hand by taking a -2 penalty on attack rolls. You can shoot one pelletbow with each hand, but you take a penalty on attack rolls for attacking with two weapons (treating the heavy pelletbow as a one-handed weapon and the light pelletbow as a light weapon).</p><p>Feats and special abilities that don't involve proficiency (that don't depend on dealing piercing damage or firing bolts) that apply to a heavy crossbow also apply to a dwarven heavy pelletbow, and those that apply to a light crossbow also apply to a dwarven light pelletbow.</p>"
    },
    "tags": [["Dwarven Heavy Pelletbow"], ["Dwarven"], ["Heavy Crossbow"]],
    "weight": {
      "value": 8
    },
    "price": 75,
    "hp": {
      "max": 5,
      "value": 5
    },
    "hardness": 5,
    "identifiedName": "Dwarven Heavy Pelletbow",
    "changes": [],
    "actions": [
      {
        "_id": "jmq0yzba8zcd2sdu",
        "name": "Attack",
        "img": "systems/pf1/icons/items/weapons/dwarven-pelletbow.PNG",
        "description": "",
        "tag": "",
        "activation": {
          "cost": 1,
          "type": "attack"
        },
        "unchainedAction": {
          "activation": {
            "cost": 1,
            "type": ""
          }
        },
        "duration": {
          "value": null,
          "units": "inst"
        },
        "target": {
          "value": ""
        },
        "range": {
          "value": "60",
          "units": "ft",
          "maxIncrements": 1,
          "minValue": null,
          "minUnits": ""
        },
        "uses": {
          "autoDeductChargesCost": "",
          "self": {
            "value": 0,
            "maxFormula": "",
            "per": null
          },
          "per": "",
          "value": 0,
          "maxFormula": ""
        },
        "measureTemplate": {
          "type": "",
          "size": "",
          "overrideColor": false,
          "customColor": "",
          "overrideTexture": false,
          "customTexture": ""
        },
        "attackName": "",
        "actionType": "rwak",
        "attackBonus": "",
        "critConfirmBonus": "",
        "damage": {
          "parts": [
            [
              "sizeRoll(1, 6, @size)",
              {
                "values": ["bludgeoning"],
                "custom": ""
              }
            ]
          ],
          "critParts": [],
          "nonCritParts": []
        },
        "attackParts": [],
        "formulaicAttacks": {
          "count": {
            "formula": "min(3, ceil(@attributes.bab.total / 5) - 1)"
          },
          "bonus": {
            "formula": "@formulaicAttack * -5"
          },
          "label": ""
        },
        "formula": "",
        "ability": {
          "attack": "dex",
          "damage": "",
          "damageMult": 1,
          "critRange": 19,
          "critMult": 3
        },
        "save": {
          "dc": "0",
          "type": "",
          "description": ""
        },
        "effectNotes": [],
        "attackNotes": [],
        "soundEffect": "",
        "powerAttack": {
          "multiplier": "",
          "damageBonus": 2,
          "critMultiplier": 1
        },
        "naturalAttack": {
          "primaryAttack": true,
          "secondary": {
            "attackBonus": "-5",
            "damageMult": 0.5
          }
        },
        "nonlethal": false,
        "usesAmmo": true,
        "spellEffect": "",
        "spellArea": "",
        "conditionals": [],
        "enh": {
          "value": null
        },
        "ammoType": "slingBullet"
      }
    ],
    "uses": {
      "per": ""
    },
    "attackNotes": [],
    "effectNotes": [],
    "contextNotes": [],
    "links": {
      "children": []
    },
    "tag": "dwarvenHeavyPelletbow",
    "scriptCalls": [],
    "weaponGroups": {
      "value": ["crossbows"]
    },
    "subType": "exotic",
    "weaponSubtype": "ranged",
    "ammoType": "slingBullet"
  }
}
