{
  "_id": "17BtK9QpY1MNixVt",
  "name": "Dye Arrow",
  "type": "loot",
  "img": "systems/pf1/icons/items/weapons/arrow-special.PNG",
  "sort": 0,
  "flags": {},
  "system": {
    "description": {
      "value": "<p><strong>Source</strong> <em>Alchemy Manual pg. 21</em>, <em>Elves of Golarion pg. 22</em><br><strong>Price</strong> 1 gp; <strong>Weight</strong> -<br><strong>Category</strong> Alchemical Weapons</p>\n<h2>Description</h2>\n<p>This arrow ends in a crystalline bubble filled with a viscous alchemical dyeing agent.</p>\n<p>Firing a dye arrow is a ranged touch attack; a creature struck by a dye arrow takes no damage but is splashed with enough black, blue, green, or red marker dye (<em>Pathfinder RPG Ultimate Equipment </em>104) to coat about 1 square foot.</p>\n<p>The stain caused by marker dye cannot be washed off except with magic for the first 72 hours, but fades completely after 2 weeks.</p>\n<h2>Alchemical Recipe</h2>\n<p><strong>Recipe</strong> (1 cold iron + 1 phosphorus)/earth; <strong>Craft</strong> 25<br><strong>Time</strong> 10 minutes; <strong>Tools</strong> -; <strong>Type</strong> alchemical weapon</p>"
    },
    "tags": [],
    "weight": {
      "value": 4
    },
    "price": 1,
    "equipped": false,
    "hp": {
      "max": 1,
      "value": 1
    },
    "hardness": 5,
    "identifiedName": "Dye Arrow",
    "changes": [],
    "contextNotes": [],
    "links": {
      "children": []
    },
    "tag": "dyeArrow",
    "scriptCalls": [],
    "subType": "ammo",
    "extraType": "arrow"
  }
}
