{
  "_id": "cJnYMnlx23jyFePT",
  "name": "Escalade Ladder, Huge",
  "type": "weapon",
  "img": "icons/sundries/misc/ladder-improvised.webp",
  "sort": 0,
  "flags": {},
  "system": {
    "description": {
      "value": "<p><strong>Source</strong> <em>Ultimate Combat pg. 166</em></p><h3>Statistics</h3><p><strong>Cost</strong> 10 gp <strong>Weight</strong> -</p><p><strong>Damage</strong> -; <strong>Critical</strong> -; <strong>Range</strong> -; <strong>Type</strong> -</p><p><strong>Crew</strong> 4; <strong>Aim</strong> 0; <strong>Load</strong> 0; <strong>Speed</strong> 0 ft.</p><p><strong>Category</strong> Close Assault; <strong>Proficiency</strong> Siege Engine</p><h3>Description</h3><p>Escalade ladders have spiked bases for stability, and the upper 5 feet are metal-shod, with hardness 10 and 20 hit points. The remainder of the ladder is wooden and has hardness 5 and hit points based on its size. Large escalade ladders have 20 hit points, Huge ones have 30 hit points, Gargantuan ones have 80 hit points, and Colossal ones have 120 hit points. Escalade ladders cannot be armored.</p><p><h2>Table 3-16: Bridges and Escalade Ladders</h2><table><tbody><tr><td><strong>Size</strong></td><td><strong>Width</strong></td><td><strong>Length/Height</strong></td></tr><tr><td>Large</td><td>5 ft.</td><td>20 ft.</td></tr><tr><td>Huge</td><td>5 ft.</td><td>30 ft.</td></tr><tr><td>Gargantuan</td><td>10 ft.</td><td>40 ft.</td></tr><tr><td>Colossal</td><td>10 ft.</td><td>60 ft.</td></tr></tbody></table></p>"
    },
    "tags": [["Escalade Ladder, Huge"]],
    "price": 10,
    "hardness": 10,
    "changes": [],
    "actions": [
      {
        "_id": "trkvchuubfo5k0fp",
        "name": "Attack",
        "img": "icons/sundries/misc/ladder-improvised.webp",
        "description": "",
        "tag": "",
        "activation": {
          "cost": 1,
          "type": "attack"
        },
        "unchainedAction": {
          "activation": {
            "cost": 1,
            "type": ""
          }
        },
        "duration": {
          "value": null,
          "units": "inst"
        },
        "target": {
          "value": ""
        },
        "range": {
          "value": "0",
          "units": "melee",
          "maxIncrements": 1,
          "minValue": null,
          "minUnits": ""
        },
        "uses": {
          "autoDeductChargesCost": "",
          "self": {
            "value": 0,
            "maxFormula": "",
            "per": null
          },
          "per": null,
          "value": 0,
          "maxFormula": ""
        },
        "measureTemplate": {
          "type": "",
          "size": "",
          "overrideColor": false,
          "customColor": "",
          "overrideTexture": false,
          "customTexture": ""
        },
        "attackName": "",
        "actionType": "mwak",
        "attackBonus": "",
        "critConfirmBonus": "",
        "damage": {
          "parts": [],
          "critParts": [],
          "nonCritParts": []
        },
        "attackParts": [],
        "formulaicAttacks": {
          "count": {
            "formula": "min(3, ceil(@attributes.bab.total / 5) - 1)"
          },
          "bonus": {
            "formula": "@formulaicAttack * -5"
          },
          "label": null
        },
        "formula": "",
        "ability": {
          "attack": "str",
          "damage": "str",
          "damageMult": 1,
          "critRange": "",
          "critMult": "2"
        },
        "save": {
          "dc": 0,
          "type": "",
          "description": ""
        },
        "effectNotes": [],
        "attackNotes": [],
        "soundEffect": "",
        "powerAttack": {
          "multiplier": "",
          "damageBonus": 2,
          "critMultiplier": 1
        },
        "naturalAttack": {
          "primaryAttack": true,
          "secondary": {
            "attackBonus": "-5",
            "damageMult": 0.5
          }
        },
        "nonlethal": false,
        "usesAmmo": false,
        "spellEffect": "",
        "spellArea": "",
        "conditionals": [],
        "enh": {
          "value": null
        }
      }
    ],
    "attackNotes": [],
    "effectNotes": [],
    "contextNotes": [],
    "links": {
      "children": []
    },
    "tag": "escaladeLadderHuge",
    "scriptCalls": [],
    "weaponGroups": {
      "value": []
    },
    "subType": "misc",
    "weaponSubtype": "other"
  }
}
