{
  "_id": "XPSOkPINqmsPFOk7",
  "name": "Fire Crossbow Bolt",
  "type": "loot",
  "img": "icons/weapons/ammunition/arrow-simple-brown.webp",
  "sort": 0,
  "flags": {},
  "system": {
    "description": {
      "value": "<p><strong>Source</strong> <em>Pathfinder #15: The Armageddon Echo pg. 18</em></p><h3><span title=\"3.5 Material\">[3.5]</span> Statistics</h3><p><strong>Cost</strong> 50 gp <strong>Weight</strong> -</p><p><strong>Category</strong> Ammunition; <strong>Proficiency</strong> Ammunition</p><h3>Description</h3><p>These carefully crafted wooden bolts have a hollow core filled with alchemist's fire. On a successful hit, they deal normal damage plus 1d4 points of fire damage. Alchemical fire bolts do not cause any splash damage, and the fire burst isn't enough to ignite targets (unless they are particularly flammable).</p>"
    },
    "tags": [],
    "price": 50,
    "equipped": false,
    "hp": {
      "max": 1,
      "value": 1
    },
    "hardness": 5,
    "identifiedName": "Fire Crossbow Bolt",
    "changes": [],
    "contextNotes": [],
    "links": {
      "children": []
    },
    "tag": "fireBolt",
    "scriptCalls": [],
    "subType": "ammo",
    "extraType": "bolt"
  }
}
