{
  "_id": "qEpaSO593GKaXJuo",
  "name": "Hurlbat",
  "type": "weapon",
  "img": "systems/pf1/icons/items/weapons/hurlbat.png",
  "sort": 0,
  "flags": {},
  "system": {
    "description": {
      "value": "<p><strong>Source</strong> <em>Ranged Tactics Toolbox pg. 18</em></p><h3><span title=\"PFS Legal\">[PFS]</span> Statistics</h3><p><strong>Cost</strong> 8 gp <strong>Weight</strong> 2 lbs.</p><p><strong>Damage</strong> 1d4 (small), 1d6 (medium); <strong>Critical</strong> x3; <strong>Range</strong> 10 ft.; <strong>Type</strong> P and S; <strong>Special</strong> -</p><p><strong>Category</strong> Ranged; <strong>Proficiency</strong> Martial</p><h3>Description</h3><p>A hurlbat is a throwing axe made from a single piece of flat metal. Every extremity of the hurlbat is sharpened, including the point of the handle. You can wield the hurlbat as a melee weapon, but it's not designed for such use; you take a -1 penalty on melee attack rolls with the weapon, and you must succeed at a DC 15 Reflex save when making melee attacks to avoid cutting yourself on an edge and taking 1 point of slashing damage. You don't need to attempt this save while wearing heavy armor.</p>"
    },
    "tags": [["Hurlbat"]],
    "weight": {
      "value": 2
    },
    "price": 8,
    "hp": {
      "max": 5,
      "value": 5
    },
    "hardness": 5,
    "identifiedName": "Hurlbat",
    "changes": [],
    "actions": [
      {
        "_id": "84n5f2f9gxl67dtq",
        "name": "Attack",
        "img": "systems/pf1/icons/items/weapons/hurlbat.png",
        "description": "",
        "tag": "",
        "activation": {
          "cost": 1,
          "type": "attack"
        },
        "unchainedAction": {
          "activation": {
            "cost": 1,
            "type": ""
          }
        },
        "duration": {
          "value": null,
          "units": "inst"
        },
        "target": {
          "value": ""
        },
        "range": {
          "value": "10",
          "units": "ft",
          "maxIncrements": 1,
          "minValue": null,
          "minUnits": ""
        },
        "uses": {
          "autoDeductChargesCost": "",
          "self": {
            "value": 0,
            "maxFormula": "",
            "per": null
          },
          "per": null,
          "value": 0,
          "maxFormula": ""
        },
        "measureTemplate": {
          "type": "",
          "size": "",
          "overrideColor": false,
          "customColor": "",
          "overrideTexture": false,
          "customTexture": ""
        },
        "attackName": "",
        "actionType": "rwak",
        "attackBonus": "",
        "critConfirmBonus": "",
        "damage": {
          "parts": [
            [
              "sizeRoll(1, 6, @size)",
              {
                "values": ["piercing", "slashing"],
                "custom": ""
              }
            ]
          ],
          "critParts": [],
          "nonCritParts": []
        },
        "attackParts": [],
        "formulaicAttacks": {
          "count": {
            "formula": "min(3, ceil(@attributes.bab.total / 5) - 1)"
          },
          "bonus": {
            "formula": "@formulaicAttack * -5"
          },
          "label": null
        },
        "formula": "",
        "ability": {
          "attack": "dex",
          "damage": "str",
          "damageMult": 1,
          "critRange": 20,
          "critMult": 3
        },
        "save": {
          "dc": 0,
          "type": "",
          "description": ""
        },
        "effectNotes": [],
        "attackNotes": [],
        "soundEffect": "",
        "powerAttack": {
          "multiplier": "",
          "damageBonus": 2,
          "critMultiplier": 1
        },
        "naturalAttack": {
          "primaryAttack": true,
          "secondary": {
            "attackBonus": "-5",
            "damageMult": 0.5
          }
        },
        "nonlethal": false,
        "usesAmmo": false,
        "spellEffect": "",
        "spellArea": "",
        "conditionals": [],
        "enh": {
          "value": null
        }
      }
    ],
    "attackNotes": [],
    "effectNotes": [],
    "contextNotes": [],
    "links": {
      "children": []
    },
    "tag": "hurlbat",
    "scriptCalls": [],
    "weaponGroups": {
      "value": ["axes", "thrown"]
    },
    "subType": "martial",
    "weaponSubtype": "ranged"
  }
}
