{
  "_id": "2fmoFtdX5zsAyAwo",
  "name": "Iron Brush",
  "type": "weapon",
  "img": "systems/pf1/icons/items/weapons/boar-spear.png",
  "sort": 0,
  "flags": {},
  "system": {
    "description": {
      "value": "<p><strong>Source</strong> <em>Ultimate Equipment pg. 18</em>, <em>Ultimate Combat pg. 131</em></p><h3><span title=\"PFS Legal\">[PFS]</span> Statistics</h3><p><strong>Cost</strong> 2 gp <strong>Weight</strong> -</p><p><strong>Damage</strong> 1d2 (small), 1d3 (medium); <strong>Critical</strong> x2; <strong>Range</strong> 10 ft.; <strong>Type</strong> P; <strong>Special</strong> -</p><p><strong>Category</strong> Light; <strong>Proficiency</strong> Martial</p><p><strong>Weapon Groups</strong> Close</p><h3>Description</h3><p>This is an ironhandled version of a scholar's brush with a sharpened handle. Though it does little damage, it is easily concealed (you gain a +2 bonus on Sleight of Hand checks made to conceal an iron brush on your body) and can be thrown short distances, or used to jab at key nerve clusters and acupuncture points to surprisingly devastating effect.</p>"
    },
    "tags": [["Iron Brush"]],
    "price": 2,
    "hp": {
      "max": 2,
      "value": 2
    },
    "hardness": 10,
    "identifiedName": "Iron Brush",
    "changes": [],
    "actions": [
      {
        "_id": "hkehm2kq5yo0v24b",
        "name": "Attack",
        "img": "systems/pf1/icons/items/weapons/boar-spear.png",
        "description": "",
        "tag": "",
        "activation": {
          "cost": 1,
          "type": "attack"
        },
        "unchainedAction": {
          "activation": {
            "cost": 1,
            "type": ""
          }
        },
        "duration": {
          "value": null,
          "units": "inst"
        },
        "target": {
          "value": ""
        },
        "range": {
          "value": "10",
          "units": "melee",
          "maxIncrements": 1,
          "minValue": null,
          "minUnits": ""
        },
        "uses": {
          "autoDeductChargesCost": "",
          "self": {
            "value": 0,
            "maxFormula": "",
            "per": null
          },
          "per": null,
          "value": 0,
          "maxFormula": ""
        },
        "measureTemplate": {
          "type": "",
          "size": "",
          "overrideColor": false,
          "customColor": "",
          "overrideTexture": false,
          "customTexture": ""
        },
        "attackName": "",
        "actionType": "mwak",
        "attackBonus": "",
        "critConfirmBonus": "",
        "damage": {
          "parts": [
            [
              "sizeRoll(1, 3, @size)",
              {
                "values": ["piercing"],
                "custom": ""
              }
            ]
          ],
          "critParts": [],
          "nonCritParts": []
        },
        "attackParts": [],
        "formulaicAttacks": {
          "count": {
            "formula": "min(3, ceil(@attributes.bab.total / 5) - 1)"
          },
          "bonus": {
            "formula": "@formulaicAttack * -5"
          },
          "label": null
        },
        "formula": "",
        "ability": {
          "attack": "str",
          "damage": "str",
          "damageMult": 1,
          "critRange": 20,
          "critMult": 2
        },
        "save": {
          "dc": 0,
          "type": "",
          "description": ""
        },
        "effectNotes": [],
        "attackNotes": [],
        "soundEffect": "",
        "powerAttack": {
          "multiplier": "",
          "damageBonus": 2,
          "critMultiplier": 1
        },
        "naturalAttack": {
          "primaryAttack": true,
          "secondary": {
            "attackBonus": "-5",
            "damageMult": 0.5
          }
        },
        "nonlethal": false,
        "usesAmmo": false,
        "spellEffect": "",
        "spellArea": "",
        "conditionals": [],
        "enh": {
          "value": null
        }
      }
    ],
    "attackNotes": [],
    "effectNotes": [],
    "contextNotes": [],
    "links": {
      "children": []
    },
    "tag": "ironBrush",
    "scriptCalls": [],
    "weaponGroups": {
      "value": ["close"]
    },
    "subType": "martial"
  }
}
