{
  "_id": "UWVXKSouid1jDJSm",
  "name": "Sling Bullet",
  "type": "loot",
  "img": "icons/weapons/ammunition/shot-round-blue.webp",
  "sort": 0,
  "flags": {},
  "system": {
    "description": {
      "value": "<p><strong>Source</strong> <em>Ultimate Equipment pg. 22</em>, <em>PRPG Core Rulebook pg. 142</em></p><h3><span title=\"PFS Legal\">[PFS]</span> Statistics</h3><p><strong>Cost</strong> 1 sp <strong>Weight</strong> 5 lbs.</p><p><strong>Category</strong> Ammunition; <strong>Proficiency</strong> Ammunition</p><h3>Description</h3><p>Sling bullets are shaped metal balls, designed to be used by a sling or halfling sling staff. Bullets come in a leather pouch that holds 10 bullets.</p>"
    },
    "tags": [],
    "quantity": 10,
    "weight": {
      "value": 0.5
    },
    "price": 0.01,
    "equipped": false,
    "hp": {
      "max": 1,
      "value": 1
    },
    "hardness": 5,
    "identifiedName": "Sling Bullet",
    "changes": [],
    "contextNotes": [],
    "links": {
      "children": []
    },
    "tag": "slingBullets10",
    "scriptCalls": [],
    "subType": "ammo",
    "extraType": "slingBullet"
  }
}
