{
  "_id": "pbporbkxdlpdpnut",
  "name": "A Thread Of Silver",
  "type": "loot",
  "img": "systems/pf1/icons/items/inventory/dice.jpg",
  "sort": 0,
  "flags": {},
  "system": {
    "description": {
      "value": "<p class=\"source\"><b>Source</b> <em>PPC:DHB</em></p>\n<p><b>Price</b> 6,700 gp; <b>Accuracy</b> +7; <b>Associated Skill</b> <em>Knowledge</em> (engineering) (DC 25)</p>\n<p>DESCRIPTION</p>\n<p>This thick leather-bound book was stolen by unknown hands, and describes one of the earliest surveys of a famous mountain and nearby ruins. Assassins brutally hunt down anyone with a copy.</p>\n<p>SKILL BONUSES</p>\n<ul>\n<li>Disable clockwork traps (<em>Disable Device</em> +2)</li>\n<li>Evaluate certain relics (<em>Appraise</em> +4)</li>\n<li>Identify <em>construct</em> creature (<em>Knowledge</em> [arcana] +4)</li>\n</ul>"
    },
    "tags": [],
    "weight": {
      "value": 2
    },
    "price": 6700,
    "equipped": false,
    "identifiedName": "A Thread Of Silver",
    "changes": [],
    "contextNotes": [],
    "links": {
      "children": []
    },
    "scriptCalls": [],
    "subType": "gear"
  }
}
