{
  "_id": "dxoevepxrhklwilv",
  "name": "Arrow, Grappling",
  "type": "loot",
  "img": "systems/pf1/icons/items/inventory/dice.jpg",
  "sort": 0,
  "flags": {},
  "system": {
    "description": {
      "value": "<p><b>Price</b> 1 gp; <b>Weight</b> 1/2 lb.</p>\n<p>This small <em>grappling hook</em> is designed to be tied to a <em>silk rope</em> and fired from a bow. When fired, it has a range increment of 30 feet. An equivalent item exists for crossbows.</p>"
    },
    "tags": [],
    "weight": {
      "value": 0.5
    },
    "price": 1,
    "equipped": false,
    "changes": [],
    "contextNotes": [],
    "links": {
      "children": []
    },
    "scriptCalls": [],
    "subType": "gear"
  }
}
