{
  "_id": "2tU3jnLYbaSKqPpT",
  "name": "Ball (2 in)",
  "type": "loot",
  "img": "systems/pf1/icons/items/inventory/dice.jpg",
  "sort": 0,
  "flags": {},
  "system": {
    "description": {
      "value": "<p>Source <a href=\"http://paizo.com/products/btpy8tmc?Pathfinder-Roleplaying-Game-Ultimate-Equipment\">Ultimate Equipment pg. 92</a><br>Price 6 gp (10 in.), 8 cp (2 in.), 2 sp (5 in.); Weight 1 lb. (10 in.), — (2 in.), — (5 in.)</p>\n<h3>Description</h3>\n<p>This ball may be an inflated animal bladder, carved from light wood, fabric stuffed with cloth or plant fiber and sewn shut.</p>"
    },
    "tags": [],
    "price": 0.08,
    "equipped": false,
    "identifiedName": "Ball (2 in)",
    "changes": [],
    "contextNotes": [],
    "links": {
      "children": []
    },
    "scriptCalls": [],
    "subType": "gear"
  }
}
