{
  "_id": "lbauzobqjbfrghth",
  "name": "Bomb Launcher",
  "type": "loot",
  "img": "systems/pf1/icons/items/inventory/dice.jpg",
  "sort": 0,
  "flags": {},
  "system": {
    "description": {
      "value": "<p class=\"source\"><b>Source</b> <em>PZO1121</em></p>\n<p>These odd looking, egg-shaped contraptions have cleverly placed fins that improve bombs' accuracy. <em>Goblin</em> <em>alchemists</em> use these special containers to make their bombs more accurate when thrown long distances. Using a bomb launcher when throwing a bomb increases the bomb's range increment to 30 feet (or increases the range increment of a bomb with the rocket bomb discovery to 70 feet). Bomb launchers are destroyed when used.</p>"
    },
    "tags": [],
    "weight": {
      "value": 0.5
    },
    "price": 10,
    "equipped": false,
    "changes": [],
    "contextNotes": [],
    "links": {
      "children": []
    },
    "scriptCalls": [],
    "subType": "gear"
  }
}
