{
  "_id": "vvtzblcgvzblmdux",
  "name": "Bread",
  "type": "loot",
  "img": "systems/pf1/icons/items/inventory/dice.jpg",
  "sort": 0,
  "flags": {},
  "system": {
    "description": {
      "value": "<h4>Bread</h4>\n<p class=\"source\"><b>Source</b> <em>PZO1110</em></p>\n<p>The listed prices are for one loaf in a tavern or restaurant in an average city.</p>"
    },
    "tags": [],
    "equipped": false,
    "changes": [],
    "contextNotes": [],
    "links": {
      "children": []
    },
    "scriptCalls": [],
    "subType": "gear"
  }
}
