{
  "_id": "nXZp8sXFRVtkM1qK",
  "name": "Candle lamp",
  "type": "loot",
  "img": "systems/pf1/icons/items/inventory/dice.jpg",
  "sort": 0,
  "flags": {},
  "system": {
    "description": {
      "value": "<p>Source <a href=\"http://paizo.com/products/btpy8tmc?Pathfinder-Roleplaying-Game-Ultimate-Equipment\">Ultimate Equipment pg. 56</a><br>Price 5 gp; Weight 1 lb.<br>Category Adventuring Gear</p>\n<h3>Description</h3>\n<p>A candle lamp is a small lanternlike device with glass panels and a slot to hold a candle. It protects the candle from drafts and catches wax drippings. It provides the same light as a candle, but can be shuttered such that it only illuminates 1 to 3 adjacent squares. You can use a candle lamp to keep your hands warm.</p>"
    },
    "tags": [],
    "weight": {
      "value": 1
    },
    "price": 5,
    "equipped": false,
    "identifiedName": "Candle lamp",
    "changes": [],
    "contextNotes": [],
    "links": {
      "children": []
    },
    "scriptCalls": [],
    "subType": "gear"
  }
}
