{
  "_id": "rketafoqnfebqrpp",
  "name": "Cauim",
  "type": "loot",
  "img": "systems/pf1/icons/items/inventory/dice.jpg",
  "sort": 0,
  "flags": {},
  "system": {
    "description": {
      "value": "<h4>Cauim</h4>\n<p><b>Price</b> 1 gp; <b>Weight</b> 2 lbs.</p>\n<p>This beer-like drink, made from manioc root or corn, requires extensive chewing as part of its production.</p>"
    },
    "tags": [],
    "weight": {
      "value": 2
    },
    "price": 1,
    "equipped": false,
    "changes": [],
    "contextNotes": [],
    "links": {
      "children": []
    },
    "scriptCalls": [],
    "subType": "gear"
  }
}
