{
  "_id": "pcwbfyngrrspmxkv",
  "name": "Caul",
  "type": "loot",
  "img": "systems/pf1/icons/items/inventory/dice.jpg",
  "sort": 0,
  "flags": {},
  "system": {
    "description": {
      "value": "<p><b>Price</b> varies; <b>Weight</b> -</p>\n<p>This ornate hairnet, fashioned from silk, cloth of gold, and jewels, is most commonly worn by royal or aristocratic women.</p>"
    },
    "tags": [],
    "price": 10,
    "equipped": false,
    "changes": [],
    "contextNotes": [],
    "links": {
      "children": []
    },
    "scriptCalls": [],
    "subType": "gear"
  }
}
