{
  "_id": "fyymygovwcvqnuxl",
  "name": "Chair, Folding",
  "type": "loot",
  "img": "systems/pf1/icons/items/inventory/dice.jpg",
  "sort": 0,
  "flags": {},
  "system": {
    "description": {
      "value": "<h4>Chair, Folding</h4>\n<p><b>Price</b> 2 gp; <b>Weight</b> 10 lbs.</p>\n<p>This simple folding chair has a wooden frame and canvas seat and back, making it easy to transport and set up wherever you wish. It folds up easily and fits in a handy carrying bag. The chair can support up to 250 pounds with ease.</p>"
    },
    "tags": [],
    "weight": {
      "value": 10
    },
    "price": 2,
    "equipped": false,
    "changes": [],
    "contextNotes": [],
    "links": {
      "children": []
    },
    "scriptCalls": [],
    "subType": "gear"
  }
}
