{
  "_id": "pxnqjyslycsvekaz",
  "name": "Clear Ear",
  "type": "loot",
  "img": "systems/pf1/icons/items/inventory/dice.jpg",
  "sort": 0,
  "flags": {},
  "system": {
    "description": {
      "value": "<p class=\"source\"><b>Source</b> <em>PZO9410</em></p>\n<p>This green gel is poured into the user's ear and takes effect 2 hours later, enhancing senses and memory but increasing irritability. For 6 hours, the user gains a +2 <em>alchemical bonus</em> on <em>Perception</em> and <em>Knowledge</em> checks and a -2 penalty on all <em>Charisma</em>-based checks.</p>"
    },
    "tags": [],
    "price": 15,
    "equipped": false,
    "changes": [],
    "contextNotes": [],
    "links": {
      "children": []
    },
    "scriptCalls": [],
    "subType": "gear"
  }
}
