{
  "_id": "MrxwYWWezbJTZLog",
  "name": "Cloak of Resistance +1",
  "type": "equipment",
  "img": "systems/pf1/icons/items/equipment/cloak-plain.jpg",
  "sort": 0,
  "flags": {},
  "system": {
    "description": {
      "value": "<p>This garment offers magic protection in the form of a +1 to +5 <em>resistance bonus</em> on all saving throws (<em>Fortitude</em>, <em>Reflex</em>, and <em>Will</em>).</p>"
    },
    "tags": [],
    "weight": {
      "value": 1
    },
    "price": 1000,
    "resizing": true,
    "unidentified": {
      "name": "Cloak"
    },
    "identifiedName": "Cloak of Resistance +1",
    "cl": 5,
    "aura": {
      "school": "abj"
    },
    "changes": [
      {
        "_id": "7okw4xq4",
        "formula": "1",
        "operator": "add",
        "subTarget": "allSavingThrows",
        "modifier": "resist",
        "priority": 0,
        "value": 0,
        "target": "savingThrows"
      }
    ],
    "contextNotes": [],
    "actions": [],
    "attackNotes": [],
    "effectNotes": [],
    "links": {
      "children": [],
      "charges": []
    },
    "tag": "cloakOfResistance1",
    "scriptCalls": [],
    "subType": "misc",
    "equipmentSubtype": "wondrous",
    "slot": "shoulders"
  }
}
