{
  "_id": "rndukvrkduzfqamc",
  "name": "Corset",
  "type": "loot",
  "img": "systems/pf1/icons/items/inventory/dice.jpg",
  "sort": 0,
  "flags": {},
  "system": {
    "description": {
      "value": "<p class=\"source\"><b>Source</b> <em>PPZO94102</em></p>\n<p><b>Price</b> 1 SP-200 gp; <b>Weight</b> 3 lbs.</p>\n<p>Sewn-in boning and laces allow this bodice to adjust your waist size in a way considered alluring by some cultures. The restrictive nature of this garment makes it a poor choice for combat or other athletic exertions, but you can easily conceal a thin knife in the corset's boning. The price varies greatly depending on the corset's quality; the cheapest corsets are made of simple cloth and cost mere silver pieces, while the most expensive feature silk brocade and are decorated with pearls or other costly adornments.</p>"
    },
    "tags": [],
    "weight": {
      "value": 3
    },
    "price": 0.1,
    "equipped": false,
    "changes": [],
    "contextNotes": [],
    "links": {
      "children": []
    },
    "scriptCalls": [],
    "subType": "gear"
  }
}
