{
  "_id": "pzxgojmlevlsbfed",
  "name": "Cot",
  "type": "loot",
  "img": "systems/pf1/icons/items/inventory/dice.jpg",
  "sort": 0,
  "flags": {},
  "system": {
    "description": {
      "value": "<h4>Cot</h4>\n<p><b>Price</b> 1 gp; <b>Weight</b> 30 lbs.</p>\n<p>This elevated camp bed is made of wood and canvas, and is particularly useful when the ground is wet or rocky. It is large enough for a full-grown human, but folds down into a 4-foot-by-9-inch cylindrical bag.</p>"
    },
    "tags": [],
    "weight": {
      "value": 30
    },
    "price": 1,
    "equipped": false,
    "changes": [],
    "contextNotes": [],
    "links": {
      "children": []
    },
    "scriptCalls": [],
    "subType": "gear"
  }
}
