{
  "name": "Cup",
  "type": "loot",
  "img": "systems/pf1/icons/items/inventory/dice.jpg",
  "system": {
    "tags": [["Mundane"], ["Cooking"]],
    "weight": {
      "value": 0.1
    },
    "changes": [],
    "contextNotes": [],
    "links": {
      "children": []
    },
    "scriptCalls": [],
    "subType": "tradeGoods"
  },
  "flags": {},
  "sort": 0,
  "_id": "QqdYeaj0M8e5FWWK"
}
