{
  "_id": "iRiKqGbBZYnbGPir",
  "name": "Ear trumpet (Common)",
  "type": "loot",
  "img": "systems/pf1/icons/items/inventory/dice.jpg",
  "sort": 0,
  "flags": {},
  "system": {
    "description": {
      "value": "<p>Source <a href=\"http://paizo.com/products/btpy99s6?Pathfinder-Player-Companion-Ranged-Tactics-Toolbox\">Ranged Tactics Toolbox pg. 20</a><br>Price 25 gp (common), 100 gp (masterwork); Weight 2 lbs. (common), 2 lbs. (masterwork)</p>\n<h3>Description</h3>\n<p>This foot-long brass funnel amplifies sounds entering through the broad end for anyone listening at the narrow end. The listener gains a +2 circumstance bonus on sound-based Perception checks but must use one hand to hold the trumpet to the ear in order to gain the benefit. A masterwork ear trumpet’s exquisite acoustic properties grant the listener a +4 circumstance bonus instead.</p>"
    },
    "tags": [],
    "weight": {
      "value": 2
    },
    "price": 25,
    "equipped": false,
    "identifiedName": "Ear trumpet (Common)",
    "changes": [],
    "contextNotes": [],
    "links": {
      "children": []
    },
    "scriptCalls": [],
    "subType": "gear"
  }
}
