{
  "_id": "wefwbyosjscwljqj",
  "name": "Essence Of Night",
  "type": "loot",
  "img": "systems/pf1/icons/items/inventory/dice.jpg",
  "sort": 0,
  "flags": {},
  "system": {
    "description": {
      "value": "<p class=\"source\"><b>Source</b> PRG:TWoVHD</p>\n<p><b>Price</b> 150 gp; <b>Weight</b> -</p>\n<p>Drinking the cold, oily draught in this vial suppresses the effects of the <em>light sensitivity</em> racial trait for 10 minutes. Additionally, 1 <em>sunlight syndrome</em> point is removed, if the drinker has any. Essence of night can remove only 1 <em>sunlight syndrome</em> point per day, no matter how many flasks a character might drink.</p>\n<p>Essence of night is an alchemical item with a <em>Craft</em> DC of 25.</p>"
    },
    "tags": [],
    "price": 150,
    "equipped": false,
    "changes": [],
    "contextNotes": [],
    "links": {
      "children": []
    },
    "scriptCalls": [],
    "subType": "gear"
  }
}
