{
  "_id": "YrttT8JIjpP3nmgv",
  "name": "Fashionable accessories",
  "type": "loot",
  "img": "systems/pf1/icons/items/inventory/dice.jpg",
  "sort": 0,
  "flags": {},
  "system": {
    "description": {
      "value": "<p>Source <a href=\"http://paizo.com/products/btpy9ghc?Pathfinder-Player-Companion-Heroes-of-the-Streets\">Heroes of the Streets pg. 13</a><br>Price 20 gp; Weight 5 lbs.<br>Category Clothing</p>\n<h3>Description</h3>\n<p>These accessories allow a courtier’s, entertainer’s, or noble’s outfit to match the height of style in a particular city for 2d4 months. You gain a +2 circumstance bonus on Diplomacy checks to make requests of denizens of that city while wearing the accessories and an appropriate outfit. The bonus also applies on Bluff and Disguise checks to convince others that you hail from that city.</p>"
    },
    "tags": [],
    "weight": {
      "value": 5
    },
    "price": 20,
    "equipped": false,
    "identifiedName": "Fashionable accessories",
    "changes": [],
    "contextNotes": [],
    "links": {
      "children": []
    },
    "scriptCalls": [],
    "subType": "gear"
  }
}
