{
  "_id": "hwrgbauvnnirgqdy",
  "name": "Feed, Animal",
  "type": "loot",
  "img": "systems/pf1/icons/items/inventory/dice.jpg",
  "sort": 0,
  "flags": {},
  "system": {
    "description": {
      "value": "<p><b>Price</b> 5 cp/day; <b>Weight</b> 10 lbs.</p>\n<p><em>Horses</em>, donkeys, mules, and <em>ponies</em> can graze to sustain themselves, but providing feed for them is better. If you have a <em>riding dog</em>, you have to feed it meat.</p>"
    },
    "tags": [],
    "weight": {
      "value": 10
    },
    "price": 0.05,
    "equipped": false,
    "changes": [],
    "contextNotes": [],
    "links": {
      "children": []
    },
    "scriptCalls": [],
    "subType": "gear"
  }
}
