{
  "_id": "R63HvJMSFd8uX0ho",
  "name": "Fire-resistant boots",
  "type": "loot",
  "img": "systems/pf1/icons/items/inventory/dice.jpg",
  "sort": 0,
  "flags": {},
  "system": {
    "description": {
      "value": "<p>Source <a href=\"http://paizo.com/products/btpy8tmc?Pathfinder-Roleplaying-Game-Ultimate-Equipment\">Ultimate Equipment pg. 89</a><br>Price 20 gp; Weight 2 lbs.<br>Category Clothing</p>\n<h3>Description</h3>\n<p>These heavy leather boots contain a layer of brick dust that protects your feet from heat. You gain fire resistance 2 against fire attacks directed at or under your feet, such as walking across hot coals. Repeat or prolonged exposure to fire damage eventually burns the outer leather of the boots, ruining them (typically after about 1d10+20 rounds of exposure).</p>"
    },
    "tags": [],
    "weight": {
      "value": 2
    },
    "price": 20,
    "equipped": false,
    "identifiedName": "Fire-resistant boots",
    "changes": [],
    "contextNotes": [],
    "links": {
      "children": []
    },
    "scriptCalls": [],
    "subType": "gear"
  }
}
