{
  "_id": "mnixclquccxhziyh",
  "name": "Gold",
  "type": "loot",
  "img": "systems/pf1/icons/items/inventory/dice.jpg",
  "sort": 0,
  "flags": {},
  "system": {
    "description": {
      "value": "<p class=\"source\"><b>Source</b> <em>PZO9445</em></p>\n<p><b>Price</b> 5 gp; <b>Weight</b> -</p>\n<p>In its purest form, gold is a dense, nonreactive metal. Its alchemical products are useful in stains and in treating swelling, pain, and infections.</p>\n<p>Alchemical Power Component</p>\n<p><b>Doses</b> 1 (5 gp); <b>Spells</b> healing subschool</p>\n<p>Spells of the healing subschool heal +1 hit point if they heal hit points.</p>"
    },
    "tags": [],
    "price": 5,
    "equipped": false,
    "changes": [],
    "contextNotes": [],
    "links": {
      "children": []
    },
    "scriptCalls": [],
    "subType": "gear"
  }
}
