{
  "_id": "nwkkmpvpkoopmvum",
  "name": "Grave Journal",
  "type": "loot",
  "img": "systems/pf1/icons/items/inventory/dice.jpg",
  "sort": 0,
  "flags": {},
  "system": {
    "description": {
      "value": "<p class=\"source\"><b>Source</b> <em>PPC:DHB</em></p>\n<p><b>Price</b> 4,600 gp; <b>Accuracy</b> +6; <b>Associated Skill</b> <em>Knowledge</em> (religion) (DC 25)</p>\n<p>DESCRIPTION</p>\n<p>This long-lost tome contains the detailed accounts of the mysterious and terrible things found when exploring a haunted burial ground centuries ago.</p>\n<p>SKILL BONUSES</p>\n<ul>\n<li>See through a <em>vampire</em> or <em>dhampir's</em> disguise (<em>Perception</em> +4)</li>\n</ul>"
    },
    "tags": [],
    "weight": {
      "value": 2
    },
    "price": 4600,
    "equipped": false,
    "changes": [],
    "contextNotes": [],
    "links": {
      "children": []
    },
    "scriptCalls": [],
    "subType": "gear"
  }
}
