{
  "_id": "nxlrjuqliwfghmwp",
  "name": "Grease, Alchemical",
  "type": "loot",
  "img": "systems/pf1/icons/items/inventory/dice.jpg",
  "sort": 0,
  "flags": {},
  "system": {
    "description": {
      "value": "<p class=\"source\"><b>Source</b> <em>PZO1115</em></p>\n<p>Each pot of this slick black goo has sufficient contents to cover one Medium or two Small creatures. If you coat yourself in alchemical grease, you gain a +5 <em>alchemical bonus</em> on <em>Escape Artist</em> checks, on <em>combat maneuver</em> checks made to escape a <em>grapple</em>, and to your <em>CMD</em> to avoid being <em>grappled</em>; this lasts 4 hours or until you wash it off.</p>\n<p><b>Create</b>: <em>Craft</em> (alchemy) DC 15</p>\n<p>Alchemical Power Component</p>\n<p class=\"source\"><b>Source</b> <em>PZO9410</em></p>\n<p>Alchemical grease is good for augmenting spells affecting or creating surfaces.</p>\n<ul>\n<li><em>Grease</em> (M): Increase the <em>Reflex</em> save DC for affected creatures and the <em>Escape Artist</em> bonus for greased armor by 1.</li>\n<li><em>Sleet Storm</em> (M): Increase the <em>Acrobatics</em> DC by 1.</li>\n<li><em>Wall of Iron</em> (M): For each pot of grease used as a power component, you may designate one 10-foot square of iron wall as being slippery (+5 to <em>Climb</em> DCs).</li>\n<li><em>Wall of Stone</em> (M): For each pot of grease used as a power component, you may designate one 10-foot square of the spell's stone wall as being slippery (+5 to <em>Climb</em> DCs).</li>\n</ul>"
    },
    "tags": [],
    "weight": {
      "value": 1
    },
    "price": 5,
    "equipped": false,
    "changes": [],
    "contextNotes": [],
    "links": {
      "children": []
    },
    "scriptCalls": [],
    "subType": "gear"
  }
}
