{
  "_id": "dixgdbuhpyimaico",
  "name": "Hennin",
  "type": "loot",
  "img": "systems/pf1/icons/items/inventory/dice.jpg",
  "sort": 0,
  "flags": {},
  "system": {
    "description": {
      "value": "<p><b>Price</b> varies; <b>Weight</b> 1 lb.</p>\n<p>This high conical headpiece ends in a tip that usually has a piece of silk or similar diaphanous material dangling from it. Women of noble birth sometimes wear a hennin to formal or social occasions as a signal of their eligibility, and give the silk part of the headpiece as a token to suitors they favor.</p>"
    },
    "tags": [],
    "weight": {
      "value": 1
    },
    "price": 10,
    "equipped": false,
    "changes": [],
    "contextNotes": [],
    "links": {
      "children": []
    },
    "scriptCalls": [],
    "subType": "gear"
  }
}
