{
  "_id": "gnynrdudvahpbxkz",
  "name": "Hook, Grappling (Common)",
  "type": "loot",
  "img": "systems/pf1/icons/items/inventory/dice.jpg",
  "sort": 0,
  "flags": {},
  "system": {
    "description": {
      "value": "<table>\n<thead>\n<tr>\n<th>Type</th>\n<th>Price</th>\n<th>Weight</th>\n</tr>\n</thead>\n<tbody>\n<tr>\n<td>Common</td>\n<td>1 gp</td>\n<td>4 lbs.</td>\n</tr>\n<tr>\n<td>Mithral</td>\n<td>2,001 gp</td>\n<td>2 lbs.</td>\n</tr>\n</tbody>\n</table>\n<p>Throwing a grappling hook requires a ranged attack roll, treating the hook as a thrown weapon with a range increment of 10 feet. Objects with ample places to catch the hook have an AC of 5.</p>"
    },
    "tags": [],
    "weight": {
      "value": 4
    },
    "price": 1,
    "equipped": false,
    "identifiedName": "Hook, Grappling (Common)",
    "changes": [],
    "contextNotes": [],
    "links": {
      "children": []
    },
    "scriptCalls": [],
    "subType": "gear"
  }
}
