{
  "_id": "If6OouoBlHtNlyPt",
  "name": "Ioun Torch",
  "type": "loot",
  "img": "systems/pf1/icons/items/inventory/dice.jpg",
  "sort": 0,
  "flags": {},
  "system": {
    "description": {
      "value": "<p>Source <a href=\"http://paizo.com/products/btpy8tmc?Pathfinder-Roleplaying-Game-Ultimate-Equipment\">Ultimate Equipment pg. 305</a>, <a href=\"http://paizo.com/pathfinderRPG/v5748btpy8fo1\">Advanced Player's Guide pg. 306</a><br>Aura strong universal; CL 12th<br>Slot none; Price 75 gp; Weight —</p>\n<h3>Description</h3>\n<p>This item is merely a burned out, dull gray ioun stone with a continual flame spell cast upon it. It retains the ability to float and orbit, and allows the bearer to carry light and still have his hands free. It may be in any crystalline shape common to ioun stones (ellipsoid, prism, sphere, and so on).</p>\n<h3>Construction</h3>\n<p>Requirements Craft Wondrous Item, continual flame, creator must be 12th level; Cost 62 gp, 5 SP</p>"
    },
    "tags": [],
    "price": 75,
    "equipped": false,
    "identifiedName": "Ioun Torch",
    "changes": [],
    "contextNotes": [],
    "links": {
      "children": []
    },
    "scriptCalls": [],
    "subType": "gear"
  }
}
