{
  "_id": "qlweoovcvtklmsre",
  "name": "Kit, Healer's",
  "type": "loot",
  "img": "systems/pf1/icons/items/inventory/dice.jpg",
  "sort": 0,
  "flags": {},
  "system": {
    "description": {
      "value": "<p><b>Price</b> 50 gp; <b>Weight</b> 1 lb.</p>\n<p>This collection of bandages and herbs provides a +2 <em>circumstance bonus</em> on <em>Heal</em> checks. A healer's kit is exhausted after 10 uses.</p>"
    },
    "tags": [],
    "weight": {
      "value": 1
    },
    "price": 50,
    "equipped": false,
    "changes": [],
    "contextNotes": [],
    "links": {
      "children": []
    },
    "scriptCalls": [],
    "subType": "gear"
  }
}
