{
  "_id": "tbilvwrvynmifyaq",
  "name": "Kit, Gravedigger's",
  "type": "loot",
  "img": "systems/pf1/icons/items/inventory/dice.jpg",
  "sort": 0,
  "flags": {},
  "system": {
    "description": {
      "value": "<p class=\"source\"><b>Source</b>: <em>USH</em></p>\n<p><b>Price</b> 265 gp; <b>Weight</b> 22 lbs.</p>\n<p>This kit provides all the tools necessary to seal a <em>coffin</em> or other burial container and ensure that it stays closed. It includes 20 feet of <em>chain</em>, a good <em>lock</em>, 1 dose of <em>alchemical cement</em>, a folding shovel, a <em>stubborn nail</em>, and a leather-bound copy of a <em>holy text</em>.</p>"
    },
    "tags": [],
    "weight": {
      "value": 22
    },
    "price": 265,
    "equipped": false,
    "changes": [],
    "contextNotes": [],
    "links": {
      "children": []
    },
    "scriptCalls": [],
    "subType": "gear"
  }
}
