{
  "_id": "bjgstxhylfrbzsle",
  "name": "Kit, Spycatcher's",
  "type": "loot",
  "img": "systems/pf1/icons/items/inventory/dice.jpg",
  "sort": 0,
  "flags": {},
  "system": {
    "description": {
      "value": "<p><b>Price</b> 260 gp; <b>Weight</b> 7-1/2 lbs.</p>\n<p>This kit includes an <em>antidote kit</em>, a cryptography book (see above), litmus strips (5), and a portrait book.</p>"
    },
    "tags": [],
    "weight": {
      "value": 7
    },
    "price": 260,
    "equipped": false,
    "changes": [],
    "contextNotes": [],
    "links": {
      "children": []
    },
    "scriptCalls": [],
    "subType": "gear"
  }
}
