{
  "_id": "kzjopnqwektidpkk",
  "name": "Kit, Forger's",
  "type": "loot",
  "img": "systems/pf1/icons/items/inventory/dice.jpg",
  "sort": 0,
  "flags": {},
  "system": {
    "description": {
      "value": "<p><b>Price</b> 200 gp; <b>Weight</b> 6 lbs.</p>\n<p>These inks, pens, papers, templates for certificates, and tools for modifying or copying official seals facilitates the creation of counterfeit documents. It grants a +2 <em>circumstance bonus</em> on Linguistic checks made for the purpose of making forgeries.</p>"
    },
    "tags": [],
    "weight": {
      "value": 6
    },
    "price": 200,
    "equipped": false,
    "changes": [],
    "contextNotes": [],
    "links": {
      "children": []
    },
    "scriptCalls": [],
    "subType": "gear"
  }
}
