{
  "_id": "cvuwovxooiinnhtq",
  "name": "Kit, Cat Burglar's",
  "type": "loot",
  "img": "systems/pf1/icons/items/inventory/dice.jpg",
  "sort": 0,
  "flags": {},
  "system": {
    "description": {
      "value": "<p><b>Price</b> 15 gp; <b>Weight</b> 12 lbs.</p>\n<p>This kit includes a <em>glass cutter</em>, <em>glue paper</em> (5 sheets), a <em>grappling hook</em>, a masterwork <em>backpack</em>, and silk <em>rope</em> (50 feet).</p>"
    },
    "tags": [],
    "weight": {
      "value": 12
    },
    "price": 15,
    "equipped": false,
    "changes": [],
    "contextNotes": [],
    "links": {
      "children": []
    },
    "scriptCalls": [],
    "subType": "gear"
  }
}
