{
  "_id": "Bhq8Wf3NG9d51aLk",
  "name": "Marked cards",
  "type": "loot",
  "img": "systems/pf1/icons/items/inventory/dice.jpg",
  "sort": 0,
  "flags": {},
  "system": {
    "description": {
      "value": "<p>Source <a href=\"http://paizo.com/products/btpy8tmc?Pathfinder-Roleplaying-Game-Ultimate-Equipment\">Ultimate Equipment pg. 92</a>, <a href=\"http://paizo.com/pathfinderRPG/v5748btpy8fo1\">Advanced Player's Guide pg. 185</a>, <a href=\"http://paizo.com/store/downloads/pathfinder/pathfinderCompanion/pathfinderRPG/v5748btpy8dmf\">Adventurer's Armory pg. 19</a><br>Price 1 gp; Weight 1 lb.<br>Category Entertainment</p>\n<h3>Description</h3>\n<p>Whether bent, colored, or scratched, marked cards allow an informed user to know what’s on the front of the card by viewing the mark on the back. Realizing that the cards are marked requires a DC 25 Perception check or DC 20 Profession (gambler) check. The listed price is for a common paper deck.</p>"
    },
    "tags": [],
    "weight": {
      "value": 1
    },
    "price": 1,
    "equipped": false,
    "identifiedName": "Marked cards",
    "changes": [],
    "contextNotes": [],
    "links": {
      "children": []
    },
    "scriptCalls": [],
    "subType": "gear"
  }
}
