{
  "_id": "ijvthxdltvptzbsn",
  "name": "Mellowroot",
  "type": "loot",
  "img": "systems/pf1/icons/items/inventory/dice.jpg",
  "sort": 0,
  "flags": {},
  "system": {
    "description": {
      "value": "<p class=\"source\"><b>Source</b> <em>PZO1121</em></p>\n<p>Sneaky <em>goblin</em> chieftains give this orange paste to the tribe's warriors before proposing a particularly bold raid. Consuming mellowroot causes a euphoric feeling that makes you feel invulnerable. For 1 hour after consuming mellowroot, you gain a +5 <em>alchemical bonus</em> versus fear effects. However, while under the effects of mellowroot, you must make a DC 15 <em>Will</em> saving throw when you try to leave the <em>threatened</em> area of an opponent. If you fail the saving throw, you cannot leave the <em>threatened</em> area with that action but do not lose the action.</p>"
    },
    "tags": [],
    "price": 25,
    "equipped": false,
    "changes": [],
    "contextNotes": [],
    "links": {
      "children": []
    },
    "scriptCalls": [],
    "subType": "gear"
  }
}
