{
  "name": "Mirror, Miniature",
  "type": "loot",
  "flags": {},
  "img": "icons/tools/scribal/lens-grey-brown.webp",
  "system": {
    "description": {
      "value": "<p class=\"source\"><strong>Source</strong> <em>PZO1110</em></p>\n<p>A tiny steel mirror.</p>"
    },
    "tags": [["Mundane"], ["Grooming"]],
    "weight": {
      "value": 0.2
    },
    "equipped": false,
    "changes": [],
    "contextNotes": [],
    "links": {
      "children": []
    },
    "scriptCalls": [],
    "subType": "tradeGoods"
  },
  "sort": 0,
  "_id": "qtVn6uvpmPlc30AX"
}
