{
  "_id": "ilrlpecljcitjnjz",
  "name": "Moly",
  "type": "loot",
  "img": "systems/pf1/icons/items/inventory/dice.jpg",
  "sort": 0,
  "flags": {},
  "system": {
    "description": {
      "value": "<p class=\"source\"><b>Source</b> <em>PZO1140</em></p>\n<p><b>Price</b> 1,200 gp</p>\n<p>Moly is a plant with flowers white as pure milk and roots black as night.</p>\n<p><b>Gather</b> DC 25; <b>Yield</b> 1 dose</p>\n<p><b>Terrain</b> any forests or plains</p>\n<p><b>Preparation</b> This flowering herb must be picked whole and boiled with water until the entire amount is reduced by half. The resulting mixture is then strained and poured into a shallow pan to evaporate. The resulting crust is scraped off as a powder.</p>\n<p><b>Use</b> Anyone wearing or carrying fresh moly gains a +4 <em>resistance bonus</em> on saving throws against spells and <em>spell-like abilities</em>. Moly remains fresh in this way for only 12 hours, regardless of magical attempts to preserve it. When processed into a powder with a successful DC 25 <em>Craft</em> (alchemy) check, moly can be sprinkled on a creature, object, or area (a <em>standard action</em>) to end a spell as if with <em>dispel magic</em> (<em>caster level</em> 6th).</p>"
    },
    "tags": [],
    "price": 1200,
    "equipped": false,
    "changes": [],
    "contextNotes": [],
    "links": {
      "children": []
    },
    "scriptCalls": [],
    "subType": "gear"
  }
}
