{
  "_id": "bovkbbpfptslfhvz",
  "name": "Musk, Harpy",
  "type": "loot",
  "img": "systems/pf1/icons/items/inventory/dice.jpg",
  "sort": 0,
  "flags": {},
  "system": {
    "description": {
      "value": "<p class=\"source\"><b>Source</b> RotRPG</p>\n<p>The reek of this doubtful cure-all proves useful at scaring off <em>goblins</em>. If smeared on a surface or used as a thrown weapon, the musk fills a 30-foot area with the stink of <em>harpies</em> for 1 minute. Any <em>goblin</em> who enters the area must make a DC 14 <em>Will</em> save or be <em>shaken</em> for 1 minute.</p>\n<h3>Alchemical Reagents</h3>"
    },
    "tags": [],
    "price": 2,
    "equipped": false,
    "changes": [],
    "contextNotes": [],
    "links": {
      "children": []
    },
    "scriptCalls": [],
    "subType": "gear"
  }
}
