{
  "_id": "5bPq9fmGxiqBXFzc",
  "name": "Outfit, Companion Cold-Weather",
  "type": "equipment",
  "img": "systems/pf1/icons/items/equipment/cloak-fur.jpg",
  "sort": 0,
  "flags": {},
  "system": {
    "description": {
      "value": "<p>This vestment works just like a cold-weather outfit, granting a +5 <em>circumstance bonus</em> on <em>Fortitude</em> saving throws against exposure to cold weather, except it is custom made for an <em>animal companion</em>. The added cost represents custom tailoring to ensure that the furs used don't cause unwanted reactions from the <em>animal</em> wearing the outfit.</p>"
    },
    "tags": [],
    "weight": {
      "value": 6
    },
    "price": 15,
    "identifiedName": "Outfit, Companion Cold-Weather",
    "changes": [],
    "contextNotes": [
      {
        "text": "+[[5]] <b>Circumstance</b> vs cold weather effects",
        "target": "savingThrows",
        "subTarget": "fort"
      }
    ],
    "actions": [],
    "attackNotes": [],
    "effectNotes": [],
    "links": {
      "children": [],
      "charges": []
    },
    "scriptCalls": [],
    "subType": "misc",
    "equipmentSubtype": "clothing",
    "slot": "body"
  }
}
