{
  "_id": "TtDnjdwDQAlfWGQ6",
  "name": "Outfit, Scholar's",
  "type": "equipment",
  "img": "systems/pf1/icons/items/equipment/cloak-plain.jpg",
  "sort": 0,
  "flags": {},
  "system": {
    "description": {
      "value": "<p class=\"source\"><strong>Source</strong> <em>PZO1110</em></p>\n<p>Perfect for a scholar, this outfit includes a robe, a belt, a cap, soft shoes, and possibly a cloak.</p>"
    },
    "tags": [],
    "weight": {
      "value": 6
    },
    "price": 5,
    "identifiedName": "Outfit, Scholar's",
    "changes": [],
    "contextNotes": [],
    "actions": [],
    "attackNotes": [],
    "effectNotes": [],
    "links": {
      "children": [],
      "charges": []
    },
    "scriptCalls": [],
    "subType": "misc",
    "equipmentSubtype": "clothing",
    "slot": "body"
  }
}
