{
  "_id": "LhUexHZ2l8Y2bsgD",
  "name": "Outfit, Burglar's",
  "type": "equipment",
  "img": "systems/pf1/icons/items/equipment/cowl.jpg",
  "sort": 0,
  "flags": {},
  "system": {
    "description": {
      "value": "<p class=\"source\"><strong>Source</strong> <em>PPZO94102</em></p>\n<p>This outfit consists of fitted pants, a shirt, a hooded reversible cloak, soft leather boots, and a face <em>mask</em>, all in dark or neutral colors. The outfit's few buttons and rivets are wrapped in dull, dark cloth to avoid jingling or reflecting light. A number of loops and shallow pockets are also worked into the outfit, providing ample spaces for stashing small tools or weapons.</p>"
    },
    "tags": [],
    "weight": {
      "value": 5
    },
    "price": 5,
    "identifiedName": "Outfit, Burglar's",
    "changes": [],
    "contextNotes": [],
    "actions": [],
    "attackNotes": [],
    "effectNotes": [],
    "links": {
      "children": [],
      "charges": []
    },
    "scriptCalls": [],
    "subType": "misc",
    "equipmentSubtype": "clothing",
    "slot": "body"
  }
}
