{
  "_id": "6kZGQ2chmr3jpS1t",
  "name": "Outfit, Entertainer's",
  "type": "equipment",
  "img": "systems/pf1/icons/items/equipment/belt-cloth.jpg",
  "sort": 0,
  "flags": {},
  "system": {
    "description": {
      "value": "<p class=\"source\"><strong>Source</strong> <em>PZO1110</em></p>\n<p>This set of flashy-perhaps even gaudy-clothes is for entertaining. While the outfit looks whimsical, its practical design lets you tumble, dance, walk a tightrope, or just run (if the audience turns ugly).</p>"
    },
    "tags": [],
    "weight": {
      "value": 4
    },
    "price": 3,
    "identifiedName": "Outfit, Entertainer's",
    "changes": [],
    "contextNotes": [],
    "actions": [],
    "attackNotes": [],
    "effectNotes": [],
    "links": {
      "children": [],
      "charges": []
    },
    "scriptCalls": [],
    "subType": "misc",
    "equipmentSubtype": "clothing",
    "slot": "body"
  }
}
