{
  "_id": "NfLgysBxAbV66rKC",
  "name": "Outfit, Flame-Retardant",
  "type": "equipment",
  "img": "systems/pf1/icons/items/equipment/cloak-plain.jpg",
  "sort": 0,
  "flags": {},
  "system": {
    "description": {
      "value": "<p class=\"source\">Constructed to resist the effects of hot environments (such as forest fires and areas of volcanic activity), this set of overlapping, heavy leather clothing includes a pair of fire-resistant boots. The outfit grants <em>fire resistance</em> 1, but exposure to fire damage ruins the outfit after 20 rounds.</p>"
    },
    "tags": [],
    "weight": {
      "value": 10
    },
    "price": 50,
    "identifiedName": "Outfit, Flame-Retardant",
    "changes": [],
    "contextNotes": [],
    "actions": [],
    "attackNotes": [],
    "effectNotes": [],
    "links": {
      "children": [],
      "charges": []
    },
    "scriptCalls": [],
    "subType": "misc",
    "equipmentSubtype": "clothing",
    "slot": "body"
  }
}
