{
  "_id": "jwVHSbHYArXOtGKv",
  "name": "Piton",
  "type": "loot",
  "img": "icons/tools/fasteners/pin-spiked.webp",
  "sort": 0,
  "flags": {},
  "system": {
    "description": {
      "value": "<p>Source <a href=\"http://paizo.com/products/btpy8tmc?Pathfinder-Roleplaying-Game-Ultimate-Equipment\">Ultimate Equipment pg. 57</a>, <a href=\"http://paizo.com/pathfinderRPG/v5748btpy88yj\">PRPG Core Rulebook pg. 158</a><br>Price 1 sp; Weight 1/2 lb.<br>Category Adventuring Gear</p>\n<h3>Description</h3>\n<p>A piton is an iron spike with a loop or ring on the end so you can tie a rope to it.</p>"
    },
    "tags": [],
    "weight": {
      "value": 0.5
    },
    "price": 0.1,
    "equipped": false,
    "identifiedName": "Piton",
    "changes": [],
    "contextNotes": [],
    "links": {
      "children": []
    },
    "scriptCalls": [],
    "subType": "gear"
  }
}
