{
  "_id": "kkprgkchaojnwezk",
  "name": "Pulque",
  "type": "loot",
  "img": "systems/pf1/icons/items/inventory/dice.jpg",
  "sort": 0,
  "flags": {},
  "system": {
    "description": {
      "value": "<h4>Pulque</h4>\n<p><b>Price</b> 1 sp-4 sp; <b>Weight</b> 1/2 lb.-2 lbs.</p>\n<p>This nutritious milk-colored alcoholic beverage is fermented from the heart of the agave or century plant.</p>"
    },
    "tags": [],
    "equipped": false,
    "changes": [],
    "contextNotes": [],
    "links": {
      "children": []
    },
    "scriptCalls": [],
    "subType": "gear"
  }
}
