{
  "_id": "odYSsefhV1v1TXdQ",
  "name": "Sewing needle",
  "type": "loot",
  "img": "systems/pf1/icons/items/inventory/dice.jpg",
  "sort": 0,
  "flags": {},
  "system": {
    "description": {
      "value": "<p>Source <a href=\"http://paizo.com/products/btpy8tmc?Pathfinder-Roleplaying-Game-Ultimate-Equipment\">Ultimate Equipment pg. 57</a>, <a href=\"http://paizo.com/pathfinderRPG/v5748btpy88yj\">PRPG Core Rulebook pg. 158</a><br>Price 5 sp; Weight —<br>Category Adventuring Gear</p>\n<h3>Description</h3>\n<p>This needle allows you to stitch together cloth, canvas, or thin leather.</p>"
    },
    "tags": [],
    "price": 0.5,
    "equipped": false,
    "identifiedName": "Sewing needle",
    "changes": [],
    "contextNotes": [],
    "links": {
      "children": []
    },
    "scriptCalls": [],
    "subType": "gear"
  }
}
