{
  "_id": "fyvgjvyalienghml",
  "name": "Shears",
  "type": "loot",
  "img": "systems/pf1/icons/items/inventory/dice.jpg",
  "sort": 0,
  "flags": {},
  "system": {
    "description": {
      "value": "<p>Small- <b>Weight</b> 1/2 lb. <b>Price</b> 5 sp; Lopping- <b>Weight</b> 8 lbs. <b>Price</b> 3 gp; Adamantine- <b>Weight</b> 8 lbs. <b>Price</b> 3,003 gp</p>\n<p>Shears are used to quickly cut through items by snipping them between two sharp blades fitted with a spring to allow the jaws to open again after closing. Small shears can be used in one hand and are often used to trim hair, cut cloth, or perform other delicate cutting work. Lopping shears are 3 feet long and must be used in two hands; they are commonly used by farmers or gardeners to cut hedges and branches.</p>\n<p><em>Adamantine</em> shears are lopping shears with sharpened <em>adamantine</em> blades that can snip through nearly any material.</p>\n<p>You can use <em>adamantine</em> shears to cut through bars, chains, grates, or similar items, dealing damage to such objects as though using a <em>scimitar</em> and bypassing <em>hardness</em> less than 20.</p>\n<p>On any item the <em>adamantine</em> shears can fit around (such as a <em>chain</em> or iron bar, but not an iron door), using <em>adamantine</em> shears provides a +10 bonus on your <em>Strength</em> check to break or burst it.</p>"
    },
    "tags": [],
    "weight": {
      "value": 0.5
    },
    "price": 0.5,
    "equipped": false,
    "changes": [],
    "contextNotes": [],
    "links": {
      "children": []
    },
    "scriptCalls": [],
    "subType": "gear"
  }
}
