{
  "_id": "plpoakvampchcvld",
  "name": "Silver",
  "type": "loot",
  "img": "systems/pf1/icons/items/inventory/dice.jpg",
  "sort": 0,
  "flags": {},
  "system": {
    "description": {
      "value": "<p class=\"source\"><b>Source</b> <em>PZO9445</em></p>\n<p><b>Price</b> 1 gp; <b>Weight</b> -</p>\n<p>Silver is a lustrous precious metal used in mirrors, disinfectants, electrics, and illusion-creating magic items.</p>\n<p>Alchemical Power Component</p>\n<p><b>Doses</b> 10; <b>Spells</b> illusion school</p>\n<p>The DC of Will saves made to disbelieve a spell of the illusion school is increased by +1.</p>"
    },
    "tags": [],
    "price": 1,
    "equipped": false,
    "changes": [],
    "contextNotes": [],
    "links": {
      "children": []
    },
    "scriptCalls": [],
    "subType": "gear"
  }
}
