{
  "_id": "dpakeysfhdqijytc",
  "name": "Stationery",
  "type": "loot",
  "img": "systems/pf1/icons/items/inventory/dice.jpg",
  "sort": 0,
  "flags": {},
  "system": {
    "description": {
      "value": "<p class=\"source\"><b>Source</b> <em>PZO9410</em></p>\n<p><b>Price</b> 1 gp; <b>Weight</b> -</p>\n<p>Generally used only by the wealthy, fancy stationery is a finer-quality 9-inch-by-6-inch paper, often embossed or engraved with the owner's personal seal.</p>"
    },
    "tags": [],
    "price": 1,
    "equipped": false,
    "changes": [],
    "contextNotes": [],
    "links": {
      "children": []
    },
    "scriptCalls": [],
    "subType": "gear"
  }
}
