{
  "_id": "atfkjcipirfddasq",
  "name": "Swarmsuit",
  "type": "loot",
  "img": "systems/pf1/icons/items/inventory/dice.jpg",
  "sort": 0,
  "flags": {},
  "system": {
    "description": {
      "value": "<p class=\"source\"><b>Source</b> <em>PZO1115</em></p>\n<p>These heavy and overlapping layers of clothing, coupled with a wide hat outfitted with a dense, veil-like netting around its brim makes it all but impossible for Diminutive and Fine creatures to make physical contact with your body. Wearing a swarmsuit cuts your speed in half, but gives you <em>DR</em> 10/- against <em>swarms</em> of Fine creatures and <em>DR</em> 5/- against <em>swarms</em> of Diminutive creatures.</p>"
    },
    "tags": [],
    "weight": {
      "value": 10
    },
    "price": 20,
    "equipped": false,
    "changes": [],
    "contextNotes": [],
    "links": {
      "children": []
    },
    "scriptCalls": [],
    "subType": "gear"
  }
}
