{
  "_id": "utncinnlwzscpzbd",
  "name": "Tanglefoot Bag",
  "type": "weapon",
  "img": "icons/containers/bags/sack-simple-leahter-green.webp",
  "sort": 0,
  "flags": {},
  "system": {
    "description": {
      "value": "<p class=\"source\"><strong>Source</strong> <em>PZO1110</em></p>\n<p>A tanglefoot bag is a small sack filled with tar, resin, and other sticky substances. When you throw a tanglefoot bag at a creature (as a ranged <em>touch attack</em> with a range increment of 10 feet), the bag comes apart and goo bursts out, entangling the target and then becoming tough and resilient upon exposure to air. An <em>entangled</em> creature takes a -2 penalty on <em>attack rolls</em> and a -4 penalty to <em>Dexterity</em> and must make a DC 15 <em>Reflex</em> save or be glued to the floor, unable to move. Even on a successful save, it can move only at half speed. Huge or larger creatures are unaffected by a tanglefoot bag. A flying creature is not stuck to the floor, but it must make a DC 15 <em>Reflex</em> save or be unable to fly (assuming it uses its wings to fly) and fall to the ground. A tanglefoot bag does not function underwater.</p>\n<p>A creature that is glued to the floor (or unable to fly) can break free by making a DC 17 <em>Strength</em> check or by dealing 15 points of damage to the goo with a slashing weapon. A creature trying to scrape goo off itself, or another creature assisting, does not need to make an <em>attack roll</em>; hitting the goo is automatic, after which the creature that hit makes a damage roll to see how much of the goo was scraped off. Once free, the creature can move (including flying) at half speed. If the <em>entangled</em> creature attempts to cast a spell, it must make <em>concentration</em> check with a DC of 15 + the spell's level or be unable to cast the spell. The goo becomes brittle and fragile after 2d4 rounds, cracking apart and losing its effectiveness. An application of <em>universal solvent</em> to a stuck creature dissolves the alchemical goo immediately.</p>\n<p>Alchemical Power Component</p>\n<p class=\"source\"><strong>Source</strong> <em>PZO9410</em></p>\n<p>Tanglefoot bags can make troublesome spells even worse when used as a power component.</p>\n<ul>\n<li><em>Black Tentacles</em> (M): For each tanglefoot bag used as a power component, you may reroll the tentacles' <em>grapple</em> check against one creature of your choice.</li>\n<li><em>Slow</em> (M): For each tangelefoot bag used as a power component, you may designate one slowed creature as being affected by a tanglefoot bag.</li>\n<li><em>Web</em> (M): Increase the DC of breaking free by making a <em>combat maneuver</em> or <em>Escape Artist</em> check by 1.</li>\n</ul>"
    },
    "tags": [],
    "identifiedName": "Tanglefoot Bag",
    "changes": [],
    "actions": [
      {
        "_id": "2m3fhbqasz79dhca",
        "name": "Attack",
        "img": "icons/containers/bags/sack-simple-leahter-green.webp",
        "description": "",
        "tag": "",
        "activation": {
          "cost": 1,
          "type": "attack"
        },
        "unchainedAction": {
          "activation": {
            "cost": 1,
            "type": ""
          }
        },
        "duration": {
          "value": null,
          "units": ""
        },
        "target": {
          "value": ""
        },
        "range": {
          "value": "10",
          "units": "ft",
          "maxIncrements": 5,
          "minValue": null,
          "minUnits": ""
        },
        "uses": {
          "autoDeductChargesCost": "",
          "self": {
            "value": 0,
            "maxFormula": "",
            "per": null
          },
          "per": "single",
          "value": 0,
          "maxFormula": ""
        },
        "measureTemplate": {
          "type": "",
          "size": "",
          "overrideColor": false,
          "customColor": "",
          "overrideTexture": false,
          "customTexture": ""
        },
        "attackName": "",
        "actionType": "rwak",
        "attackBonus": "",
        "critConfirmBonus": "",
        "damage": {
          "parts": [],
          "critParts": [],
          "nonCritParts": []
        },
        "attackParts": [],
        "formulaicAttacks": {
          "count": {
            "formula": ""
          },
          "bonus": {
            "formula": ""
          },
          "label": ""
        },
        "formula": "",
        "ability": {
          "attack": "dex",
          "damage": "",
          "damageMult": 1,
          "critRange": 20,
          "critMult": 2
        },
        "save": {
          "dc": "15",
          "type": "ref",
          "description": "Reflex partial (see text)"
        },
        "effectNotes": [],
        "attackNotes": [],
        "soundEffect": "",
        "powerAttack": {
          "multiplier": "",
          "damageBonus": 2,
          "critMultiplier": 1
        },
        "naturalAttack": {
          "primaryAttack": true,
          "secondary": {
            "attackBonus": "-5",
            "damageMult": 0.5
          }
        },
        "nonlethal": false,
        "usesAmmo": false,
        "spellEffect": "",
        "spellArea": "",
        "conditionals": [],
        "enh": {
          "value": null
        }
      }
    ],
    "uses": {
      "per": "single"
    },
    "attackNotes": [],
    "effectNotes": [],
    "contextNotes": [],
    "links": {
      "children": []
    },
    "scriptCalls": [],
    "weaponGroups": {
      "value": []
    },
    "subType": "misc",
    "weaponSubtype": "other"
  }
}
