{
  "_id": "fcqogbwybinvqxht",
  "name": "Tobacco",
  "type": "loot",
  "img": "systems/pf1/icons/items/inventory/dice.jpg",
  "sort": 0,
  "flags": {},
  "system": {
    "description": {
      "value": "<p class=\"source\"><b>Source</b> <em>PZO9410</em></p>\n<p>These crushed and shredded leaves range in color from peppery red to black; users can either smoke or chew them. Tobacco users experience a certain level of calm and are more easily able to shrug off hunger pangs. Tobacco is addictive (<em>Fort</em> DC 10 to resist), and long-term users suffer <em>Constitution damage</em>.</p>"
    },
    "tags": [],
    "weight": {
      "value": 2
    },
    "price": 1,
    "equipped": false,
    "changes": [],
    "contextNotes": [],
    "links": {
      "children": []
    },
    "scriptCalls": [],
    "subType": "gear"
  }
}
