{
  "_id": "miwosghttpehpvjh",
  "name": "Torch, Everburning",
  "type": "loot",
  "img": "systems/pf1/icons/items/inventory/torch.jpg",
  "sort": 0,
  "flags": {},
  "system": {
    "description": {
      "value": "<p><b>Price</b> 110 gp; <b>Weight</b> 1 lb.</p>\n<p>This otherwise normal torch has a continual flame spell cast on it. This causes it to shed light like an ordinary torch, but it does not emit heat or deal fire damage if used as a weapon.</p>"
    },
    "tags": [],
    "weight": {
      "value": 1
    },
    "price": 110,
    "equipped": false,
    "identifiedName": "Torch, Everburning",
    "changes": [],
    "contextNotes": [],
    "links": {
      "children": []
    },
    "scriptCalls": [],
    "subType": "gear"
  }
}
