{
  "_id": "ujarpbskvmgvzsce",
  "name": "Trap, Decoy Pressure Switch",
  "type": "loot",
  "img": "systems/pf1/icons/items/inventory/dice.jpg",
  "sort": 0,
  "flags": {},
  "system": {
    "description": {
      "value": "<p><b>Price</b> 60 gp; <b>Weight</b> &#8211;</p>\n<p><b>Type</b> mechanical; <em>Perception</em> DC 12; <em>Sense Motive</em> DC 24</p>\n<p>EFFECTS</p>\n<p><b>Notice</b> <em>Perception</em> DC +6, <b>CR Modifier</b>: +2</p>"
    },
    "tags": [],
    "price": 60,
    "equipped": false,
    "changes": [],
    "contextNotes": [],
    "links": {
      "children": []
    },
    "scriptCalls": [],
    "subType": "gear"
  }
}
