{
  "_id": "gqcqnlhpfqwcclch",
  "name": "Troll Oil",
  "type": "loot",
  "img": "systems/pf1/icons/items/inventory/dice.jpg",
  "sort": 0,
  "flags": {},
  "system": {
    "description": {
      "value": "<p><b>Price</b> 50 gp; <b>Weight</b> 1 lb.</p>\n<p>This crimson liquid is viscous and tastes foul. If you drink it, for the next hour you automatically <em>stabilize</em> when reduced to negative <em>hit points</em> (unless the damage is sufficient to instantly kill you) and have a 50% chance each round to end any bleed effect on you. If you take fire or acid damage, the benefits of <em>troll</em> oil are suspended for 1 round.</p>"
    },
    "tags": [],
    "weight": {
      "value": 1
    },
    "price": 50,
    "equipped": false,
    "changes": [],
    "contextNotes": [],
    "links": {
      "children": []
    },
    "scriptCalls": [],
    "subType": "gear"
  }
}
