{
  "_id": "ircamssdnmgdzehw",
  "name": "Urea",
  "type": "loot",
  "img": "systems/pf1/icons/items/inventory/dice.jpg",
  "sort": 0,
  "flags": {},
  "system": {
    "description": {
      "value": "<p class=\"source\"><b>Source</b> <em>PZO9445</em></p>\n<p><b>Price</b> 5 sp; <b>Weight</b> -</p>\n<p>Urea is a highly versatile reagent most commonly used in salves and as a stabilizer for particularly volatile alchemical reactions.</p>\n<p>Alchemical Power Component</p>\n<p><b>Doses</b> 4 (2 gp); <b>Spells</b> cold descriptor</p>\n<p>Spells with the [cold] descriptor are cast at +1 caster level for the purpose of all effects.</p>\n<h3><a name=\"TOC-Misc.-Substances\"></a>Misc. Substances</h3>"
    },
    "tags": [],
    "price": 0.5,
    "equipped": false,
    "changes": [],
    "contextNotes": [],
    "links": {
      "children": []
    },
    "scriptCalls": [],
    "subType": "gear"
  }
}
