{
  "_id": "4zVndIJ8NMWWzl1T",
  "name": "AC Bonus (MNK)",
  "type": "feat",
  "img": "systems/pf1/icons/spells/fog-air-1.jpg",
  "sort": 0,
  "flags": {},
  "system": {
    "description": {
      "value": "<p>When unarmored and unencumbered, the monk adds his <em>Wisdom</em> bonus (if any) to his <em>AC</em> and his <em>CMD</em>. In addition, a monk gains a +1 bonus to <em>AC</em> and <em>CMD</em> at 4th level. This bonus increases by 1 for every four monk levels thereafter, up to a maximum of +5 at 20th level.</p>\n<p>These bonuses to <em>AC</em> apply even against touch attacks or when the monk is <em>flat-footed</em>. He loses these bonuses <span class=\"notImp\" title=\"Not Implemented\">when he is immobilized or <em>helpless</em></span>, when he wears any <em>armor</em>, when he carries a shield, or when he carries a medium or heavy load.</p>"
    },
    "tags": [],
    "actions": [
      {
        "_id": "jl1dycfznzrgzt7h",
        "name": "Use",
        "img": "systems/pf1/icons/spells/fog-air-1.jpg",
        "description": "",
        "tag": "",
        "activation": {
          "cost": 1,
          "type": "passive"
        },
        "unchainedAction": {
          "activation": {
            "cost": 1,
            "type": "passive"
          }
        },
        "duration": {
          "value": null,
          "units": ""
        },
        "target": {
          "value": ""
        },
        "range": {
          "value": null,
          "units": "",
          "maxIncrements": 1,
          "minValue": null,
          "minUnits": ""
        },
        "uses": {
          "autoDeductChargesCost": "",
          "self": {
            "value": 0,
            "maxFormula": "",
            "per": null
          },
          "per": "",
          "value": 0,
          "maxFormula": ""
        },
        "measureTemplate": {
          "type": "",
          "size": "0",
          "overrideColor": false,
          "customColor": "",
          "overrideTexture": false,
          "customTexture": ""
        },
        "attackName": "",
        "actionType": "",
        "attackBonus": "",
        "critConfirmBonus": "",
        "damage": {
          "parts": [],
          "critParts": [],
          "nonCritParts": []
        },
        "attackParts": [],
        "formulaicAttacks": {
          "count": {
            "formula": ""
          },
          "bonus": {
            "formula": ""
          },
          "label": null
        },
        "formula": "",
        "ability": {
          "attack": null,
          "damage": null,
          "damageMult": 1,
          "critRange": 20,
          "critMult": 2
        },
        "save": {
          "dc": 0,
          "type": "",
          "description": ""
        },
        "effectNotes": [],
        "attackNotes": [],
        "soundEffect": "",
        "powerAttack": {
          "multiplier": "",
          "damageBonus": 2,
          "critMultiplier": 1
        },
        "naturalAttack": {
          "primaryAttack": true,
          "secondary": {
            "attackBonus": "-5",
            "damageMult": 0.5
          }
        },
        "nonlethal": false,
        "usesAmmo": false,
        "spellEffect": "",
        "spellArea": "",
        "conditionals": [],
        "enh": {
          "value": null
        }
      }
    ],
    "uses": {
      "per": ""
    },
    "attackNotes": [],
    "effectNotes": [],
    "changes": [
      {
        "_id": "c1v782dm",
        "formula": "(@shield.type < 1 && @armor.type < 1 && @attributes.encumbrance.level < 1 ? 1 : 0) * (@abilities.wis.mod + floor(@classes.monk.level / 4))",
        "operator": "add",
        "subTarget": "ac",
        "modifier": "untyped",
        "priority": 0,
        "value": 0,
        "target": "ac"
      },
      {
        "_id": "3n8ckhwe",
        "formula": "(@shield.type < 1 && @armor.type < 1 && @attributes.encumbrance.level < 1 ? 1 : 0) * (@abilities.wis.mod + floor(@classes.monk.level / 4))",
        "operator": "add",
        "subTarget": "cmd",
        "modifier": "untyped",
        "priority": 0,
        "value": 0,
        "target": "misc"
      }
    ],
    "contextNotes": [],
    "links": {
      "children": [],
      "charges": []
    },
    "tag": "classFeat_acBonusMnk",
    "useCustomTag": true,
    "armorProf": {
      "value": []
    },
    "weaponProf": {
      "value": []
    },
    "languages": {
      "value": []
    },
    "scriptCalls": [],
    "subType": "classFeat",
    "associations": {
      "classes": [["Monk"]]
    },
    "abilityType": "ex"
  }
}
