{
  "_id": "t9oNPkmNHMiS2aas",
  "name": "Aerial Evasion",
  "type": "feat",
  "img": "systems/pf1/icons/spells/wind-sky-3.jpg",
  "sort": 0,
  "flags": {},
  "system": {
    "description": {
      "value": "<p><strong>Element </strong>air; <strong>Type </strong>utility (Su); <strong>Level </strong>3; <strong>Burn </strong>1<br><strong>Prerequisite </strong>enveloping winds</p>\n<p>You use wind to buffet yourself away from area attacks. Until the next time your burn is removed, you gain @Compendium[pf1.class-abilities.KQYCRLEdD4bGA5ak]{Evasion}, as the rogue class feature.</p>"
    },
    "tags": [],
    "actions": [],
    "attackNotes": [],
    "effectNotes": [],
    "changes": [],
    "contextNotes": [],
    "links": {
      "children": [],
      "charges": []
    },
    "tag": "classFeat_aerialEvasion",
    "useCustomTag": true,
    "armorProf": {
      "value": []
    },
    "weaponProf": {
      "value": []
    },
    "languages": {
      "value": []
    },
    "scriptCalls": [],
    "subType": "classFeat",
    "associations": {
      "classes": [["Kineticist"]]
    },
    "abilityType": "su"
  }
}
