{
  "_id": "iX8sKYr2K97JIl0S",
  "name": "Ancestors Spirit",
  "type": "feat",
  "img": "systems/pf1/icons/skills/violet_11.jpg",
  "sort": 0,
  "flags": {},
  "system": {
    "description": {
      "value": "<p><em>A shaman that selects the ancestors spirit has wise eyes and thick white or silver hair. Fine wrinkles line the shaman’s face, becoming more obvious when she smiles or glowers. When she calls upon one of this spirit’s abilities, her hair glows as though lit from within, rustling of its own accord.</em><p><strong>Spirit Magic Spells:</strong></p>\n<ul>\n<li>@Compendium[pf1.spells.jhyb2ana8jrk2lut]{Unseen Servant} (1st), </li>\n<li>@Compendium[pf1.spells.avofn5q2v0f0qxjy]{Spiritual Weapon} (2nd), </li>\n<li>@Compendium[pf1.spells.vqfrp8t0c1lw1jna]{Heroism} (3rd), </li>\n<li>@Compendium[pf1.spells.0lrux8tmaml5fkw6]{Spiritual Ally} (4th), </li>\n<li>@Compendium[pf1.spells.3lfx1ccxo2hdqrf3]{Telekinesis} (5th), </li>\n<li>@Compendium[pf1.spells.z0duc2v2n3ioynta]{Heroism, Greater} (6th), </li>\n<li>@Compendium[pf1.spells.btccs4sjo2nog1a0]{Ethereal Jaunt} (7th), </li>\n<li>@Compendium[pf1.spells.aqeaxoaozlv9vg35]{Vision} (8th), </li>\n<li>@Compendium[pf1.spells.lnahlmp5mih2ongh]{Astral Projection} (9th)</li>\n</ul>\n<p><strong>Spirit Animal:</strong> The shaman’s spirit animal has streaks of gray or silver hide, hair, or fur, and long facial hair that appears similar to a wispy mustache or bushy eyebrows. The spirit animal can speak and understand a number of bonus languages equal to the shaman’s Charisma bonus.</p>"
    },
    "tags": [],
    "actions": [],
    "attackNotes": [],
    "effectNotes": [],
    "changes": [],
    "contextNotes": [],
    "links": {
      "children": [],
      "charges": []
    },
    "tag": "classFeat_ancestorsSpirit",
    "useCustomTag": true,
    "armorProf": {
      "value": []
    },
    "weaponProf": {
      "value": []
    },
    "languages": {
      "value": []
    },
    "scriptCalls": [],
    "subType": "classFeat",
    "associations": {
      "classes": [["Shaman"]]
    }
  }
}
