{
  "_id": "iFq0EX4yovswIox9",
  "name": "Aura of Righteousness",
  "type": "feat",
  "img": "systems/pf1/icons/feats/spellbreaker.jpg",
  "sort": 0,
  "flags": {},
  "system": {
    "description": {
      "value": "<p>At 17th level, a paladin gains <em>DR</em> 5/evil and immunity to compulsion spells and spell-like abilities. Each ally within 10 feet of her gains a +4 morale bonus on <em>saving throws</em> against compulsion effects.</p>\n<p>This ability functions only while the paladin is conscious, not if she is <em>unconscious</em> or dead.</p>"
    },
    "tags": [],
    "actions": [],
    "attackNotes": [],
    "effectNotes": [],
    "changes": [],
    "contextNotes": [],
    "links": {
      "children": [],
      "charges": []
    },
    "tag": "classFeat_auraOfRighteousness",
    "useCustomTag": true,
    "armorProf": {
      "value": []
    },
    "weaponProf": {
      "value": []
    },
    "languages": {
      "value": []
    },
    "scriptCalls": [],
    "subType": "classFeat",
    "associations": {
      "classes": [["Paladin"]]
    },
    "abilityType": "su"
  }
}
