{
  "_id": "31CVgcirb74C3ieQ",
  "name": "Aura of Despair (APA)",
  "type": "feat",
  "img": "systems/pf1/icons/skills/affliction_03.jpg",
  "sort": 0,
  "flags": {},
  "system": {
    "description": {
      "value": "<p>At 8th level, enemies within 10 feet of an antipaladin take a –2 penalty on all <em>saving throws</em>. This penalty does not stack with the penalty from aura of cowardice.</p>\n<p>This ability functions only while the antipaladin is conscious, not if he is <em>unconscious</em> or <em>dead</em>.</p>"
    },
    "tags": [],
    "actions": [],
    "attackNotes": [],
    "effectNotes": [],
    "changes": [],
    "contextNotes": [],
    "links": {
      "children": [],
      "charges": []
    },
    "tag": "classFeat_auraOfDespairApa",
    "useCustomTag": true,
    "armorProf": {
      "value": []
    },
    "weaponProf": {
      "value": []
    },
    "languages": {
      "value": []
    },
    "scriptCalls": [],
    "subType": "classFeat",
    "associations": {
      "classes": [["Antipaladin"]]
    },
    "abilityType": "su"
  }
}
