{
  "_id": "20BVDykhKwxC2eca",
  "name": "Benefit of Wisdom",
  "type": "feat",
  "img": "systems/pf1/icons/skills/green_03.jpg",
  "sort": 0,
  "flags": {},
  "system": {
    "description": {
      "value": "<p>The shaman relies on wisdom rather than intellect to gain and retain knowledge. She can use her Wisdom modifier instead of her Intelligence modifier on all Intelligence-based skill checks.</p>"
    },
    "tags": [],
    "actions": [],
    "attackNotes": [],
    "effectNotes": [],
    "changes": [
      {
        "_id": "rwkhgozs",
        "formula": "@abilities.wis.mod - @abilities.int.mod",
        "operator": "add",
        "subTarget": "intSkills",
        "modifier": "untyped",
        "priority": 0,
        "value": 0,
        "target": "skills"
      }
    ],
    "contextNotes": [],
    "links": {
      "children": [],
      "charges": []
    },
    "tag": "classFeat_benefitOfWisdom",
    "useCustomTag": true,
    "armorProf": {
      "value": []
    },
    "weaponProf": {
      "value": []
    },
    "languages": {
      "value": []
    },
    "scriptCalls": [],
    "subType": "classFeat",
    "associations": {
      "classes": [["Shaman"]]
    },
    "abilityType": "ex"
  }
}
