{
  "_id": "V7X8HcDyjs9z36UU",
  "name": "Black Blood Immunity",
  "type": "feat",
  "img": "systems/pf1/icons/skills/red_05.jpg",
  "sort": 0,
  "flags": {},
  "system": {
    "description": {
      "value": "<p>At 20th level, you gain immunity to cold, nonlethal damage, critical hits, and sneak attacks. You have this benefit constantly, even when not bloodraging.</p>"
    },
    "tags": [],
    "actions": [],
    "attackNotes": [],
    "effectNotes": [],
    "changes": [],
    "contextNotes": [],
    "links": {
      "children": [],
      "charges": []
    },
    "tag": "classFeat_blackBloodImmunity",
    "useCustomTag": true,
    "armorProf": {
      "value": []
    },
    "weaponProf": {
      "value": []
    },
    "languages": {
      "value": []
    },
    "scriptCalls": [],
    "subType": "classFeat",
    "associations": {
      "classes": [["Bloodrager"]]
    },
    "abilityType": "su"
  }
}
