{
  "_id": "eHWF0SNuOZYjBzUF",
  "name": "Blazing Vitality",
  "type": "feat",
  "img": "systems/pf1/icons/skills/red_05.jpg",
  "sort": 0,
  "flags": {},
  "system": {
    "description": {
      "value": "<p>When tensions run high and your emotions flare, you let forth waves of restorative energy from within. At 8th level, you emit a 10-foot-radius aura of energizing fire while bloodraging. Any ally that ends their turn within this aura gains a number of temporary hit points equal to your Constitution modifier. These temporary hit points last for 1 minute.</p>"
    },
    "tags": [],
    "actions": [],
    "attackNotes": [],
    "effectNotes": [],
    "changes": [],
    "contextNotes": [],
    "links": {
      "children": [],
      "charges": []
    },
    "tag": "classFeat_blazingVitality",
    "useCustomTag": true,
    "armorProf": {
      "value": []
    },
    "weaponProf": {
      "value": []
    },
    "languages": {
      "value": []
    },
    "scriptCalls": [],
    "subType": "classFeat",
    "associations": {
      "classes": [["Bloodrager"]]
    },
    "abilityType": "su"
  }
}
