{
  "_id": "m1uPDPwBd5mm6COj",
  "name": "Bold Stare",
  "type": "feat",
  "img": "systems/pf1/icons/skills/blue_17.jpg",
  "sort": 0,
  "flags": {},
  "system": {
    "description": {
      "value": "<p>At 3rd level and every 4 levels thereafter, a mesmerist’s hypnotic stare imposes a further effect upon its target. The mesmerist chooses one option each time he gains a new bold stare improvement, and the choice can’t be changed later. The mesmerist can’t choose the same bold stare improvement more than once unless otherwise noted.</p>\n<p>All of the mesmerist’s bold stare improvements affect the target as long as it is affected by the mesmerist’s hypnotic stare.</p>"
    },
    "tags": [],
    "actions": [],
    "attackNotes": [],
    "effectNotes": [],
    "changes": [],
    "contextNotes": [],
    "links": {
      "children": [],
      "charges": []
    },
    "tag": "classFeat_boldStare",
    "useCustomTag": true,
    "armorProf": {
      "value": []
    },
    "weaponProf": {
      "value": []
    },
    "languages": {
      "value": []
    },
    "scriptCalls": [],
    "subType": "classFeat",
    "associations": {
      "classes": [["Mesmerist"]]
    },
    "abilityType": "su"
  }
}
