{
  "_id": "fJuxnPlNDncuHuT5",
  "name": "Bond Senses (UC)",
  "type": "feat",
  "img": "systems/pf1/icons/spells/evil-eye-eerie-2.jpg",
  "system": {
    "description": {
      "value": "<p>Starting at 2nd level, a summoner can, as a standard action, share the senses of his eidolon, hearing, seeing, smelling, tasting, and touching everything the eidolon does. He can use this ability a number of rounds per day equal to his summoner level. There is no range to this effect, but the eidolon and the summoner must be on the same plane. The summoner can end this effect as a free action.</p>"
    },
    "actions": [
      {
        "_id": "cwuz17urdo4zug3j",
        "name": "Use",
        "img": "systems/pf1/icons/spells/evil-eye-eerie-2.jpg",
        "activation": {
          "cost": 1,
          "type": "standard"
        },
        "unchainedAction": {
          "activation": {
            "cost": 2,
            "type": "action"
          }
        },
        "duration": {
          "value": "1",
          "units": "round"
        },
        "uses": {
          "per": "day",
          "maxFormula": "@classes.summonerUnchained.level"
        }
      }
    ],
    "uses": {
      "per": "day",
      "maxFormula": "@classes.summonerUnchained.level"
    },
    "tag": "classFeat_bondSensesUc",
    "useCustomTag": true,
    "subType": "classFeat",
    "associations": {
      "classes": [["Summoner (Unchained)"]]
    },
    "abilityType": "su"
  }
}
