{
  "_id": "J71kdKFsU6HmeW9M",
  "name": "Brachiation",
  "type": "feat",
  "img": "systems/pf1/icons/spells/vines-jade-3.jpg",
  "sort": 0,
  "flags": {},
  "system": {
    "description": {
      "value": "<p><strong>Element </strong>wood; <strong>Type </strong>utility (Su); <strong>Level </strong>3; <strong>Burn </strong>0</p>\n<p>You can gain a climb speed equal to your base speed when moving through forested terrain.</p>"
    },
    "tags": [],
    "actions": [],
    "attackNotes": [],
    "effectNotes": [],
    "changes": [],
    "contextNotes": [],
    "links": {
      "children": [],
      "charges": []
    },
    "tag": "classFeat_brachiation",
    "useCustomTag": true,
    "armorProf": {
      "value": []
    },
    "weaponProf": {
      "value": []
    },
    "languages": {
      "value": []
    },
    "scriptCalls": [],
    "subType": "classFeat",
    "associations": {
      "classes": [["Kineticist"]]
    },
    "abilityType": "su"
  }
}
