{
  "_id": "87LJb9vaesYU2vz4",
  "name": "Branch Runner (UC)",
  "type": "feat",
  "img": "systems/pf1/icons/skills/fire_07.jpg",
  "sort": 0,
  "flags": {},
  "system": {
    "description": {
      "value": "<p>A monk with this ability adds half the base speed bonus from his fast movement ability to his racial climb speed. In addition, when he uses the sudden speed ki power, he adds the base speed bonus from that ki power to his racial climb speed for 1 round.</p>\n<p>The monk must have the sudden speed ki power before selecting branch runner.</p>"
    },
    "tags": [],
    "actions": [],
    "attackNotes": [],
    "effectNotes": [],
    "changes": [],
    "contextNotes": [],
    "links": {
      "children": [],
      "charges": []
    },
    "tag": "classFeat_branchRunnerUc",
    "useCustomTag": true,
    "armorProf": {
      "value": []
    },
    "weaponProf": {
      "value": []
    },
    "languages": {
      "value": []
    },
    "scriptCalls": [],
    "subType": "classFeat",
    "associations": {
      "classes": [["Monk (Unchained)"]]
    },
    "abilityType": "ex"
  }
}
