{
  "_id": "TkebdqdVml7GHOl6",
  "name": "Burrow (UC) (3 pts)",
  "type": "feat",
  "img": "systems/pf1/icons/skills/blue_26.jpg",
  "sort": 0,
  "flags": {},
  "system": {
    "description": {
      "value": "<p><strong>Requirements: </strong>Summoner level 9th.</p>\n<p>The eidolon grows thick and gnarled claws, allowing it to move through the earth. The eidolon gains a burrow speed equal to 1/2 its base speed. It can use this speed to move through clay, dirt, earth, and sand. It does not leave a hole behind, nor is its passage marked on the surface.</p>"
    },
    "tags": [],
    "actions": [],
    "attackNotes": [],
    "effectNotes": [],
    "changes": [
      {
        "_id": "mirdwwof",
        "formula": "floor(@attributes.speed.land.base / 2)",
        "operator": "add",
        "subTarget": "burrowSpeed",
        "modifier": "base",
        "priority": 0,
        "value": 0,
        "target": "speed"
      }
    ],
    "contextNotes": [],
    "links": {
      "children": [],
      "charges": []
    },
    "tag": "classFeat_burrowUc3Pts",
    "useCustomTag": true,
    "armorProf": {
      "value": []
    },
    "weaponProf": {
      "value": []
    },
    "languages": {
      "value": []
    },
    "scriptCalls": [],
    "subType": "classFeat",
    "associations": {
      "classes": [["Eidolon (Unchained)"]]
    },
    "abilityType": "ex"
  }
}
