{
  "_id": "Of63mdlh7Lm1TKRy",
  "name": "Change Alignment, Greater",
  "type": "feat",
  "img": "systems/pf1/icons/items/potions/unique-3.jpg",
  "sort": 0,
  "flags": {},
  "system": {
    "description": {
      "value": "<p>The effects of the alchemist’s change alignment infusion become permanent and can only be reversed by a@Compendium[pf1.spells.nnj51dwfkwd15ngj]{Wish} or @Compendium[pf1.spells.suel7sgnztenv551]{Miracle}. A permanent, forced change of alignment may be devastating, and some believe it is little better than zealous slavery or mind control. Others consider a good alignment brought about by any means but purity of heart an affront to freedom. This discovery remains controversial at best.</p>\n<p>An alchemist must take the change alignment discovery and the infusion discovery before selecting this discovery.</p>"
    },
    "tags": [],
    "actions": [],
    "attackNotes": [],
    "effectNotes": [],
    "changes": [],
    "contextNotes": [],
    "links": {
      "children": [],
      "charges": []
    },
    "tag": "classFeat_changeAlignmentGreater",
    "useCustomTag": true,
    "armorProf": {
      "value": []
    },
    "weaponProf": {
      "value": []
    },
    "languages": {
      "value": []
    },
    "scriptCalls": [],
    "subType": "classFeat",
    "associations": {
      "classes": [["Alchemist"]]
    },
    "abilityType": "su"
  }
}
