{
  "_id": "mHGqr3eA8cupQ2BW",
  "name": "Competition Subdomain",
  "type": "feat",
  "img": "systems/pf1/icons/feats/improved-feint.jpg",
  "sort": 0,
  "flags": {},
  "system": {
    "description": {
      "value": "<p><strong>Replacement Domain Spells:</strong></p>\n<ul>\n<li>1st—@Compendium[pf1.spells.ns2zo6qgd9co02uf]{Jump}</li>\n<li>3rd—@Compendium[pf1.spells.2dtcvrqh1z9k05dq]{Animal Aspect, Greater}</li>\n<li>6th—@Compendium[pf1.spells.z0duc2v2n3ioynta]{Heroism, Greater}</li>\n</ul>"
    },
    "tags": [],
    "actions": [],
    "attackNotes": [],
    "effectNotes": [],
    "changes": [],
    "contextNotes": [],
    "links": {
      "children": [],
      "charges": []
    },
    "tag": "classFeat_competitionSubdomain",
    "useCustomTag": true,
    "armorProf": {
      "value": []
    },
    "weaponProf": {
      "value": []
    },
    "languages": {
      "value": []
    },
    "scriptCalls": [],
    "subType": "classFeat",
    "associations": {
      "classes": [["Cleric"]]
    }
  }
}
