{
  "_id": "gGUAjqp1wbDliZ2r",
  "name": "Conjuration Resonant School",
  "type": "feat",
  "img": "systems/pf1/icons/items/inventory/lantern.jpg",
  "sort": 0,
  "flags": {},
  "system": {
    "description": {
      "value": "<p><em>Implements used in conjuration allow the occultist to perform magic that transports or calls creatures.</em><p><strong>Implements:</strong> Bowl, brazier, compass, figurine, lantern, mirror.</p>"
    },
    "tags": [],
    "actions": [],
    "attackNotes": [],
    "effectNotes": [],
    "changes": [],
    "contextNotes": [],
    "links": {
      "children": [],
      "charges": []
    },
    "tag": "classFeat_conjurationResonantSchool",
    "useCustomTag": true,
    "armorProf": {
      "value": []
    },
    "weaponProf": {
      "value": []
    },
    "languages": {
      "value": []
    },
    "scriptCalls": [],
    "subType": "classFeat",
    "associations": {
      "classes": [["Occultist"]]
    }
  }
}
