{
  "_id": "0iu50uQrFKQrR0pj",
  "name": "Corruption Subdomain",
  "type": "feat",
  "img": "systems/pf1/icons/skills/blood_10.jpg",
  "sort": 0,
  "flags": {},
  "system": {
    "description": {
      "value": "<p><strong>Replacement Domain Spells:</strong></p>\n<ul>\n<li>2nd—@Compendium[pf1.spells.zqj5qzyl46af27v0]{Suggestion}</li>\n<li>6th—@Compendium[pf1.spells.p613n5sqbfpq22un]{Bestow Curse, Greater}</li>\n</ul>"
    },
    "tags": [],
    "actions": [],
    "attackNotes": [],
    "effectNotes": [],
    "changes": [],
    "contextNotes": [],
    "links": {
      "children": [],
      "charges": []
    },
    "tag": "classFeat_corruptionSubdomain",
    "useCustomTag": true,
    "armorProf": {
      "value": []
    },
    "weaponProf": {
      "value": []
    },
    "languages": {
      "value": []
    },
    "scriptCalls": [],
    "subType": "classFeat",
    "associations": {
      "classes": [["Cleric"]]
    }
  }
}
