{
  "_id": "zLXBKnWXbZ2YKOBo",
  "name": "Counterstrike",
  "type": "feat",
  "img": "systems/pf1/icons/feats/channel-smite.jpg",
  "sort": 0,
  "flags": {},
  "system": {
    "description": {
      "value": "<p>At 16th level, whenever an enemy within reach of the magus successfully casts a spell defensively, that enemy provokes an attack of opportunity from the magus after the spell is complete. This attack of opportunity cannot disrupt the spell.</p>"
    },
    "tags": [],
    "actions": [],
    "attackNotes": [],
    "effectNotes": [],
    "changes": [],
    "contextNotes": [],
    "links": {
      "children": [],
      "charges": []
    },
    "tag": "classFeat_counterstrike",
    "useCustomTag": true,
    "armorProf": {
      "value": []
    },
    "weaponProf": {
      "value": []
    },
    "languages": {
      "value": []
    },
    "scriptCalls": [],
    "subType": "classFeat",
    "associations": {
      "classes": [["Magus"]]
    },
    "abilityType": "ex"
  }
}
