{
  "_id": "zBr1ov9PvIEhJ8l8",
  "name": "Damage Reduction (3 pts)",
  "type": "feat",
  "img": "systems/pf1/icons/skills/blue_26.jpg",
  "sort": 0,
  "flags": {},
  "system": {
    "description": {
      "value": "<p>An eidolon's body becomes resistant to harm, granting it damage reduction. Choose one alignment: chaotic, evil, good, or lawful. The eidolon gains DR 5 that can be bypassed by weapons that possess the chosen alignment. The alignment must be opposite to one of the alignments possessed by the eidolon.</p>\n<p>At 12th level, this protection can be increased to DR 10 by spending 2 additional evolution points.</p>\n<p>The summoner must be at least 9th level before selecting this evolution.</p>"
    },
    "tags": [],
    "actions": [],
    "attackNotes": [],
    "effectNotes": [],
    "changes": [],
    "contextNotes": [],
    "links": {
      "children": [],
      "charges": []
    },
    "tag": "classFeat_damageReduction3Pts",
    "useCustomTag": true,
    "armorProf": {
      "value": []
    },
    "weaponProf": {
      "value": []
    },
    "languages": {
      "value": []
    },
    "scriptCalls": [],
    "subType": "classFeat",
    "associations": {
      "classes": [["Eidolon"]]
    },
    "abilityType": "su"
  }
}
