{
  "_id": "KWxyXS5jiKiOLgLP",
  "name": "Daunting Success",
  "type": "feat",
  "img": "systems/pf1/icons/items/inventory/banner-red.jpg",
  "sort": 0,
  "flags": {},
  "system": {
    "description": {
      "value": "<p>At 8th level, whenever the cavalier confirms a critical hit with a melee weapon, as an immediate action he can attempt an Intimidate check to demoralize all foes within 15 feet who can see him. This ability can be used only once per combat.</p>"
    },
    "tags": [],
    "actions": [],
    "attackNotes": [],
    "effectNotes": [],
    "changes": [],
    "contextNotes": [],
    "links": {
      "children": [],
      "charges": []
    },
    "tag": "classFeat_dauntingSuccess",
    "useCustomTag": true,
    "armorProf": {
      "value": []
    },
    "weaponProf": {
      "value": []
    },
    "languages": {
      "value": []
    },
    "scriptCalls": [],
    "subType": "classFeat",
    "associations": {
      "classes": [["Cavalier"]]
    }
  }
}
