{
  "_id": "oMtTQOM1zqZXBOBn",
  "name": "Deception Patron",
  "type": "feat",
  "img": "systems/pf1/icons/feats/improved-familiar.jpg",
  "sort": 0,
  "flags": {},
  "system": {
    "description": {
      "value": "<ul>\n<li>2nd — @Compendium[pf1.spells.0onqjy8gfgop1xsi]{Ventriloquism}</li>\n<li>4th — @Compendium[pf1.spells.oylikodnyku2zewu]{Invisibility}</li>\n<li>6th — @Compendium[pf1.spells.qmorw7eojkfqr00m]{Blink}</li>\n<li>8th — @Compendium[pf1.spells.n0bsyxchnigkkuqo]{Confusion}</li>\n<li>10th — @Compendium[pf1.spells.ujo3w551azr3kran]{Passwall}</li>\n<li>12th — @Compendium[pf1.spells.o9kqm42x6xkfjem3]{Programmed Image}</li>\n<li>14th — @Compendium[pf1.spells.j2y1uga5fwg8deqq]{Invisibility, Mass}</li>\n<li>16th — @Compendium[pf1.spells.34jyuvdflia4goib]{Scintillating Pattern}</li>\n<li>18th — @Compendium[pf1.spells.7mstq5c76h3e6zzx]{Time Stop}</li>\n</ul>"
    },
    "tags": [],
    "actions": [],
    "attackNotes": [],
    "effectNotes": [],
    "changes": [],
    "contextNotes": [],
    "links": {
      "children": [],
      "charges": []
    },
    "tag": "classFeat_deceptionPatron",
    "useCustomTag": true,
    "armorProf": {
      "value": []
    },
    "weaponProf": {
      "value": []
    },
    "languages": {
      "value": []
    },
    "scriptCalls": [],
    "subType": "classFeat",
    "associations": {
      "classes": [["Witch"]]
    }
  }
}
