{
  "_id": "WUnS0eM9U02924oA",
  "name": "Disabling Stunt",
  "type": "feat",
  "img": "systems/pf1/icons/items/weapons/dagger.PNG",
  "sort": 0,
  "flags": {},
  "system": {
    "description": {
      "value": "<p>A rogue with this talent can attempt a Disable Device check against a construct’s CMD as a standard action that does not provoke attacks of opportunity. If the check is successful, the rogue can ignore the construct’s damage reduction when dealing sneak attack damage for 1 minute. The normal penalties apply to this check if the rogue attempts it without using thieves’ tools. A rogue must be trained in Disable Device to select this talent.</p>"
    },
    "tags": [],
    "actions": [],
    "attackNotes": [],
    "effectNotes": [],
    "changes": [],
    "contextNotes": [],
    "links": {
      "children": [],
      "charges": []
    },
    "tag": "classFeat_disablingStunt",
    "useCustomTag": true,
    "armorProf": {
      "value": []
    },
    "weaponProf": {
      "value": []
    },
    "languages": {
      "value": []
    },
    "scriptCalls": [],
    "subType": "classFeat",
    "associations": {
      "classes": [["Rogue"]]
    },
    "abilityType": "ex"
  }
}
