{
  "_id": "fbN2Ao21KeMXUi1W",
  "name": "Dissipating Rage",
  "type": "feat",
  "img": "systems/pf1/icons/feats/deafening-critical.jpg",
  "sort": 0,
  "flags": {},
  "system": {
    "description": {
      "value": "<p>When the barbarian rages, her feverish frenzy and hot breath burn or blow fog, smoke and similar effects away from her. The barbarian and creatures adjacent to her do not gain concealment from obfuscating effects like fog or precipitation. Magical effects that require more than a strong wind to dissipate are not affected by this rage power.</p>"
    },
    "tags": [],
    "actions": [],
    "attackNotes": [],
    "effectNotes": [],
    "changes": [],
    "contextNotes": [],
    "links": {
      "children": [],
      "charges": []
    },
    "tag": "classFeat_dissipatingRage",
    "useCustomTag": true,
    "armorProf": {
      "value": []
    },
    "weaponProf": {
      "value": []
    },
    "languages": {
      "value": []
    },
    "scriptCalls": [],
    "subType": "classFeat",
    "associations": {
      "classes": [["Barbarian"], ["Skald"]]
    },
    "abilityType": "su"
  }
}
