{
  "_id": "GGIJUPfgLWU4FmNU",
  "name": "Divine Might",
  "type": "feat",
  "img": "systems/pf1/icons/skills/blue_23.jpg",
  "sort": 0,
  "flags": {},
  "system": {
    "description": {
      "value": "<p>At 4th level, an omdura can call on the powers of her god once per day to aid in her struggle against her enemies. As a <em>swift action</em>, the omdura chooses one target within sight to be the focus of her divine might. If the target is opposed to the omdura’s <em>alignment</em> on either the law/chaos or the good/evil axis, the omdura adds half her <em>Charisma</em> bonus (minimum +o) to her <em>attack rolls</em> and adds half her omdura level to damage rolls against the target of her divine might. A neutral omdura can choose any target to be the target of her divine might, but she adds only one­ third her <em>Charisma</em> bonus and omdura level.</p>\n<p>In addition, while divine might is in effect, the omdura gains a <em>deflection bonus</em> equal to half her <em>Charisma</em> modifier (one-third for a neutral omdura) to her AC against attacks made by the target of the divine might. If a non­ neutral omdura targets a creature that is not opposed to her <em>alignment</em>, the use of this ability is wasted with no effect.</p>\n<p>The divine might effect remains until the target of divine might is <em>dead</em> or the next time the omdura rests and regains her uses of this ability. At 9th level and every 5 levels thereafter, the omdura can use divine might one additional time per day to a maximum of four times per day at 19th level.</p>"
    },
    "tags": [],
    "actions": [
      {
        "_id": "3d02i2ngazk8yi4d",
        "name": "Use",
        "img": "systems/pf1/icons/skills/blue_23.jpg",
        "description": "",
        "tag": "",
        "activation": {
          "cost": 1,
          "type": "swift"
        },
        "unchainedAction": {
          "activation": {
            "cost": 1,
            "type": "action"
          }
        },
        "duration": {
          "value": null,
          "units": ""
        },
        "target": {
          "value": "one creature"
        },
        "range": {
          "value": null,
          "units": "seeText",
          "maxIncrements": 1,
          "minValue": null,
          "minUnits": ""
        },
        "uses": {
          "autoDeductChargesCost": "",
          "self": {
            "value": 0,
            "maxFormula": "",
            "per": null
          },
          "per": "day",
          "value": 0,
          "maxFormula": "1 + floor((@classes.omdura.level - 4) / 5)"
        },
        "measureTemplate": {
          "type": "",
          "size": "0",
          "overrideColor": false,
          "customColor": "",
          "overrideTexture": false,
          "customTexture": ""
        },
        "attackName": "",
        "actionType": "",
        "attackBonus": "",
        "critConfirmBonus": "",
        "damage": {
          "parts": [],
          "critParts": [],
          "nonCritParts": []
        },
        "attackParts": [],
        "formulaicAttacks": {
          "count": {
            "formula": ""
          },
          "bonus": {
            "formula": ""
          },
          "label": null
        },
        "formula": "",
        "ability": {
          "attack": null,
          "damage": null,
          "damageMult": 1,
          "critRange": 20,
          "critMult": 2
        },
        "save": {
          "dc": 0,
          "type": "",
          "description": ""
        },
        "effectNotes": [],
        "attackNotes": [],
        "soundEffect": "",
        "powerAttack": {
          "multiplier": "",
          "damageBonus": 2,
          "critMultiplier": 1
        },
        "naturalAttack": {
          "primaryAttack": true,
          "secondary": {
            "attackBonus": "-5",
            "damageMult": 0.5
          }
        },
        "nonlethal": false,
        "usesAmmo": false,
        "spellEffect": "",
        "spellArea": "",
        "conditionals": [],
        "enh": {
          "value": null
        }
      }
    ],
    "uses": {
      "per": "day",
      "maxFormula": "1 + floor((@classes.omdura.level - 4) / 5)"
    },
    "attackNotes": [],
    "effectNotes": [],
    "changes": [],
    "contextNotes": [],
    "links": {
      "children": [],
      "charges": []
    },
    "tag": "classFeat_divineMight",
    "useCustomTag": true,
    "armorProf": {
      "value": []
    },
    "weaponProf": {
      "value": []
    },
    "languages": {
      "value": []
    },
    "scriptCalls": [],
    "subType": "classFeat",
    "associations": {
      "classes": [["Omdura"]]
    },
    "abilityType": "su"
  }
}
