{
  "_id": "ldjn3XcCkF7CqmNH",
  "name": "Divine Subdomain",
  "type": "feat",
  "img": "systems/pf1/icons/skills/light_04.jpg",
  "sort": 0,
  "flags": {},
  "system": {
    "description": {
      "value": "<p><strong>Replacement Domain Spells:</strong></p>\n<ul>\n<li>2nd—@Compendium[pf1.spells.cyzbticmitktat5v]{Bless Water}</li>\n<li>5th—@Compendium[pf1.spells.sbhij6pdo24wkm48]{Cleanse}</li>\n<li>7th—@Compendium[pf1.spells.thh46ghi51lrl3cl]{Resurrection}</li>\n<li>9th—@Compendium[pf1.spells.suel7sgnztenv551]{Miracle}</li>\n</ul>"
    },
    "tags": [],
    "actions": [],
    "attackNotes": [],
    "effectNotes": [],
    "changes": [],
    "contextNotes": [],
    "links": {
      "children": [],
      "charges": []
    },
    "tag": "classFeat_divineSubdomain",
    "useCustomTag": true,
    "armorProf": {
      "value": []
    },
    "weaponProf": {
      "value": []
    },
    "languages": {
      "value": []
    },
    "scriptCalls": [],
    "subType": "classFeat",
    "associations": {
      "classes": [["Cleric"]]
    }
  }
}
