{
  "_id": "e4F2gMzv9CwjBZqv",
  "name": "Draining Infusion",
  "type": "feat",
  "img": "systems/pf1/icons/spells/runes-magenta-1.jpg",
  "sort": 0,
  "flags": {},
  "system": {
    "description": {
      "value": "<p><strong>Element </strong>universal; <strong>Type </strong>substance infusion; <strong>Level </strong>1; <strong>Burn </strong>1<br><strong>Associated Blasts </strong>any simple<br><strong>Saving Throw </strong>Fortitude partial; see text</p>\n<p>You can drain elemental energy and matter from your foes to strengthen your next attack. When you use this infusion, your kinetic blast affects only creatures with a subtype matching your kinetic blast’s element (for instance, a fire blast would damage only creatures of the fire subtype). Against such creatures, your blast targets touch AC (if it requires an attack roll) and always allows spell resistance. Because you are draining energy from the target, your blast doesn’t apply your elemental overflow bonuses or Constitution modifier. The target can attempt a Fortitude save to take 1/4 the normal amount of damage.</p>\n<p>Draining infusion ignores any damage reduction, resistances, and immunities the creature might possess. If at least one creature fails its saving throw against your draining infusion, you can reduce the total burn cost of any one blast wild talent used before the end of your next turn by 1, or by 2 if you have the supercharge ability. If you use draining infusion again before applying this reduction, you still deal the damage from that draining infusion, but the burn reductions don’t stack.</p>"
    },
    "tags": [],
    "actions": [
      {
        "_id": "o4iib9889rc1txd4",
        "name": "Use",
        "img": "systems/pf1/icons/spells/runes-magenta-1.jpg",
        "description": "",
        "tag": "",
        "activation": {
          "cost": 1,
          "type": ""
        },
        "unchainedAction": {
          "activation": {
            "cost": 1,
            "type": ""
          }
        },
        "duration": {
          "value": null,
          "units": ""
        },
        "target": {
          "value": ""
        },
        "range": {
          "value": null,
          "units": "",
          "maxIncrements": 1,
          "minValue": null,
          "minUnits": ""
        },
        "uses": {
          "autoDeductChargesCost": "",
          "self": {
            "value": 0,
            "maxFormula": "",
            "per": null
          },
          "per": null,
          "value": 0,
          "maxFormula": ""
        },
        "measureTemplate": {
          "type": "",
          "size": "",
          "overrideColor": false,
          "customColor": "",
          "overrideTexture": false,
          "customTexture": ""
        },
        "attackName": "",
        "actionType": "save",
        "attackBonus": "",
        "critConfirmBonus": "",
        "damage": {
          "parts": [],
          "critParts": [],
          "nonCritParts": []
        },
        "attackParts": [],
        "formulaicAttacks": {
          "count": {
            "formula": ""
          },
          "bonus": {
            "formula": ""
          },
          "label": null
        },
        "formula": "",
        "ability": {
          "attack": null,
          "damage": "",
          "damageMult": 1,
          "critRange": 20,
          "critMult": 2
        },
        "save": {
          "dc": "0",
          "type": "fort",
          "description": "Fortitude partial; see text"
        },
        "effectNotes": [],
        "attackNotes": [],
        "soundEffect": "",
        "powerAttack": {
          "multiplier": "",
          "damageBonus": 2,
          "critMultiplier": 1
        },
        "naturalAttack": {
          "primaryAttack": true,
          "secondary": {
            "attackBonus": "-5",
            "damageMult": 0.5
          }
        },
        "nonlethal": false,
        "usesAmmo": false,
        "spellEffect": "",
        "spellArea": "",
        "conditionals": [],
        "enh": {
          "value": null
        }
      }
    ],
    "attackNotes": [],
    "effectNotes": [],
    "changes": [],
    "contextNotes": [],
    "links": {
      "children": [],
      "charges": []
    },
    "tag": "classFeat_drainingInfusion",
    "useCustomTag": true,
    "armorProf": {
      "value": []
    },
    "weaponProf": {
      "value": []
    },
    "languages": {
      "value": []
    },
    "scriptCalls": [],
    "subType": "classFeat",
    "associations": {
      "classes": [["Kineticist"]]
    }
  }
}
