{
  "_id": "52a1zms2sSPXQsf9",
  "name": "Earth Climb",
  "type": "feat",
  "img": "systems/pf1/icons/spells/rock-sky-3.jpg",
  "sort": 0,
  "flags": {},
  "system": {
    "description": {
      "value": "<p><strong>Element </strong>earth; <strong>Type </strong>utility (Su); <strong>Level </strong>2; <strong>Burn </strong>0</p>\n<p>You use your connection to earth to meld slightly into stone and earthen surfaces, granting you a climb speed equal to your base land speed when climbing such surfaces.</p>"
    },
    "tags": [],
    "actions": [],
    "attackNotes": [],
    "effectNotes": [],
    "changes": [],
    "contextNotes": [],
    "links": {
      "children": [],
      "charges": []
    },
    "tag": "classFeat_earthClimb",
    "useCustomTag": true,
    "armorProf": {
      "value": []
    },
    "weaponProf": {
      "value": []
    },
    "languages": {
      "value": []
    },
    "scriptCalls": [],
    "subType": "classFeat",
    "associations": {
      "classes": [["Kineticist"]]
    },
    "abilityType": "su"
  }
}
