{
  "_id": "wOca6qHsrFyCliW9",
  "name": "Fast Stealth (NIN)",
  "type": "feat",
  "img": "systems/pf1/icons/items/weapons/kunai.png",
  "flags": {},
  "system": {
    "description": {
      "value": "<p>A ninja with this trick can move at full speed using the Stealth skill without penalty.</p>"
    },
    "tags": [["Ninja Trick"]],
    "actions": [],
    "uses": {
      "per": ""
    },
    "attackNotes": [],
    "effectNotes": [],
    "changes": [],
    "changeFlags": {
      "loseDexToAC": false,
      "noEncumbrance": false,
      "mediumArmorFullSpeed": false,
      "heavyArmorFullSpeed": false
    },
    "contextNotes": [
      {
        "subTarget": "skill.ste",
        "target": "skill",
        "text": "Fast stealth"
      }
    ],
    "links": {
      "children": [],
      "charges": []
    },
    "tag": "classFeat_fastStealthNin",
    "useCustomTag": true,
    "armorProf": {
      "value": [],
      "custom": ""
    },
    "weaponProf": {
      "value": [],
      "custom": ""
    },
    "languages": {
      "value": [],
      "custom": ""
    },
    "flags": {
      "boolean": {},
      "dictionary": {}
    },
    "scriptCalls": [],
    "subType": "classFeat",
    "associations": {
      "classes": [["Ninja"]]
    },
    "showInQuickbar": false,
    "abilityType": "ex",
    "crOffset": "",
    "disabled": false
  }
}
