{
  "_id": "ETBw5NcF2p8pMtIG",
  "name": "Favored Terrain (ROG)",
  "type": "feat",
  "img": "systems/pf1/icons/items/weapons/dagger.PNG",
  "sort": 0,
  "flags": {},
  "system": {
    "description": {
      "value": "<p>The rogue selects one terrain from the ranger’s favored terrain list; she gains this as a favored terrain, as the ranger class feature. If the rogue also has or later takes the hide in plain sight advanced talent (Pathfinder RPG Ultimate Combat 71), her favored terrain must match a terrain she has selected for that advanced talent. If the rogue has ranger levels, her effective ranger level is equal to her ranger level + 5 for purposes of improving the bonuses from this favored terrain and gaining new favored terrains. A rogue must be at least 5th level to select this talent.</p>"
    },
    "tags": [],
    "actions": [],
    "attackNotes": [],
    "effectNotes": [],
    "changes": [],
    "contextNotes": [],
    "links": {
      "children": [],
      "charges": []
    },
    "tag": "classFeat_favoredTerrainRog",
    "useCustomTag": true,
    "armorProf": {
      "value": []
    },
    "weaponProf": {
      "value": []
    },
    "languages": {
      "value": []
    },
    "scriptCalls": [],
    "subType": "classFeat",
    "associations": {
      "classes": [["Rogue"]]
    },
    "abilityType": "ex"
  }
}
