{
  "_id": "U2YBSx1s8cT8iDq1",
  "name": "Favored Terrain (RNG)",
  "type": "feat",
  "img": "systems/pf1/icons/skills/green_18.jpg",
  "sort": 0,
  "flags": {},
  "system": {
    "description": {
      "value": "<p>At 3rd level, a ranger may select a type of terrain from Table: Ranger Favored Terrains. The ranger gains a +2 bonus on <em>initiative</em> checks and <em>Knowledge</em> (geography), <em>Perception</em>, <em>Stealth</em>, and <em>Survival</em> <em>skill checks</em> when he is in this terrain. A ranger traveling through his <em>favored terrain</em> normally leaves no trail and cannot be tracked (though he may leave a trail if he so chooses).</p>\n<p>At 8th level and every five levels thereafter, the ranger may select an additional <em>favored terrain</em>. In addition, at each such interval, the skill bonus and <em>initiative</em> bonus in any one <em>favored terrain</em> (including the one just selected, if so desired), increases by +2.</p>\n<p>If a specific terrain falls into more than one category of <em>favored terrain</em>, the ranger’s bonuses do not stack; he simply uses whichever bonus is higher.</p>\n<hr>\n<table><caption>Table: Ranger Favored Terrains</caption>\n<thead>\n<tr>\n<th>Favored Terrains</th>\n</tr>\n</thead>\n<tbody>\n<tr>\n<td>Cold (ice, glaciers, snow, and tundra)</td>\n</tr>\n<tr>\n<td>Desert (sand and wastelands)</td>\n</tr>\n<tr>\n<td>Forest (coniferous and deciduous)</td>\n</tr>\n<tr>\n<td>Jungle</td>\n</tr>\n<tr>\n<td>Mountain (including hills)</td>\n</tr>\n<tr>\n<td>Plains</td>\n</tr>\n<tr>\n<td>Planes (pick one, other than <em>Material Plane</em>)</td>\n</tr>\n<tr>\n<td>Swamp</td>\n</tr>\n<tr>\n<td>Underground (caves and dungeons)</td>\n</tr>\n<tr>\n<td>Urban (buildings, streets, and sewers)</td>\n</tr>\n<tr>\n<td>Water (above and below the surface)</td>\n</tr>\n</tbody>\n</table>"
    },
    "tags": [],
    "actions": [
      {
        "_id": "3is7r3vodxmkr5vz",
        "name": "Use",
        "img": "systems/pf1/icons/skills/green_18.jpg",
        "description": "",
        "tag": "",
        "activation": {
          "cost": 1,
          "type": "passive"
        },
        "unchainedAction": {
          "activation": {
            "cost": 1,
            "type": "passive"
          }
        },
        "duration": {
          "value": null,
          "units": ""
        },
        "target": {
          "value": ""
        },
        "range": {
          "value": null,
          "units": "",
          "maxIncrements": 1,
          "minValue": null,
          "minUnits": ""
        },
        "uses": {
          "autoDeductChargesCost": "",
          "self": {
            "value": 0,
            "maxFormula": "",
            "per": null
          },
          "per": "",
          "value": 0,
          "maxFormula": ""
        },
        "measureTemplate": {
          "type": "",
          "size": "0",
          "overrideColor": false,
          "customColor": "",
          "overrideTexture": false,
          "customTexture": ""
        },
        "attackName": "",
        "actionType": "",
        "attackBonus": "",
        "critConfirmBonus": "",
        "damage": {
          "parts": [],
          "critParts": [],
          "nonCritParts": []
        },
        "attackParts": [],
        "formulaicAttacks": {
          "count": {
            "formula": ""
          },
          "bonus": {
            "formula": ""
          },
          "label": null
        },
        "formula": "",
        "ability": {
          "attack": null,
          "damage": null,
          "damageMult": 1,
          "critRange": 20,
          "critMult": 2
        },
        "save": {
          "dc": 0,
          "type": "",
          "description": ""
        },
        "effectNotes": [],
        "attackNotes": [],
        "soundEffect": "",
        "powerAttack": {
          "multiplier": "",
          "damageBonus": 2,
          "critMultiplier": 1
        },
        "naturalAttack": {
          "primaryAttack": true,
          "secondary": {
            "attackBonus": "-5",
            "damageMult": 0.5
          }
        },
        "nonlethal": false,
        "usesAmmo": false,
        "spellEffect": "",
        "spellArea": "",
        "conditionals": [],
        "enh": {
          "value": null
        }
      }
    ],
    "uses": {
      "per": ""
    },
    "attackNotes": [],
    "effectNotes": [],
    "changes": [],
    "contextNotes": [],
    "links": {
      "children": [],
      "charges": []
    },
    "tag": "classFeat_favoredTerrainRng",
    "useCustomTag": true,
    "armorProf": {
      "value": []
    },
    "weaponProf": {
      "value": []
    },
    "languages": {
      "value": []
    },
    "scriptCalls": [],
    "subType": "classFeat",
    "associations": {
      "classes": [["Ranger"]]
    },
    "abilityType": "ex"
  }
}
