{
  "_id": "7FkGuk8yWO23jTZo",
  "name": "Fire's Fury",
  "type": "feat",
  "img": "systems/pf1/icons/spells/fireball-red-3.jpg",
  "sort": 0,
  "flags": {},
  "system": {
    "description": {
      "value": "<p><strong>Element </strong>fire; <strong>Type </strong>utility (Su); <strong>Level </strong>1; <strong>Burn </strong>—</p>\n<p>When using fire blasts or composite blasts that include fire, add your elemental overflow bonus to the damage dealt. If the kinetic blast normally adds double your elemental overflow bonus to damage, these effects stack.</p>"
    },
    "tags": [],
    "actions": [],
    "attackNotes": [],
    "effectNotes": [],
    "changes": [],
    "contextNotes": [],
    "links": {
      "children": [],
      "charges": []
    },
    "tag": "classFeat_firesFury",
    "useCustomTag": true,
    "armorProf": {
      "value": []
    },
    "weaponProf": {
      "value": []
    },
    "languages": {
      "value": []
    },
    "scriptCalls": [],
    "subType": "classFeat",
    "associations": {
      "classes": [["Kineticist"]]
    },
    "abilityType": "su"
  }
}
