{
  "_id": "HYPYSqmiBCV2wIxv",
  "name": "Focused Blast Infusion",
  "type": "feat",
  "img": "systems/pf1/icons/spells/runes-blue-1.jpg",
  "sort": 0,
  "flags": {},
  "system": {
    "description": {
      "value": "<p><strong>Element </strong>universal; <strong>Type </strong>form infusion; <strong>Level </strong>2; <strong>Burn </strong>2<br><strong>Associated Blasts </strong>any<br><strong>Saving Throw </strong>none</p>\n<p>You focus your blast in a concentrated attack. You gain a +1 enhancement bonus on your attack roll with the blast and your caster level check to overcome spell resistance. You can increase the burn cost of this infusion by 2 to increase the enhancement bonus by 1, to a maximum of +5 for 10 burn. You can reduce your blast’s total damage by half to reduce the burn cost of this infusion by half as well.</p>"
    },
    "tags": [],
    "actions": [],
    "attackNotes": [],
    "effectNotes": [],
    "changes": [],
    "contextNotes": [],
    "links": {
      "children": [],
      "charges": []
    },
    "tag": "classFeat_focusedBlastInfusion",
    "useCustomTag": true,
    "armorProf": {
      "value": []
    },
    "weaponProf": {
      "value": []
    },
    "languages": {
      "value": []
    },
    "scriptCalls": [],
    "subType": "classFeat",
    "associations": {
      "classes": [["Kineticist"]]
    }
  }
}
