{
  "_id": "iBeDQtCPXycfpiqV",
  "name": "Foil Scrutiny",
  "type": "feat",
  "img": "systems/pf1/icons/items/weapons/rhoka.PNG",
  "sort": 0,
  "flags": {},
  "system": {
    "description": {
      "value": "<p>A slayer with this talent is able to obscure his thoughts and intentions. He gains a +2 bonus on all Bluff and Disguise checks, as well as on Will saving throws to resist mind-reading spells and effects (such as detect thoughts and discern lies).</p>"
    },
    "tags": [],
    "actions": [],
    "attackNotes": [],
    "effectNotes": [],
    "changes": [
      {
        "_id": "rqb8uxvs",
        "formula": "2",
        "operator": "add",
        "subTarget": "skill.blf",
        "modifier": "untyped",
        "priority": 0,
        "value": 0,
        "target": "skill"
      },
      {
        "_id": "c4s34q3f",
        "formula": "2",
        "operator": "add",
        "subTarget": "skill.dis",
        "modifier": "untyped",
        "priority": 0,
        "value": 0,
        "target": "skill"
      }
    ],
    "contextNotes": [],
    "links": {
      "children": [],
      "charges": []
    },
    "tag": "classFeat_foilScrutiny",
    "useCustomTag": true,
    "armorProf": {
      "value": []
    },
    "weaponProf": {
      "value": []
    },
    "languages": {
      "value": []
    },
    "scriptCalls": [],
    "subType": "classFeat",
    "associations": {
      "classes": [["Slayer"]]
    },
    "abilityType": "ex"
  }
}
