{
  "_id": "8h4nWQiuahAea2AG",
  "name": "Force Hook Infusion",
  "type": "feat",
  "img": "systems/pf1/icons/spells/link-blue-2.jpg",
  "sort": 0,
  "flags": {},
  "system": {
    "description": {
      "value": "<p><strong>Element </strong>aether; <strong>Type </strong>form infusion; <strong>Level </strong>3; <strong>Burn </strong>2<br><strong>Associated Blasts </strong>force<br><strong>Saving Throw </strong>none</p>\n<p>Your force blast hooks onto its target and drags you adjacent to it. This effect functions as @Compendium[pf1.spells.2ew7fowmibtk5jbi]{Force Hook Charge}, except with the range and damage of your force blast.</p>"
    },
    "tags": [],
    "actions": [],
    "attackNotes": [],
    "effectNotes": [],
    "changes": [],
    "contextNotes": [],
    "links": {
      "children": [],
      "charges": []
    },
    "tag": "classFeat_forceHookInfusion",
    "useCustomTag": true,
    "armorProf": {
      "value": []
    },
    "weaponProf": {
      "value": []
    },
    "languages": {
      "value": []
    },
    "scriptCalls": [],
    "subType": "classFeat",
    "associations": {
      "classes": [["Kineticist"]]
    }
  }
}
