{
  "_id": "ATsERP3UJdSOvi14",
  "name": "Glib Lie",
  "type": "feat",
  "img": "systems/pf1/icons/skills/shadow_20.jpg",
  "sort": 0,
  "flags": {},
  "system": {
    "description": {
      "value": "<p>At 11th level, a mesmerist can deceive truthdetecting magic. A creature using this sort of magic against the mesmerist must succeed at a caster level check against a DC of 15 + the mesmerist’s class level to succeed (as if the mesmerist were under the effect of a glibness spell); failure means the magic doesn’t detect the mesmerist’s lies or force him to speak only the truth. This ability does not give the mesmerist the glibness spell’s bonus on Bluff checks.</p>"
    },
    "tags": [],
    "actions": [],
    "attackNotes": [],
    "effectNotes": [],
    "changes": [],
    "contextNotes": [],
    "links": {
      "children": [],
      "charges": []
    },
    "tag": "classFeat_glibLie",
    "useCustomTag": true,
    "armorProf": {
      "value": []
    },
    "weaponProf": {
      "value": []
    },
    "languages": {
      "value": []
    },
    "scriptCalls": [],
    "subType": "classFeat",
    "associations": {
      "classes": [["Mesmerist"]]
    },
    "abilityType": "su"
  }
}
