{
  "_id": "vcGT0hBqKwvkXEbi",
  "name": "God-Meddled Curse",
  "type": "feat",
  "img": "systems/pf1/icons/spells/horror-eerie-1.jpg",
  "sort": 0,
  "flags": {},
  "system": {
    "description": {
      "value": "<p>The isle of Iblydos is populated and watched over by hero-gods, some of whom are known for entangling mortals in their own affairs. The gods’ interference in your life has left you with strange, unpredictable powers dependent on divine whim. Bizarre side effects occur whenever you are affected by a spell from a divine caster—for better or for worse. Once per round, when a creature casts a divine spell including you as a target, roll 1d20 and consult the table below. The effect resulting from this roll begins at the end of that enemy’s turn. This effect targets only you, even if other creatures were included as targets of the triggering spell.</p>\n<p>At 5th level, you gain a +2 competence bonus on saving throws to resist divine spells.</p>\n<p>At 10th level, you become immune to the confused condition.</p>\n<p>At 15th level, you gain a +4 competence bonus on saving throws to resist mind-affecting effects.\n<h2>God-Meddled Effects</h2>\n<table>\n<tbody>\n<tr>\n<td>d20</td>\n<td>Effect</td>\n</tr>\n<tr>\n<td>1</td>\n<td>You provoke an attack of opportunity from one enemy adjacent to you. If no enemy is adjacent, the closest enemy can move its full movement speed in your direction as a free action. If multiple enemies qualify, the GM determines which creature attacks or moves. This movement does not trigger attacks of opportunity.</td>\n</tr>\n<tr>\n<td>2-3</td>\n<td>Your movement speed is halved for 1 round.</td>\n</tr>\n<tr>\n<td>4-5</td>\n<td>You are deafened for 1 round.</td>\n</tr>\n<tr>\n<td>6-7</td>\n<td>You are knocked prone.</td>\n</tr>\n<tr>\n<td>8-10</td>\n<td>You shrink by one size category for 1 round, as @Compendium[pf1.spells.2y9e1l6zso9tdg0a]{Reduce Person}.</td>\n</tr>\n<tr>\n<td>11-13</td>\n<td>You grow by one size category for 1 round, as @Compendium[pf1.spells.jnlr9cuepka1l26e]{Enlarge Person}.</td>\n</tr>\n<tr>\n<td>14-15</td>\n<td>Your caster level is treated as 1 higher for the purpose of spell durations for 1 round.</td>\n</tr>\n<tr>\n<td>16-17</td>\n<td>Creatures in squares adjacent to you are pushed 10 feet away from the space you occupy.</td>\n</tr>\n<tr>\n<td>18-19</td>\n<td>You are able to understand all languages for 1 round.</td>\n</tr>\n<tr>\n<td>20</td>\n<td>You gain the benefits of @Compendium[pf1.spells.s9amdo5398alb5p0]{Haste} for 1 round.</td>\n</tr>\n</tbody>\n</table>"
    },
    "tags": [],
    "actions": [],
    "attackNotes": [],
    "effectNotes": [],
    "changes": [],
    "contextNotes": [],
    "links": {
      "children": [],
      "charges": []
    },
    "tag": "classFeat_godmeddledCurse",
    "useCustomTag": true,
    "armorProf": {
      "value": []
    },
    "weaponProf": {
      "value": []
    },
    "languages": {
      "value": []
    },
    "scriptCalls": [],
    "subType": "classFeat",
    "associations": {
      "classes": [["Oracle"]]
    }
  }
}
