{
  "_id": "q8TzVsWTFXbCUlLp",
  "name": "Godclaw Mystery",
  "type": "feat",
  "img": "systems/pf1/icons/spells/light-magenta-2.jpg",
  "sort": 0,
  "flags": {},
  "system": {
    "description": {
      "value": "<p><strong>Class Skills:</strong> An oracle with the Godclaw mystery adds Bluff, Intimidate, Knowledge (local), and Perception to her list of class skills.<p><strong>Bonus Spells:</strong></p>\n<ul>\n<li>@Compendium[pf1.spells.9tww9fc9049h6iqc]{Cause Fear} (2nd), </li>\n<li>@Compendium[pf1.spells.y69de8y5ddrhuue5]{Daze Monster} (4th), </li>\n<li>@Compendium[pf1.spells.78kwl5t99j9e8tzh]{Hold Person} (6th), </li>\n<li>@Compendium[pf1.spells.8zeulunjetwrdgwj]{Order's Wrath} (8th), </li>\n<li>@Compendium[pf1.spells.myg2b9ww43nnlbr2]{Break Enchantment} (10th), </li>\n<li>@Compendium[pf1.spells.aoov6nqfm195txdb]{Forceful Hand} (12th), </li>\n<li>@Compendium[pf1.spells.7e22urxux6i2mua5]{Dictum} (14th), </li>\n<li>@Compendium[pf1.spells.lzj5umxjvogvpg6b]{Shield of Law} (16th),</li>\n<li>@Compendium[pf1.spells.esia6azb5g68tfs7]{Imprisonment} (18th).</li>\n</ul>"
    },
    "tags": [],
    "actions": [],
    "attackNotes": [],
    "effectNotes": [],
    "changes": [],
    "contextNotes": [],
    "links": {
      "children": [],
      "charges": []
    },
    "tag": "classFeat_godclawMystery",
    "useCustomTag": true,
    "armorProf": {
      "value": []
    },
    "weaponProf": {
      "value": []
    },
    "languages": {
      "value": []
    },
    "scriptCalls": [],
    "subType": "classFeat",
    "associations": {
      "classes": [["Oracle"]]
    }
  }
}
