{
  "_id": "8dr9E7AG9E6gJnNi",
  "name": "Greater Fire Steed",
  "type": "feat",
  "img": "systems/pf1/icons/spells/fireball-red-3.jpg",
  "sort": 0,
  "flags": {},
  "system": {
    "description": {
      "value": "<p><strong>Element </strong>fire; <strong>Type </strong>utility (Sp); <strong>Level </strong>8; <strong>Burn </strong>0<br><strong>Prerequisite </strong><a href=\"https://aonprd.com/KineticistTalentsDisplay.aspx?ItemName=Fire%20Steed\">fire steed</a>, <a href=\"https://aonprd.com/KineticistTalentsDisplay.aspx?ItemName=Improved%20Fire%20Steed\">improved fire steed</a></p>\n<p>When using <a href=\"https://aonprd.com/KineticistTalentsDisplay.aspx?ItemName=Fire%20Steed\">fire steed</a>, the mount gains immunity to fire and its speed increases by an additional 10 feet. In addition, when the mount takes a run action, it can run up steep slopes at its normal speed and down steep slopes without its rider needing to attempt a Ride check.</p>"
    },
    "tags": [],
    "actions": [],
    "attackNotes": [],
    "effectNotes": [],
    "changes": [],
    "contextNotes": [],
    "links": {
      "children": [],
      "charges": []
    },
    "tag": "classFeat_greaterFireSteed",
    "useCustomTag": true,
    "armorProf": {
      "value": []
    },
    "weaponProf": {
      "value": []
    },
    "languages": {
      "value": []
    },
    "scriptCalls": [],
    "subType": "classFeat",
    "associations": {
      "classes": [["Kineticist"]]
    },
    "abilityType": "sp"
  }
}
