{
  "_id": "PgM9OTpmavqN4JKm",
  "name": "Guarded Hearth",
  "type": "feat",
  "img": "systems/pf1/icons/skills/green_32.jpg",
  "sort": 0,
  "flags": {},
  "system": {
    "description": {
      "value": "<p>At 8th level, you can create a ward that protects a specified area. Creating this ward takes 10 minutes of uninterrupted work. This ward has a maximum radius of 5 feet per 2 cleric levels you possess. When the ward is completed, you designate any number of creatures inside its area. Should any other creature enter the warded area, all of the selected creatures are immediately alerted (and awoken if they were asleep). The designated creatures also receive a sacred bonus equal to your Wisdom modifier on all saving throws and attack rolls while inside the warded area. This ward immediately ends if you leave the area. The ward lasts for 1 hour per cleric level. You can use this ability once per day.</p>\n<p>This power replaces the Unity power of the Community Subdomain.</p>"
    },
    "tags": [],
    "actions": [
      {
        "_id": "s1qirxkp3ido4h2e",
        "name": "Use",
        "img": "systems/pf1/icons/skills/green_32.jpg",
        "description": "",
        "tag": "",
        "activation": {
          "cost": 10,
          "type": "minute"
        },
        "unchainedAction": {
          "activation": {
            "cost": 10,
            "type": "minute"
          }
        },
        "duration": {
          "value": "@classes.cleric.level",
          "units": "hour"
        },
        "target": {
          "value": "area"
        },
        "range": {
          "value": null,
          "units": "seeText",
          "maxIncrements": 1,
          "minValue": null,
          "minUnits": ""
        },
        "uses": {
          "autoDeductChargesCost": "",
          "self": {
            "value": 0,
            "maxFormula": "",
            "per": null
          },
          "per": "day",
          "value": 0,
          "maxFormula": "1"
        },
        "measureTemplate": {
          "type": "",
          "size": "0",
          "overrideColor": false,
          "customColor": "",
          "overrideTexture": false,
          "customTexture": ""
        },
        "attackName": "",
        "actionType": "",
        "attackBonus": "",
        "critConfirmBonus": "",
        "damage": {
          "parts": [],
          "critParts": [],
          "nonCritParts": []
        },
        "attackParts": [],
        "formulaicAttacks": {
          "count": {
            "formula": ""
          },
          "bonus": {
            "formula": ""
          },
          "label": null
        },
        "formula": "",
        "ability": {
          "attack": null,
          "damage": null,
          "damageMult": 1,
          "critRange": 20,
          "critMult": 2
        },
        "save": {
          "dc": 0,
          "type": "",
          "description": ""
        },
        "effectNotes": [],
        "attackNotes": [],
        "soundEffect": "",
        "powerAttack": {
          "multiplier": "",
          "damageBonus": 2,
          "critMultiplier": 1
        },
        "naturalAttack": {
          "primaryAttack": true,
          "secondary": {
            "attackBonus": "-5",
            "damageMult": 0.5
          }
        },
        "nonlethal": false,
        "usesAmmo": false,
        "spellEffect": "",
        "spellArea": "",
        "conditionals": [],
        "enh": {
          "value": null
        }
      }
    ],
    "uses": {
      "per": "day",
      "maxFormula": "1"
    },
    "attackNotes": [],
    "effectNotes": [],
    "changes": [],
    "contextNotes": [],
    "links": {
      "children": [],
      "charges": []
    },
    "tag": "classFeat_guardedHearth",
    "useCustomTag": true,
    "armorProf": {
      "value": []
    },
    "weaponProf": {
      "value": []
    },
    "languages": {
      "value": []
    },
    "scriptCalls": [],
    "subType": "classFeat",
    "associations": {
      "classes": [["Cleric"]]
    },
    "abilityType": "su"
  }
}
