{
  "_id": "NjwQuqRPGH3VY5I3",
  "name": "Hard Minded",
  "type": "feat",
  "img": "systems/pf1/icons/items/weapons/butterfly-knife.PNG",
  "sort": 0,
  "flags": {},
  "system": {
    "description": {
      "value": "<p>A rogue with this talent is hard to fool with illusions. She automatically receives a save to disbelieve any illusion she can see each round at the start of her turn, even if she hasn’t interacted with it. If she fails a saving throw against an illusion that is not to disbelieve, she can attempt to save again again 1 round later at the same DC. She gets only one extra chance to succeed at her saving throw.</p>"
    },
    "tags": [],
    "actions": [],
    "attackNotes": [],
    "effectNotes": [],
    "changes": [],
    "contextNotes": [],
    "links": {
      "children": [],
      "charges": []
    },
    "tag": "classFeat_hardMinded",
    "useCustomTag": true,
    "armorProf": {
      "value": []
    },
    "weaponProf": {
      "value": []
    },
    "languages": {
      "value": []
    },
    "scriptCalls": [],
    "subType": "classFeat",
    "associations": {
      "classes": [["Rogue"]]
    },
    "abilityType": "ex"
  }
}
