{
  "_id": "n9sF6kX0vAxm52F3",
  "name": "Heart of Fire",
  "type": "feat",
  "img": "systems/pf1/icons/skills/red_05.jpg",
  "sort": 0,
  "flags": {},
  "system": {
    "description": {
      "value": "<p>At 4th level, you gain fire resistance 5. Whenever you are subjected to a magical healing effect from a cure spell, you regain 1 additional hit point per die rolled.</p>\n<p>At 8th level, your fire resistance increases to 10, and you regain 2 additional hit points per die rolled when you are healed by a cure spell.</p>"
    },
    "tags": [],
    "actions": [],
    "attackNotes": [],
    "effectNotes": [],
    "changes": [],
    "contextNotes": [],
    "links": {
      "children": [],
      "charges": []
    },
    "tag": "classFeat_heartOfFire",
    "useCustomTag": true,
    "armorProf": {
      "value": []
    },
    "weaponProf": {
      "value": []
    },
    "languages": {
      "value": []
    },
    "scriptCalls": [],
    "subType": "classFeat",
    "associations": {
      "classes": [["Bloodrager"]]
    },
    "abilityType": "su"
  }
}
