{
  "_id": "J9fakDphA4zSWPPC",
  "name": "Heavens Spirit",
  "type": "feat",
  "img": "systems/pf1/icons/skills/violet_11.jpg",
  "sort": 0,
  "flags": {},
  "system": {
    "description": {
      "value": "<p><em>A shaman who selects the heavens spirit has eyes that sparkle like starlight, exuding an aura of otherworldliness to those she is around. When she calls upon one of this spirit’s abilities, her eyes turn pitch black and the colors around her drain for a brief moment.</em><p><strong>Spirit Magic Spells: </strong></p>\n<ul>\n<li>@Compendium[pf1.spells.qcjskol4ac3eemhy]{Color Spray} (1st), </li>\n<li>@Compendium[pf1.spells.zyfm6dq35i4hip4u]{Hypnotic Pattern} (2nd), </li>\n<li>@Compendium[pf1.spells.7x2z0i8rcx7s81fk]{Daylight} (3rd), </li>\n<li>@Compendium[pf1.spells.6lebv7569xsypp8u]{Rainbow Pattern} (4th), </li>\n<li>@Compendium[pf1.spells.wqvy12w1xgk6l9b0]{Overland Flight} (5th), </li>\n<li>@Compendium[pf1.spells.6vfauefzzmwl4az7]{Chain Lightning} (6th), </li>\n<li>@Compendium[pf1.spells.mb819hvwpk0zmw53]{Prismatic Spray} (7th), </li>\n<li>@Compendium[pf1.spells.j2mwv9wfxhqch10g]{Sunburst} (8th), </li>\n<li>@Compendium[pf1.spells.xhzme0v6tjq95fg6]{Meteor Swarm} (9th)</li>\n</ul>\n<p><strong>Spirit Animal: </strong>The flesh of the shaman’s spirit animal accurately reflects the stars that would be visible in the night sky, no matter where the animal is or the time of day. Due to this, it can be used as a star map. In addition, it gains a fly speed of 5 feet; if the animal already has a fly speed, instead its fly speed increases by 10 feet. While the animal is flying, a small nimbus of light surrounds it.</p>"
    },
    "tags": [],
    "actions": [],
    "attackNotes": [],
    "effectNotes": [],
    "changes": [],
    "contextNotes": [],
    "links": {
      "children": [],
      "charges": []
    },
    "tag": "classFeat_heavensSpirit",
    "useCustomTag": true,
    "armorProf": {
      "value": []
    },
    "weaponProf": {
      "value": []
    },
    "languages": {
      "value": []
    },
    "scriptCalls": [],
    "subType": "classFeat",
    "associations": {
      "classes": [["Shaman"]]
    }
  }
}
