{
  "_id": "BwDN5DEhxdzLrPLZ",
  "name": "Honor Subdomain",
  "type": "feat",
  "img": "systems/pf1/icons/skills/blue_23.jpg",
  "sort": 0,
  "flags": {},
  "system": {
    "description": {
      "value": "<p><strong>Replacement Domain Spells:</strong></p>\n<ul>\n<li>2nd—@Compendium[pf1.spells.snspotd2cno49ed5]{Zone of Truth}</li>\n<li>6th—@Compendium[pf1.spells.pfv5zv744x9dwg38]{Geas/Quest}</li>\n</ul>"
    },
    "tags": [],
    "actions": [],
    "attackNotes": [],
    "effectNotes": [],
    "changes": [],
    "contextNotes": [],
    "links": {
      "children": [],
      "charges": []
    },
    "tag": "classFeat_honorSubdomain",
    "useCustomTag": true,
    "armorProf": {
      "value": []
    },
    "weaponProf": {
      "value": []
    },
    "languages": {
      "value": []
    },
    "scriptCalls": [],
    "subType": "classFeat",
    "associations": {
      "classes": [["Cleric"]]
    }
  }
}
