{
  "_id": "B7jKiksy3q3nVZK8",
  "name": "Iceplant",
  "type": "feat",
  "img": "systems/pf1/icons/skills/violet_02.jpg",
  "sort": 0,
  "flags": {},
  "system": {
    "description": {
      "value": "<p>This hex grants the witch and her familiar a +2 natural armor bonus and the constant effects of @Compendium[pf1.spells.pau0ejk30fs1eebl]{Endure Elements}.</p>\n<p>The effect leaves the witch’s skin thick and stiff to the touch.</p>"
    },
    "tags": [["Hex"]],
    "actions": [],
    "uses": {
      "per": ""
    },
    "attackNotes": [],
    "effectNotes": [],
    "changes": [
      {
        "_id": "g0up39eo",
        "formula": "2",
        "operator": "add",
        "subTarget": "nac",
        "modifier": "untyped",
        "priority": 0,
        "value": 0,
        "target": "ac"
      }
    ],
    "contextNotes": [],
    "links": {
      "children": [],
      "charges": []
    },
    "tag": "classFeat_iceplant",
    "useCustomTag": true,
    "armorProf": {
      "value": []
    },
    "weaponProf": {
      "value": []
    },
    "languages": {
      "value": []
    },
    "scriptCalls": [],
    "subType": "classFeat",
    "associations": {
      "classes": [["Witch"]]
    },
    "abilityType": "su"
  }
}
