{
  "_id": "WpE2w6NUNvUfzqNr",
  "name": "Immunity (UC) (2 pts)",
  "type": "feat",
  "img": "systems/pf1/icons/skills/blue_26.jpg",
  "sort": 0,
  "flags": {},
  "system": {
    "description": {
      "value": "<p><strong>Requirements: </strong>Summoner level 7th.</p>\n<p>The eidolon’s body becomes extremely resilient to one energy type. Select one energy type: acid, cold, electricity, fire, or sonic. The eidolon gains immunity to that energy type.</p>\n<p>This evolution can be selected more than once. Its effects do not stack. Each time it applies to a different energy type.</p>"
    },
    "tags": [],
    "actions": [],
    "attackNotes": [],
    "effectNotes": [],
    "changes": [],
    "contextNotes": [],
    "links": {
      "children": [],
      "charges": []
    },
    "tag": "classFeat_immunityUc2Pts",
    "useCustomTag": true,
    "armorProf": {
      "value": []
    },
    "weaponProf": {
      "value": []
    },
    "languages": {
      "value": []
    },
    "scriptCalls": [],
    "subType": "classFeat",
    "associations": {
      "classes": [["Eidolon (Unchained)"]]
    },
    "abilityType": "su"
  }
}
