{
  "_id": "0Qmt3BZBOsyCtrr9",
  "name": "Improved Evasion (Talent)",
  "type": "feat",
  "img": "systems/pf1/icons/items/weapons/butterfly-knife.PNG",
  "sort": 0,
  "flags": {},
  "system": {
    "description": {
      "value": "<p>This works like evasion, except that while the rogue still takes no damage on a successful Reflex saving throw against attacks, she henceforth takes only half damage on a failed save. A helpless rogue does not gain the benefit of improved evasion.</p>"
    },
    "tags": [],
    "actions": [],
    "attackNotes": [],
    "effectNotes": [],
    "changes": [],
    "contextNotes": [],
    "links": {
      "children": [],
      "charges": []
    },
    "tag": "classFeat_improvedEvasionTalent",
    "useCustomTag": true,
    "armorProf": {
      "value": []
    },
    "weaponProf": {
      "value": []
    },
    "languages": {
      "value": []
    },
    "scriptCalls": [],
    "subType": "classFeat",
    "associations": {
      "classes": [["Rogue"]]
    },
    "abilityType": "ex"
  }
}
