{
  "_id": "J1v8s4Ao05VehDTq",
  "name": "Industry Subdomain",
  "type": "feat",
  "img": "systems/pf1/icons/skills/affliction_16.jpg",
  "sort": 0,
  "flags": {},
  "system": {
    "description": {
      "value": "<p><strong>Replacement Domain Spells: </strong></p>\n<ul>\n<li>1st—@Compendium[pf1.spells.4k32l03rzxgyifkx]{Crafter's Fortune}</li>\n<li>7th—@Compendium[pf1.spells.kqftgm3bi2dqj92l]{Mage's Magnificent Mansion}</li>\n<li>9th—@Compendium[pf1.spells.9fd7mcoint902oyb]{Wooden Phalanx}</li>\n</ul>"
    },
    "tags": [],
    "actions": [],
    "attackNotes": [],
    "effectNotes": [],
    "changes": [],
    "contextNotes": [],
    "links": {
      "children": [],
      "charges": []
    },
    "tag": "classFeat_industrySubdomain",
    "useCustomTag": true,
    "armorProf": {
      "value": []
    },
    "weaponProf": {
      "value": []
    },
    "languages": {
      "value": []
    },
    "scriptCalls": [],
    "subType": "classFeat",
    "associations": {
      "classes": [["Cleric"]]
    }
  }
}
