{
  "_id": "xyoyofs7FzZ5GtFU",
  "name": "Infernal Blood, Lesser",
  "type": "feat",
  "img": "systems/pf1/icons/feats/deafening-critical.jpg",
  "sort": 0,
  "flags": {},
  "system": {
    "description": {
      "value": "<p>While raging, up to three times a day as a swift action, the barbarian can infuse her attacks with hellfire for 1 round. During this time, all of her melee attacks gain the <a href=\"https://aonprd.com/MagicWeaponsDisplay.aspx?ItemName=Flaming\">flaming</a> magic weapon special ability.</p>"
    },
    "tags": [],
    "actions": [],
    "attackNotes": [],
    "effectNotes": [],
    "changes": [],
    "contextNotes": [],
    "links": {
      "children": [],
      "charges": []
    },
    "tag": "classFeat_infernalBloodLesser",
    "useCustomTag": true,
    "armorProf": {
      "value": []
    },
    "weaponProf": {
      "value": []
    },
    "languages": {
      "value": []
    },
    "scriptCalls": [],
    "subType": "classFeat",
    "associations": {
      "classes": [["Barbarian"], ["Skald"]]
    },
    "abilityType": "su"
  }
}
