{
  "_id": "N8fPDTyDPQ3d5XhD",
  "name": "Inspired Intimidator",
  "type": "feat",
  "img": "systems/pf1/icons/items/weapons/sword-cane.png",
  "sort": 0,
  "flags": {},
  "system": {
    "description": {
      "value": "<p>When the investigator succeeds at an Intimidate check to demoralize an opponent, he can expend one use of inspiration to automatically increase the result of the check by 5 for the purpose of determining the duration of the demoralize effect. He can choose to spend multiple uses to inspiration in this manner to further increase the duration of the demoralize effect. He must be trained in Intimidate to take this talent.</p>\n<p>The underworld inspiration investigator talent has no effect on this talent.</p>"
    },
    "tags": [],
    "actions": [],
    "attackNotes": [],
    "effectNotes": [],
    "changes": [],
    "contextNotes": [],
    "links": {
      "children": [],
      "charges": []
    },
    "tag": "classFeat_inspiredIntimidator",
    "useCustomTag": true,
    "armorProf": {
      "value": []
    },
    "weaponProf": {
      "value": []
    },
    "languages": {
      "value": []
    },
    "scriptCalls": [],
    "subType": "classFeat",
    "associations": {
      "classes": [["Investigator"]]
    },
    "abilityType": "ex"
  }
}
