{
  "_id": "mMSHrpNiq2xRMRU9",
  "name": "Intrigue Feats",
  "type": "feat",
  "img": "systems/pf1/icons/skills/light_07.jpg",
  "sort": 0,
  "flags": {},
  "system": {
    "description": {
      "value": "<p>The vigilante gains one of the following feats as a bonus feat:</p>\n<p>Blustering Bluff, But a Scratch, Call Truce, Confabulist, Criminal Reputation, Cutting Humiliation, Esoteric Linguistics, Intoxicating Flattery, Ironclad Logic, Nerve-Racking Negotiator, Orator, Persuasive Bribery, Play to the Crowd, Quick Favor, Rhetorical Flourish, Sense Assumptions, Sense Relationships, or Street Smarts.</p>\n<p>He must meet the feat’s prerequisites.</p>\n<p>This talent can be selected multiple times; each time, the vigilante gains a new feat from the above list.</p>"
    },
    "tags": [],
    "actions": [],
    "attackNotes": [],
    "effectNotes": [],
    "changes": [],
    "contextNotes": [],
    "links": {
      "children": [],
      "charges": []
    },
    "tag": "classFeat_intrigueFeats",
    "useCustomTag": true,
    "armorProf": {
      "value": []
    },
    "weaponProf": {
      "value": []
    },
    "languages": {
      "value": []
    },
    "scriptCalls": [],
    "subType": "classFeat",
    "associations": {
      "classes": [["Vigilante"]]
    },
    "abilityType": "ex"
  }
}
