{
  "_id": "3i9ZrhNGwsm2iIjI",
  "name": "Inured to the Dead",
  "type": "feat",
  "img": "systems/pf1/icons/feats/deafening-critical.jpg",
  "sort": 0,
  "flags": {},
  "system": {
    "description": {
      "value": "<p>Once per rage, when the barbarian fails a saving throw against an effect created by an undead creature, she can reroll the saving throw. She must use the second result, even if it is worse. This does not require spending an action.</p>\n<p>A barbarian must be at least 4th level to select this rage power.</p>"
    },
    "tags": [],
    "actions": [],
    "attackNotes": [],
    "effectNotes": [],
    "changes": [],
    "contextNotes": [],
    "links": {
      "children": [],
      "charges": []
    },
    "tag": "classFeat_inuredToTheDead",
    "useCustomTag": true,
    "armorProf": {
      "value": []
    },
    "weaponProf": {
      "value": []
    },
    "languages": {
      "value": []
    },
    "scriptCalls": [],
    "subType": "classFeat",
    "associations": {
      "classes": [["Barbarian"], ["Skald"]]
    }
  }
}
