{
  "_id": "plsS6DM60YDf2NmU",
  "name": "Ki Visions (UC)",
  "type": "feat",
  "img": "systems/pf1/icons/skills/fire_07.jpg",
  "sort": 0,
  "flags": {},
  "system": {
    "description": {
      "value": "<p>A monk with this ability often sees visions of spirits or hears the voice of his departed mentor in his dreams. On any given night during which the monk dreams, he can use this ability to gain the benefits of a @Compendium[pf1.spells.pwueht12qqo0268e]{Divination}. If he does, he spends 2 ki points from the next day’s total.</p>\n<p>A monk must be at least 10th level before selecting this ki power.</p>"
    },
    "tags": [],
    "actions": [
      {
        "_id": "skwyjcf99nxjr5m5",
        "name": "Use",
        "img": "systems/pf1/icons/skills/fire_07.jpg",
        "description": "",
        "tag": "",
        "activation": {
          "cost": 1,
          "type": "special"
        },
        "unchainedAction": {
          "activation": {
            "cost": 1,
            "type": "special"
          }
        },
        "duration": {
          "value": null,
          "units": ""
        },
        "target": {
          "value": ""
        },
        "range": {
          "value": null,
          "units": "",
          "maxIncrements": 1,
          "minValue": null,
          "minUnits": ""
        },
        "uses": {
          "autoDeductChargesCost": "2",
          "self": {
            "value": 0,
            "maxFormula": "",
            "per": null
          },
          "per": "",
          "value": 0,
          "maxFormula": ""
        },
        "measureTemplate": {
          "type": "",
          "size": "",
          "overrideColor": false,
          "customColor": "",
          "overrideTexture": false,
          "customTexture": ""
        },
        "attackName": "",
        "actionType": "",
        "attackBonus": "",
        "critConfirmBonus": "",
        "damage": {
          "parts": [],
          "critParts": [],
          "nonCritParts": []
        },
        "attackParts": [],
        "formulaicAttacks": {
          "count": {
            "formula": ""
          },
          "bonus": {
            "formula": ""
          },
          "label": null
        },
        "formula": "",
        "ability": {
          "attack": null,
          "damage": null,
          "damageMult": 1,
          "critRange": 20,
          "critMult": 2
        },
        "save": {
          "dc": 0,
          "type": "",
          "description": ""
        },
        "effectNotes": [],
        "attackNotes": [],
        "soundEffect": "",
        "powerAttack": {
          "multiplier": "",
          "damageBonus": 2,
          "critMultiplier": 1
        },
        "naturalAttack": {
          "primaryAttack": true,
          "secondary": {
            "attackBonus": "-5",
            "damageMult": 0.5
          }
        },
        "nonlethal": false,
        "usesAmmo": false,
        "spellEffect": "",
        "spellArea": "",
        "conditionals": [],
        "enh": {
          "value": null
        }
      }
    ],
    "uses": {
      "per": ""
    },
    "attackNotes": [],
    "effectNotes": [],
    "changes": [],
    "contextNotes": [],
    "links": {
      "children": [],
      "charges": []
    },
    "tag": "classFeat_kiVisionsUc",
    "useCustomTag": true,
    "armorProf": {
      "value": []
    },
    "weaponProf": {
      "value": []
    },
    "languages": {
      "value": []
    },
    "scriptCalls": [],
    "subType": "classFeat",
    "associations": {
      "classes": [["Monk (Unchained)"]]
    },
    "abilityType": "su"
  }
}
