{
  "_id": "v1wjrlIpQrbGZ8Om",
  "name": "Lasting Poison (UC)",
  "type": "feat",
  "img": "systems/pf1/icons/items/weapons/hunga-munga.PNG",
  "sort": 0,
  "flags": {},
  "system": {
    "description": {
      "value": "<p>A rogue with this talent can apply poison to a weapon in such a way that it is effective for a number of successful attacks equal to her Dexterity modifier (minimum two) instead of one. This poison has a reduced effect, however, and saves made against the poison gain a +2 circumstance bonus.</p>\n<p>Applying poison in this way is a full-round action, or a standard action if the rogue has the swift poison rogue talent.</p>"
    },
    "tags": [],
    "actions": [],
    "attackNotes": [],
    "effectNotes": [],
    "changes": [],
    "contextNotes": [],
    "links": {
      "children": [],
      "charges": []
    },
    "tag": "classFeat_lastingPoisonUc",
    "useCustomTag": true,
    "armorProf": {
      "value": []
    },
    "weaponProf": {
      "value": []
    },
    "languages": {
      "value": []
    },
    "scriptCalls": [],
    "subType": "classFeat",
    "associations": {
      "classes": [["Rogue (Unchained)"]]
    },
    "abilityType": "ex"
  }
}
