{
  "_id": "u73FXt9rbOpsxtdP",
  "name": "Lingering Poison",
  "type": "feat",
  "img": "systems/pf1/icons/items/weapons/dagger.PNG",
  "sort": 0,
  "flags": {},
  "system": {
    "description": {
      "value": "<p>A rogue with this talent can have a poison remain inert until a later time. When she delivers a contact or injury poison, instead of the poison’s normal onset time, the rogue can delay the poison’s effects until up to 1 day from when it is delivered (minimum 1 round). The delayed poison can be detected as normal by spells such as detect poison and similar abilities.</p>"
    },
    "tags": [],
    "actions": [],
    "attackNotes": [],
    "effectNotes": [],
    "changes": [],
    "contextNotes": [],
    "links": {
      "children": [],
      "charges": []
    },
    "tag": "classFeat_lingeringPoison",
    "useCustomTag": true,
    "armorProf": {
      "value": []
    },
    "weaponProf": {
      "value": []
    },
    "languages": {
      "value": []
    },
    "scriptCalls": [],
    "subType": "classFeat",
    "associations": {
      "classes": [["Rogue"]]
    },
    "abilityType": "ex"
  }
}
