{
  "_id": "adqVxiuM29Q4WkML",
  "name": "Living Capacitor",
  "type": "feat",
  "img": "systems/pf1/icons/spells/wind-sky-3.jpg",
  "sort": 0,
  "flags": {},
  "system": {
    "description": {
      "value": "<p><strong>Element </strong>air; <strong>Type </strong>utility (Sp); <strong>Level </strong>2; <strong>Burn </strong>0</p>\n<p>You store electricity damage you take within your body, as if you constantly had @Compendium[pf1.spells.0g0pgsbjns61ovln]{Body Capacitance} active. Once you discharge this electricity damage via a touch attack, you must take electricity damage again before you can discharge it again.</p>"
    },
    "tags": [],
    "actions": [],
    "attackNotes": [],
    "effectNotes": [],
    "changes": [],
    "contextNotes": [],
    "links": {
      "children": [],
      "charges": []
    },
    "tag": "classFeat_livingCapacitor",
    "useCustomTag": true,
    "armorProf": {
      "value": []
    },
    "weaponProf": {
      "value": []
    },
    "languages": {
      "value": []
    },
    "scriptCalls": [],
    "subType": "classFeat",
    "associations": {
      "classes": [["Kineticist"]]
    },
    "abilityType": "sp"
  }
}
