{
  "_id": "d7YPocvSnUIA0Dvn",
  "name": "Mammoth Spirit",
  "type": "feat",
  "img": "systems/pf1/icons/skills/violet_11.jpg",
  "sort": 0,
  "flags": {},
  "system": {
    "description": {
      "value": "<p><em>A shaman who selects the mammoth spirit is abnormally tall and stocky, with thick shaggy hair. When she uses a special ability of this spirit, her muscles ripple and flex, and her stature seems even greater than before. At times, particularly when she uses her most powerful abilities, a ghostly image of a mammoth may seem to rise around her as a visible aura of ghostly power.</em><p><strong>Spirit Magic Spells: </strong></p>\n<ul>\n<li>@Compendium[pf1.spells.jnlr9cuepka1l26e]{Enlarge Person} (1st), </li>\n<li>@Compendium[pf1.spells.05i5rxwim12hwktu]{Bull's Strength} (2nd), </li>\n<li>@Compendium[pf1.spells.8u1xa5javcxc6szk]{Rage} (3rd), </li>\n<li>@Compendium[pf1.spells.knyako6zopc1chrv]{Stoneskin} (4th), </li>\n<li>@Compendium[pf1.spells.w88ddxpu89qcr5c0]{Beast Shape III} (5th), </li>\n<li>@Compendium[pf1.spells.hzkaqaa8n6ygwmub]{Tar Pool} (6th), </li>\n<li>@Compendium[pf1.spells.jjmoi5qbwkbguzbn]{Summon Nature's Ally VII} (7th), </li>\n<li>@Compendium[pf1.spells.ukacuu0cvdjkqxwu]{Frightful Aspect} (8th), </li>\n<li>@Compendium[pf1.spells.0mt9mso6wdhfafpo]{Polar Midnight} (9th).</li>\n</ul>\n<p><strong>Spirit Animal:</strong> The shaman’s spirit animal appears more primal and prehistoric than an ordinary animal of its kind. It gains a +2 inherent bonus to its Strength score. The spirit animal loses this bonus when it manifests as a megafauna companion from the true spirit ability.</p>"
    },
    "tags": [],
    "actions": [],
    "attackNotes": [],
    "effectNotes": [],
    "changes": [],
    "contextNotes": [],
    "links": {
      "children": [],
      "charges": []
    },
    "tag": "classFeat_mammothSpirit",
    "useCustomTag": true,
    "armorProf": {
      "value": []
    },
    "weaponProf": {
      "value": []
    },
    "languages": {
      "value": []
    },
    "scriptCalls": [],
    "subType": "classFeat",
    "associations": {
      "classes": [["Shaman"]]
    }
  }
}
