{
  "_id": "j4QEAgodP37MOFd6",
  "name": "Manipulator Subschool",
  "type": "feat",
  "img": "systems/pf1/icons/skills/shadow_17.jpg",
  "sort": 0,
  "flags": {},
  "system": {
    "description": {
      "value": "<p><strong>Associated School:</strong> <em>Enchantment</em>.</p>\n<p><strong>Replacement Powers:</strong> This subschool replaces the dazing touch and aura of despair powers of the <em>enchantment</em> school.</p>"
    },
    "tags": [],
    "actions": [],
    "attackNotes": [],
    "effectNotes": [],
    "changes": [],
    "contextNotes": [],
    "links": {
      "children": [],
      "charges": []
    },
    "tag": "classFeat_manipulatorSubschool",
    "useCustomTag": true,
    "armorProf": {
      "value": []
    },
    "weaponProf": {
      "value": []
    },
    "languages": {
      "value": []
    },
    "scriptCalls": [],
    "subType": "classFeat",
    "associations": {
      "classes": [["Wizard"]]
    }
  }
}
