{
  "_id": "52sdtdkBoRICEFaU",
  "name": "Memory Subdomain",
  "type": "feat",
  "img": "systems/pf1/icons/skills/light_01.jpg",
  "sort": 0,
  "flags": {},
  "system": {
    "description": {
      "value": "<p><strong>Replacement Domain Spells:</strong></p>\n<ul>\n<li>2nd — @Compendium[pf1.spells.5eg2f7nek9cjmv0n]{Memory Lapse}</li>\n<li>6th — @Compendium[pf1.spells.5ll7q13p0skbgonc]{Modify Memory}</li>\n<li>8th — @Compendium[pf1.spells.2vb5orfcy57lrfmc]{Moment of Prescience}</li>\n</ul>"
    },
    "tags": [],
    "actions": [],
    "attackNotes": [],
    "effectNotes": [],
    "changes": [],
    "contextNotes": [],
    "links": {
      "children": [],
      "charges": []
    },
    "tag": "classFeat_memorySubdomain",
    "useCustomTag": true,
    "armorProf": {
      "value": []
    },
    "weaponProf": {
      "value": []
    },
    "languages": {
      "value": []
    },
    "scriptCalls": [],
    "subType": "classFeat",
    "associations": {
      "classes": [["Cleric"]]
    }
  }
}
