{
  "_id": "zAlltOosqAw3v0d4",
  "name": "Metal Mystery",
  "type": "feat",
  "img": "systems/pf1/icons/spells/light-magenta-2.jpg",
  "sort": 0,
  "flags": {},
  "system": {
    "description": {
      "value": "<p><strong>Class Skills:</strong> An oracle with the metal mystery adds Appraise, Bluff, Disable Device, and Intimidate to her list of class skills.<p><strong>Bonus Spells:</strong></p>\n<ul>\n<li>@Compendium[pf1.spells.d0rd4z2kcln69xif]{Lead Blades} (2nd), </li>\n<li>@Compendium[pf1.spells.3b1x69kfhnsa2d54]{Heat Metal} (4th), </li>\n<li>@Compendium[pf1.spells.bbrkkjmgo5kof6gn]{Keen Edge} (6th), </li>\n<li>@Compendium[pf1.spells.vjnynvz1omleni8a]{Versatile Weapon} (8th), </li>\n<li>@Compendium[pf1.spells.b8lt1275mz4ez4d8]{Major Creation} (metal items only) (10th), </li>\n<li>@Compendium[pf1.spells.fnxgq54y02f6ri82]{Wall of Iron} (12th), </li>\n<li>@Compendium[pf1.spells.g52zx1t1giteg5h1]{Statue} (metal statue instead of iron) (14th), </li>\n<li>@Compendium[pf1.spells.oeemcnfjod9zd7my]{Repel Metal or Stone} (16th), </li>\n<li>@Compendium[pf1.spells.mkrjbrp57yfdqrx0]{Iron Body} (18th).</li>\n</ul>"
    },
    "tags": [["Metal Mystery"]],
    "actions": [],
    "attackNotes": [],
    "effectNotes": [],
    "changes": [],
    "contextNotes": [],
    "links": {
      "children": [],
      "charges": []
    },
    "tag": "classFeat_metalMystery",
    "useCustomTag": true,
    "armorProf": {
      "value": []
    },
    "weaponProf": {
      "value": []
    },
    "languages": {
      "value": []
    },
    "scriptCalls": [],
    "subType": "classFeat",
    "associations": {
      "classes": [["Oracle"]]
    }
  }
}
