{
  "_id": "L3GT44A6rAafgqTv",
  "name": "Mount (UC) (1 pt)",
  "type": "feat",
  "img": "systems/pf1/icons/skills/blue_26.jpg",
  "sort": 0,
  "flags": {},
  "system": {
    "description": {
      "value": "<p><strong>Requirements:</strong> Daemon, demon, devil, elemental, or protean subtype; quadruped or serpentine base form.</p>\n<p>The eidolon is properly skilled and formed to serve as a combat-trained mount.</p>\n<p>The eidolon must be at least one size category larger than its rider.</p>"
    },
    "tags": [],
    "actions": [],
    "attackNotes": [],
    "effectNotes": [],
    "changes": [],
    "contextNotes": [],
    "links": {
      "children": [],
      "charges": []
    },
    "tag": "classFeat_mountUc1Pt",
    "useCustomTag": true,
    "armorProf": {
      "value": []
    },
    "weaponProf": {
      "value": []
    },
    "languages": {
      "value": []
    },
    "scriptCalls": [],
    "subType": "classFeat",
    "associations": {
      "classes": [["Eidolon (Unchained)"]]
    },
    "abilityType": "ex"
  }
}
