{
  "_id": "3FkaGJVcOYKsA7Lg",
  "name": "Murder Subdomain",
  "type": "feat",
  "img": "systems/pf1/icons/skills/arrow_04.jpg",
  "sort": 0,
  "flags": {},
  "system": {
    "description": {
      "value": "<p><strong>Replacement Domain Spells:</strong></p>\n<ul>\n<li>3rd—@Compendium[pf1.spells.bbrkkjmgo5kof6gn]{Keen Edge}</li>\n<li>5th—@Compendium[pf1.spells.ggt7q1ds0fvxxjgx]{Suffocation}</li>\n<li>9th—@Compendium[pf1.spells.6yeorbvt5ysym3nh]{Suffocation, Mass}</li>\n</ul>"
    },
    "tags": [],
    "actions": [],
    "attackNotes": [],
    "effectNotes": [],
    "changes": [],
    "contextNotes": [],
    "links": {
      "children": [],
      "charges": []
    },
    "tag": "classFeat_murderSubdomain",
    "useCustomTag": true,
    "armorProf": {
      "value": []
    },
    "weaponProf": {
      "value": []
    },
    "languages": {
      "value": []
    },
    "scriptCalls": [],
    "subType": "classFeat",
    "associations": {
      "classes": [["Cleric"]]
    }
  }
}
