{
  "_id": "M2ArovqzA8q1OIdp",
  "name": "Obfuscate Story",
  "type": "feat",
  "img": "systems/pf1/icons/items/weapons/dagger.PNG",
  "sort": 0,
  "flags": {},
  "system": {
    "description": {
      "value": "<p>While another individual attempts to give an account of an event, the rogue makes an opposed Diplomacy check to deftly interject comments or statements over the course of the storytelling that cause the individual to muddle his ability to recall accurate or specific details. If the rogue succeeds, her target remains unaware that the rogue’s interjections caused the confusion. However, if she fails, the target is allowed a Sense Motive check (DC equal to the rogue’s failed Diplomacy check) to figure out that she made deliberate attempts to confuse the story.</p>"
    },
    "tags": [],
    "actions": [],
    "attackNotes": [],
    "effectNotes": [],
    "changes": [],
    "contextNotes": [],
    "links": {
      "children": [],
      "charges": []
    },
    "tag": "classFeat_obfuscateStory",
    "useCustomTag": true,
    "armorProf": {
      "value": []
    },
    "weaponProf": {
      "value": []
    },
    "languages": {
      "value": []
    },
    "scriptCalls": [],
    "subType": "classFeat",
    "associations": {
      "classes": [["Rogue"]]
    },
    "abilityType": "ex"
  }
}
