{
  "_id": "c3MSLdplxdRZrSxL",
  "name": "Order",
  "type": "feat",
  "img": "systems/pf1/icons/feats/dazzling-display.jpg",
  "sort": 0,
  "flags": {},
  "system": {
    "description": {
      "value": "<p>At 1st level, a cavalier must pledge himself to a specific order. The order grants the cavalier a number of bonuses, class skills, and special abilities. In addition, each order includes a number of edicts that the cavalier must follow. If he violates any of these edicts, he loses the benefits from his order’s challenge ability for 24 hours. The violation of an edict is subject to GM interpretation.<p>A cavalier cannot change his order without undertaking a lengthy process to dedicate himself to a new cause. When this choice is made, he immediately loses all of the benefits from his old order. He must then follow the edicts of his new order for one entire level without gaining any benefits from that order. Once accomplished, he gains all of the bonuses from his new order. Note that the names of these orders might vary depending upon the campaign setting or GM’s preference.</p>"
    },
    "tags": [],
    "actions": [],
    "attackNotes": [],
    "effectNotes": [],
    "changes": [],
    "contextNotes": [],
    "links": {
      "children": [],
      "charges": []
    },
    "tag": "classFeat_order",
    "useCustomTag": true,
    "armorProf": {
      "value": []
    },
    "weaponProf": {
      "value": []
    },
    "languages": {
      "value": []
    },
    "scriptCalls": [],
    "subType": "classFeat",
    "associations": {
      "classes": [["Cavalier"]]
    },
    "abilityType": "ex"
  }
}
