{
  "_id": "a0mZhmzG38NkiOtB",
  "name": "Overbearing Assault (UC)",
  "type": "feat",
  "img": "systems/pf1/icons/skills/yellow_08.jpg",
  "sort": 0,
  "flags": {},
  "system": {
    "description": {
      "value": "<p>The monk attacks relentlessly, backing his foe into a corner. If the attack hits, the monk can perform a free reposition combat maneuver against the target of the strike (using the base attack bonus of the attack used to hit the foe) with a –5 penalty. This reposition attempt does not provoke an attack of opportunity.</p>"
    },
    "tags": [],
    "actions": [],
    "attackNotes": [],
    "effectNotes": [],
    "changes": [],
    "contextNotes": [],
    "links": {
      "children": [],
      "charges": []
    },
    "tag": "classFeat_overbearingAssaultUc",
    "useCustomTag": true,
    "armorProf": {
      "value": []
    },
    "weaponProf": {
      "value": []
    },
    "languages": {
      "value": []
    },
    "scriptCalls": [],
    "subType": "classFeat",
    "associations": {
      "classes": [["Monk (Unchained)"]]
    },
    "abilityType": "ex"
  }
}
