{
  "_id": "kP2XNh9AgZ6WX1s5",
  "name": "Poison Touch",
  "type": "feat",
  "img": "systems/pf1/icons/items/potions/unique-3.jpg",
  "sort": 0,
  "flags": {},
  "system": {
    "description": {
      "value": "<p>The alchemist gains a poisonous touch, as if under the effects of a @Compendium[pf1.spells.vdh0yuzpjwhky6kr]{Poison} spell. He can suppress or activate this ability as a free action. The physical appearance of how the alchemist generates and delivers his poisonous touch varies from alchemist to alchemist.</p>"
    },
    "tags": [],
    "actions": [],
    "attackNotes": [],
    "effectNotes": [],
    "changes": [],
    "contextNotes": [],
    "links": {
      "children": [],
      "charges": []
    },
    "tag": "classFeat_poisonTouch",
    "useCustomTag": true,
    "armorProf": {
      "value": []
    },
    "weaponProf": {
      "value": []
    },
    "languages": {
      "value": []
    },
    "scriptCalls": [],
    "subType": "classFeat",
    "associations": {
      "classes": [["Alchemist"]]
    }
  }
}
