{
  "_id": "lBXIoSoWpLjKcO2b",
  "name": "Project Psyche",
  "type": "feat",
  "img": "systems/pf1/icons/spells/light-royal-1.jpg",
  "sort": 0,
  "flags": {},
  "system": {
    "description": {
      "value": "<p>You can project your psyche into another vessel. Once per day, you can possess another creature as if using the @Compendium[pf1.spells.8ai7fslz4zu8xe9s]{Magic Jar} spell, though this does not require a receptacle. You must be adjacent to the target creature, which receives a Will save against the effect.</p>\n<p>You must be at least 11th level to choose this revelation.</p>"
    },
    "tags": [],
    "actions": [
      {
        "_id": "74fq228pqhuxsb5n",
        "name": "Use",
        "img": "systems/pf1/icons/spells/light-royal-1.jpg",
        "description": "",
        "tag": "",
        "activation": {
          "cost": 1,
          "type": "standard"
        },
        "unchainedAction": {
          "activation": {
            "cost": 2,
            "type": "action"
          }
        },
        "duration": {
          "value": "@cl",
          "units": "hour"
        },
        "target": {
          "value": "one creature"
        },
        "range": {
          "value": "5",
          "units": "ft",
          "maxIncrements": 1,
          "minValue": null,
          "minUnits": ""
        },
        "uses": {
          "autoDeductChargesCost": "",
          "self": {
            "value": 0,
            "maxFormula": "",
            "per": null
          },
          "per": "day",
          "value": 0,
          "maxFormula": "1"
        },
        "measureTemplate": {
          "type": "",
          "size": "",
          "overrideColor": false,
          "customColor": "",
          "overrideTexture": false,
          "customTexture": ""
        },
        "attackName": "",
        "actionType": "",
        "attackBonus": "",
        "critConfirmBonus": "",
        "damage": {
          "parts": [],
          "critParts": [],
          "nonCritParts": []
        },
        "attackParts": [],
        "formulaicAttacks": {
          "count": {
            "formula": ""
          },
          "bonus": {
            "formula": ""
          },
          "label": null
        },
        "formula": "",
        "ability": {
          "attack": null,
          "damage": null,
          "damageMult": 1,
          "critRange": 20,
          "critMult": 2
        },
        "save": {
          "dc": 0,
          "type": "",
          "description": ""
        },
        "effectNotes": [],
        "attackNotes": [],
        "soundEffect": "",
        "powerAttack": {
          "multiplier": "",
          "damageBonus": 2,
          "critMultiplier": 1
        },
        "naturalAttack": {
          "primaryAttack": true,
          "secondary": {
            "attackBonus": "-5",
            "damageMult": 0.5
          }
        },
        "nonlethal": false,
        "usesAmmo": false,
        "spellEffect": "",
        "spellArea": "",
        "conditionals": [],
        "enh": {
          "value": null
        }
      }
    ],
    "uses": {
      "per": "day",
      "maxFormula": "1"
    },
    "attackNotes": [],
    "effectNotes": [],
    "changes": [],
    "contextNotes": [],
    "links": {
      "children": [],
      "charges": []
    },
    "tag": "classFeat_projectPsyche",
    "useCustomTag": true,
    "armorProf": {
      "value": []
    },
    "weaponProf": {
      "value": []
    },
    "languages": {
      "value": []
    },
    "scriptCalls": [],
    "subType": "classFeat",
    "associations": {
      "classes": [["Oracle"]]
    },
    "abilityType": "su"
  }
}
