{
  "_id": "8KOUvJlMZhE47dem",
  "name": "Psychosomatic Surge",
  "type": "feat",
  "img": "systems/pf1/icons/skills/violet_26.jpg",
  "sort": 0,
  "flags": {},
  "system": {
    "description": {
      "value": "<p>Psychic magic soothes the subject, alleviating her wounds temporarily. The mesmerist can trigger this trick when the subject takes damage. The subject gains a number of temporary hit points equal to 1d8 + 1/2 the mesmerist’s level. If the damage from the triggering attack would have reduced the subject to 0 hit points or fewer, this trick grants an additional 1d8 temporary hit points. These temporary hit points last for 1 hour or until discharged.</p>"
    },
    "tags": [],
    "actions": [],
    "attackNotes": [],
    "effectNotes": [],
    "changes": [],
    "contextNotes": [],
    "links": {
      "children": [],
      "charges": []
    },
    "tag": "classFeat_psychosomaticSurge",
    "useCustomTag": true,
    "armorProf": {
      "value": []
    },
    "weaponProf": {
      "value": []
    },
    "languages": {
      "value": []
    },
    "scriptCalls": [],
    "subType": "classFeat",
    "associations": {
      "classes": [["Mesmerist"]]
    }
  }
}
