{
  "_id": "n4SWyKVcdmZK4t7d",
  "name": "Quivering Palm",
  "type": "feat",
  "img": "systems/pf1/icons/feats/combat-casting.jpg",
  "sort": 0,
  "flags": {},
  "system": {
    "description": {
      "value": "<p>Starting at 15th level, a monk can set up vibrations within the body of another creature that can thereafter be fatal if the monk so desires. He can use this quivering palm attack once per day, and he must announce his intent before making his <em>attack roll</em>. Creatures immune to critical hits cannot be affected. Otherwise, if the monk strikes successfully and the target takes damage from the blow, the quivering palm attack succeeds. Thereafter, the monk can try to slay the victim at any later time, as long as the attempt is made within a number of days equal to his monk level. To make such an attempt, the monk merely wills the target to die (a <em>free action</em>), and unless the target makes a <em>Fortitude</em> <em>saving throw</em> (DC 10 + 1/2 the monk’s level + the monk’s <em>Wis</em> modifier), it dies. If the <em>saving throw</em> is successful, the target is no longer in danger from that particular quivering palm attack, but it may still be affected by another one at a later time. A monk can have no more than 1 quivering palm in effect at one time. If a monk uses quivering palm while another is still in effect, the previous effect is negated.</p>"
    },
    "tags": [],
    "actions": [
      {
        "_id": "dq63xu5d56ntlace",
        "name": "Use",
        "img": "systems/pf1/icons/feats/combat-casting.jpg",
        "description": "",
        "tag": "",
        "activation": {
          "cost": 1,
          "type": "attack"
        },
        "unchainedAction": {
          "activation": {
            "cost": 1,
            "type": "action"
          }
        },
        "duration": {
          "value": null,
          "units": ""
        },
        "target": {
          "value": ""
        },
        "range": {
          "value": null,
          "units": "",
          "maxIncrements": 1,
          "minValue": null,
          "minUnits": ""
        },
        "uses": {
          "autoDeductChargesCost": "",
          "self": {
            "value": 0,
            "maxFormula": "",
            "per": null
          },
          "per": "",
          "value": 0,
          "maxFormula": ""
        },
        "measureTemplate": {
          "type": "",
          "size": "0",
          "overrideColor": false,
          "customColor": "",
          "overrideTexture": false,
          "customTexture": ""
        },
        "attackName": "",
        "actionType": "",
        "attackBonus": "",
        "critConfirmBonus": "",
        "damage": {
          "parts": [],
          "critParts": [],
          "nonCritParts": []
        },
        "attackParts": [],
        "formulaicAttacks": {
          "count": {
            "formula": ""
          },
          "bonus": {
            "formula": ""
          },
          "label": null
        },
        "formula": "",
        "ability": {
          "attack": null,
          "damage": null,
          "damageMult": 1,
          "critRange": 20,
          "critMult": 2
        },
        "save": {
          "dc": 0,
          "type": "",
          "description": ""
        },
        "effectNotes": [],
        "attackNotes": [],
        "soundEffect": "",
        "powerAttack": {
          "multiplier": "",
          "damageBonus": 2,
          "critMultiplier": 1
        },
        "naturalAttack": {
          "primaryAttack": true,
          "secondary": {
            "attackBonus": "-5",
            "damageMult": 0.5
          }
        },
        "nonlethal": false,
        "usesAmmo": false,
        "spellEffect": "",
        "spellArea": "",
        "conditionals": [],
        "enh": {
          "value": null
        }
      }
    ],
    "uses": {
      "per": ""
    },
    "attackNotes": [],
    "effectNotes": [],
    "changes": [],
    "contextNotes": [],
    "links": {
      "children": [],
      "charges": []
    },
    "tag": "classFeat_quiveringPalm",
    "useCustomTag": true,
    "armorProf": {
      "value": []
    },
    "weaponProf": {
      "value": []
    },
    "languages": {
      "value": []
    },
    "scriptCalls": [],
    "subType": "classFeat",
    "associations": {
      "classes": [["Monk"]]
    },
    "abilityType": "su"
  }
}
