{
  "_id": "sPqP7QFldieWEADi",
  "name": "Raging Song",
  "type": "feat",
  "img": "systems/pf1/icons/skills/affliction_24.jpg",
  "sort": 0,
  "flags": {},
  "system": {
    "description": {
      "value": "<p>A skald is trained to use music, oration, and similar performances to inspire his allies to feats of strength and ferocity. At 1st level, a skald can use this ability for a number of rounds per day equal to 3 + his Charisma modifier. For each level thereafter, he can use raging song for 2 additional rounds per day.<p>Starting a raging song is a standard action, but it can be maintained each round as a free action. A raging song cannot be disrupted, but it ends immediately if the skald is killed, paralyzed, stunned, knocked unconscious, or otherwise prevented from taking a free action each round to maintain it. A raging song counts as the bard’s bardic performance special ability for any effect that affects bardic performances. A skald may learn bard masterpieces.<p>A raging song has audible components, but not visual components. Affected allies must be able to hear the skald for the song to have any effect. A deaf skald has a 20% chance to fail when attempting to use a raging song. If he fails this check, the attempt still counts against his daily limit. Deaf creatures are immune to raging songs.<p>If a raging song affects allies, when the skald begins a raging song and at the start of each ally’s turn in which they can hear the raging song, the skald’s allies must decide whether to accept or refuse its effects. This is not an action. Unconscious allies automatically accept the song. If accepted, the raging song’s effects last for that ally’s turn or until the song ends, whichever comes first.<p>At 7th level, a skald can start a raging song as a move action instead of a standard action.</p>\n<p>At 13th level, a skald can start a raging song as a swift action instead.</p>"
    },
    "tags": [],
    "actions": [
      {
        "_id": "k2ew0jkpm4b7x2tt",
        "name": "Use",
        "img": "systems/pf1/icons/skills/affliction_24.jpg",
        "description": "",
        "tag": "",
        "activation": {
          "cost": 1,
          "type": "move"
        },
        "unchainedAction": {
          "activation": {
            "cost": 1,
            "type": ""
          }
        },
        "duration": {
          "value": null,
          "units": ""
        },
        "target": {
          "value": ""
        },
        "range": {
          "value": null,
          "units": "",
          "maxIncrements": 1,
          "minValue": null,
          "minUnits": ""
        },
        "uses": {
          "autoDeductChargesCost": "",
          "self": {
            "value": 0,
            "maxFormula": "",
            "per": null
          },
          "per": "day",
          "value": 0,
          "maxFormula": "3 + @abilities.cha.mod + (floor(@classes.skald.level - 1) * 2)"
        },
        "measureTemplate": {
          "type": "",
          "size": "",
          "overrideColor": false,
          "customColor": "",
          "overrideTexture": false,
          "customTexture": ""
        },
        "attackName": "",
        "actionType": "",
        "attackBonus": "",
        "critConfirmBonus": "",
        "damage": {
          "parts": [],
          "critParts": [],
          "nonCritParts": []
        },
        "attackParts": [],
        "formulaicAttacks": {
          "count": {
            "formula": ""
          },
          "bonus": {
            "formula": ""
          },
          "label": null
        },
        "formula": "",
        "ability": {
          "attack": null,
          "damage": null,
          "damageMult": 1,
          "critRange": 20,
          "critMult": 2
        },
        "save": {
          "dc": 0,
          "type": "",
          "description": ""
        },
        "effectNotes": [],
        "attackNotes": [],
        "soundEffect": "",
        "powerAttack": {
          "multiplier": "",
          "damageBonus": 2,
          "critMultiplier": 1
        },
        "naturalAttack": {
          "primaryAttack": true,
          "secondary": {
            "attackBonus": "-5",
            "damageMult": 0.5
          }
        },
        "nonlethal": false,
        "usesAmmo": false,
        "spellEffect": "",
        "spellArea": "",
        "conditionals": [],
        "enh": {
          "value": null
        }
      }
    ],
    "uses": {
      "per": "day",
      "maxFormula": "3 + @abilities.cha.mod + (floor(@classes.skald.level - 1) * 2)"
    },
    "attackNotes": [],
    "effectNotes": [],
    "changes": [],
    "contextNotes": [],
    "links": {
      "children": [],
      "charges": []
    },
    "tag": "classFeat_ragingSong",
    "useCustomTag": true,
    "armorProf": {
      "value": []
    },
    "weaponProf": {
      "value": []
    },
    "languages": {
      "value": []
    },
    "scriptCalls": [],
    "subType": "classFeat",
    "associations": {
      "classes": [["Skald"]]
    },
    "abilityType": "su"
  }
}
