{
  "_id": "h0hqYiLG7hkjPCin",
  "name": "Raise Animal Companion",
  "type": "feat",
  "img": "systems/pf1/icons/spells/heal-jade-2.jpg",
  "sort": 0,
  "flags": {},
  "system": {
    "description": {
      "value": "<p>At 10th level, a hunter gains @Compendium[pf1.spells.barb21n7r3wx8cql]{Raise Animal Companion} as a spell-like ability; this is not restricted to raising only her own animal companion. Using this spell-like ability gives the hunter a permanent negative level. This negative level cannot be overcome in any way (including by restoration), but automatically ends after 24 hours.</p>\n<p>At 16th level, this functions as resurrection instead of raise dead, but otherwise operates as normal.</p>"
    },
    "tags": [],
    "actions": [],
    "attackNotes": [],
    "effectNotes": [],
    "changes": [],
    "contextNotes": [],
    "links": {
      "children": [],
      "charges": []
    },
    "tag": "classFeat_raiseAnimalCompanion",
    "useCustomTag": true,
    "armorProf": {
      "value": []
    },
    "weaponProf": {
      "value": []
    },
    "languages": {
      "value": []
    },
    "scriptCalls": [],
    "subType": "classFeat",
    "associations": {
      "classes": [["Hunter"]]
    },
    "abilityType": "sp"
  }
}
