{
  "_id": "fAPOyysPtvZ1reD0",
  "name": "Renewed Vigor (UC)",
  "type": "feat",
  "img": "systems/pf1/icons/feats/deafening-critical.jpg",
  "sort": 0,
  "flags": {},
  "system": {
    "description": {
      "value": "<p>As a standard action, the barbarian heals 1d8 points of damage + her Constitution modifier. For every 4 levels the barbarian has beyond 4th, the amount healed increases by 1d8 (to a maximum of 5d8 at 20th level).</p>\n<p>This ability can be used only once per day.</p>\n<p>The barbarian must be at least 4th level to select this rage power.</p>"
    },
    "tags": [],
    "actions": [
      {
        "_id": "6k7ovkkg20lzer42",
        "name": "Use",
        "img": "systems/pf1/icons/feats/deafening-critical.jpg",
        "description": "",
        "tag": "",
        "activation": {
          "cost": 1,
          "type": "standard"
        },
        "unchainedAction": {
          "activation": {
            "cost": 2,
            "type": "action"
          }
        },
        "duration": {
          "value": null,
          "units": "inst"
        },
        "target": {
          "value": "self"
        },
        "range": {
          "value": null,
          "units": "personal",
          "maxIncrements": 1,
          "minValue": null,
          "minUnits": ""
        },
        "uses": {
          "autoDeductChargesCost": "0",
          "self": {
            "value": 0,
            "maxFormula": "",
            "per": null
          },
          "per": "day",
          "value": 0,
          "maxFormula": "1"
        },
        "measureTemplate": {
          "type": "",
          "size": "",
          "overrideColor": false,
          "customColor": "",
          "overrideTexture": false,
          "customTexture": ""
        },
        "attackName": "",
        "actionType": "heal",
        "attackBonus": "",
        "critConfirmBonus": "",
        "damage": {
          "parts": [
            [
              "(floor(@classes.barbarianUnchained.level / 4))d8 + @abilities.con.mod",
              {
                "values": ["untyped"],
                "custom": ""
              }
            ]
          ],
          "critParts": [],
          "nonCritParts": []
        },
        "attackParts": [],
        "formulaicAttacks": {
          "count": {
            "formula": ""
          },
          "bonus": {
            "formula": ""
          },
          "label": null
        },
        "formula": "",
        "ability": {
          "attack": null,
          "damage": "",
          "damageMult": 1,
          "critRange": 20,
          "critMult": 2
        },
        "save": {
          "dc": "0",
          "type": "",
          "description": ""
        },
        "effectNotes": [],
        "attackNotes": [],
        "soundEffect": "",
        "powerAttack": {
          "multiplier": "",
          "damageBonus": 2,
          "critMultiplier": 1
        },
        "naturalAttack": {
          "primaryAttack": true,
          "secondary": {
            "attackBonus": "-5",
            "damageMult": 0.5
          }
        },
        "nonlethal": false,
        "usesAmmo": false,
        "spellEffect": "",
        "spellArea": "",
        "conditionals": [],
        "enh": {
          "value": null
        }
      }
    ],
    "uses": {
      "per": "day",
      "maxFormula": "1"
    },
    "attackNotes": [],
    "effectNotes": [],
    "changes": [],
    "contextNotes": [],
    "links": {
      "children": [],
      "charges": []
    },
    "tag": "classFeat_renewedVigorUc",
    "useCustomTag": true,
    "armorProf": {
      "value": []
    },
    "weaponProf": {
      "value": []
    },
    "languages": {
      "value": []
    },
    "scriptCalls": [],
    "subType": "classFeat",
    "associations": {
      "classes": [["Barbarian (Unchained)"]]
    },
    "abilityType": "ex"
  }
}
