{
  "_id": "Ueu37QS155T12ige",
  "name": "Renewed Vitality (UC)",
  "type": "feat",
  "img": "systems/pf1/icons/feats/deafening-critical.jpg",
  "system": {
    "description": {
      "value": "<p>The barbarian ignores the effect of 1 point of ability penalty or ability damage per 2 levels she has (maximum 10). At 6th level, the barbarian can also ignore 1 negative level per 4 levels she has. She takes the full effects of the ability penalties, ability damage, or negative levels once her rage ends.</p>"
    },
    "tags": [],
    "actions": [],
    "attackNotes": [],
    "effectNotes": [],
    "changes": [],
    "contextNotes": [],
    "links": {
      "children": [],
      "charges": []
    },
    "tag": "classFeat_renewedVitalityUc",
    "useCustomTag": true,
    "armorProf": {
      "value": []
    },
    "weaponProf": {
      "value": []
    },
    "languages": {
      "value": []
    },
    "scriptCalls": [],
    "subType": "classFeat",
    "associations": {
      "classes": [["Barbarian (Unchained)"]]
    },
    "abilityType": "ex"
  },
  "sort": 0,
  "flags": {}
}
