{
  "_id": "VOH9GsyqoiqGv7XC",
  "name": "Roots",
  "type": "feat",
  "img": "systems/pf1/icons/spells/vines-jade-3.jpg",
  "sort": 0,
  "flags": {},
  "system": {
    "description": {
      "value": "<p><strong>Element </strong>wood; <strong>Type </strong>utility (Su); <strong>Level </strong>1; <strong>Burn </strong>0</p>\n<p>Your body sinks roots into soft surfaces, making it hard to move you. This functions as the earth walk wild talent, except it works only on soft surfaces (like soil or snow) and not on stone.</p>\n<p>If you have both roots and earth walk, the bonuses stack while you’re on soft earth surfaces.</p>"
    },
    "tags": [],
    "actions": [],
    "attackNotes": [],
    "effectNotes": [],
    "changes": [],
    "contextNotes": [],
    "links": {
      "children": [],
      "charges": []
    },
    "tag": "classFeat_roots",
    "useCustomTag": true,
    "armorProf": {
      "value": []
    },
    "weaponProf": {
      "value": []
    },
    "languages": {
      "value": []
    },
    "scriptCalls": [],
    "subType": "classFeat",
    "associations": {
      "classes": [["Kineticist"]]
    },
    "abilityType": "su"
  }
}
