{
  "_id": "iYfAYVvUjvTPrM6P",
  "name": "Scry Slip",
  "type": "feat",
  "img": "systems/pf1/icons/items/weapons/dagger.PNG",
  "sort": 0,
  "flags": {},
  "system": {
    "description": {
      "value": "<p>Whenever a rogue with this talent is targeted by a scrying effect that allows a Will save, the caster of the divination must succeed at a caster level check (DC = 15 + the rogue’s class level). This talent wards the rogue and any objects she is holding or carrying. An investigator can select this talent in place of an investigator talent.</p>"
    },
    "tags": [],
    "actions": [],
    "attackNotes": [],
    "effectNotes": [],
    "changes": [],
    "contextNotes": [],
    "links": {
      "children": [],
      "charges": []
    },
    "tag": "classFeat_scrySlip",
    "useCustomTag": true,
    "armorProf": {
      "value": []
    },
    "weaponProf": {
      "value": []
    },
    "languages": {
      "value": []
    },
    "scriptCalls": [],
    "subType": "classFeat",
    "associations": {
      "classes": [["Rogue"]]
    },
    "abilityType": "su"
  }
}
