{
  "_id": "y4k9exwR774q6HXF",
  "name": "Shape Wood",
  "type": "feat",
  "img": "systems/pf1/icons/spells/vines-jade-3.jpg",
  "sort": 0,
  "flags": {},
  "system": {
    "description": {
      "value": "<p><strong>Element </strong>wood; <strong>Type </strong>utility (Sp); <strong>Level </strong>4; <strong>Burn </strong>0</p>\n<p>You reshape wood to suit your purposes, as per @Compendium[pf1.spells.10e3iwsr5jkq4q73]{Wood Shape}.</p>"
    },
    "tags": [],
    "actions": [],
    "attackNotes": [],
    "effectNotes": [],
    "changes": [],
    "contextNotes": [],
    "links": {
      "children": [],
      "charges": []
    },
    "tag": "classFeat_shapeWood",
    "useCustomTag": true,
    "armorProf": {
      "value": []
    },
    "weaponProf": {
      "value": []
    },
    "languages": {
      "value": []
    },
    "scriptCalls": [],
    "subType": "classFeat",
    "associations": {
      "classes": [["Kineticist"]]
    },
    "abilityType": "sp"
  }
}
