{
  "_id": "xSNDqJG0Bt9J6ZOY",
  "name": "Slavery Subdomain",
  "type": "feat",
  "img": "systems/pf1/icons/skills/red_06.jpg",
  "sort": 0,
  "flags": {},
  "system": {
    "description": {
      "value": "<p><strong>Replacement Domain Spells:</strong></p>\n<ul>\n<li>1st—@Compendium[pf1.spells.tjog6bufg5b08lvq]{Charm Person}</li>\n<li>5th— @Compendium[pf1.spells.q070n0zoq3zojpas]{Dominate Person}</li>\n<li>8th—@Compendium[pf1.spells.gb7pxobi1za67p7g]{Binding}</li>\n</ul>"
    },
    "tags": [],
    "actions": [],
    "attackNotes": [],
    "effectNotes": [],
    "changes": [],
    "contextNotes": [],
    "links": {
      "children": [],
      "charges": []
    },
    "tag": "classFeat_slaverySubdomain",
    "useCustomTag": true,
    "armorProf": {
      "value": []
    },
    "weaponProf": {
      "value": []
    },
    "languages": {
      "value": []
    },
    "scriptCalls": [],
    "subType": "classFeat",
    "associations": {
      "classes": [["Cleric"]]
    }
  }
}
