{
  "_id": "ZJ70N20O57K9WTLy",
  "name": "Snake Infusion",
  "type": "feat",
  "img": "systems/pf1/icons/spells/runes-blue-1.jpg",
  "sort": 0,
  "flags": {},
  "system": {
    "description": {
      "value": "<p><strong>Element </strong>universal; <strong>Type </strong>form infusion; <strong>Level </strong>3; <strong>Burn </strong>2<br><strong>Prerequisite </strong>extended range<br><strong>Associated Blasts </strong>any<br><strong>Saving Throw </strong>none</p>\n<p>You have fine control over your kinetic blast, allowing you to alter its path to avoid obstacles. You can trace out any path no more than 120 feet long for your blast, potentially allowing you to avoid cover (even total cover). You can choose a path that leads into squares you cannot see.</p>"
    },
    "tags": [],
    "actions": [],
    "attackNotes": [],
    "effectNotes": [],
    "changes": [],
    "contextNotes": [],
    "links": {
      "children": [],
      "charges": []
    },
    "tag": "classFeat_snakeInfusion",
    "useCustomTag": true,
    "armorProf": {
      "value": []
    },
    "weaponProf": {
      "value": []
    },
    "languages": {
      "value": []
    },
    "scriptCalls": [],
    "subType": "classFeat",
    "associations": {
      "classes": [["Kineticist"]]
    }
  }
}
