{
  "_id": "my3OZGFdozgPcuqL",
  "name": "Social Grace",
  "type": "feat",
  "img": "systems/pf1/icons/skills/light_07.jpg",
  "sort": 0,
  "flags": {},
  "system": {
    "description": {
      "value": "<p>The vigilante selects any one Intelligence-, Wisdom-, or Charisma-based skill other than Perception or Use Magic Device. Whenever the vigilante is in his social identity, he receives a +4 circumstance bonus on checks with the selected skill.</p>\n<p>At 5th level and every 4 levels thereafter, he can select another skill (with the same restrictions) to gain this bonus.</p>"
    },
    "tags": [],
    "actions": [],
    "attackNotes": [],
    "effectNotes": [],
    "changes": [],
    "contextNotes": [],
    "links": {
      "children": [],
      "charges": []
    },
    "tag": "classFeat_socialGrace",
    "useCustomTag": true,
    "armorProf": {
      "value": []
    },
    "weaponProf": {
      "value": []
    },
    "languages": {
      "value": []
    },
    "scriptCalls": [],
    "subType": "classFeat",
    "associations": {
      "classes": [["Vigilante"]]
    },
    "abilityType": "ex"
  }
}
