{
  "_id": "cqn2CAlMpkZqdjFW",
  "name": "Songbird",
  "type": "feat",
  "img": "systems/pf1/icons/skills/light_07.jpg",
  "sort": 0,
  "flags": {},
  "system": {
    "description": {
      "value": "<p>The vigilante gains the use of @Compendium[pf1.spells.0324zq42g3fu4kko]{Animal Messenger} once per day as a spell-like ability, with a caster level equal to his character level. He also gains Handle Animal as a class skill.</p>"
    },
    "tags": [],
    "actions": [],
    "attackNotes": [],
    "effectNotes": [],
    "changes": [],
    "contextNotes": [],
    "links": {
      "children": [],
      "charges": []
    },
    "tag": "classFeat_songbird",
    "useCustomTag": true,
    "armorProf": {
      "value": []
    },
    "weaponProf": {
      "value": []
    },
    "languages": {
      "value": []
    },
    "scriptCalls": [],
    "subType": "classFeat",
    "associations": {
      "classes": [["Vigilante"]]
    },
    "abilityType": "su"
  }
}
