{
  "_id": "pv2ysm5spFZfQk4K",
  "name": "Sticky Bomb",
  "type": "feat",
  "img": "systems/pf1/icons/items/potions/unique-3.jpg",
  "sort": 0,
  "flags": {},
  "system": {
    "description": {
      "value": "<p>The effects of the alchemist's bombs are persistent and continue to damage creatures for 1 round after the initial damage. Creatures that take a direct hit from a sticky bomb take the splash damage 1 round later. Bombs that have effects that would normally occur 1 round later instead have those effects occur 2 rounds later.</p>\n<p>An alchemist must be at least 10th level before selecting this discovery.</p>"
    },
    "tags": [],
    "actions": [],
    "attackNotes": [],
    "effectNotes": [],
    "changes": [],
    "contextNotes": [],
    "links": {
      "children": [],
      "charges": []
    },
    "tag": "classFeat_stickyBomb",
    "useCustomTag": true,
    "armorProf": {
      "value": []
    },
    "weaponProf": {
      "value": []
    },
    "languages": {
      "value": []
    },
    "scriptCalls": [],
    "subType": "classFeat",
    "associations": {
      "classes": [["Alchemist"]]
    }
  }
}
