{
  "_id": "6JYvxEtSqmjDbDWr",
  "name": "Strength Domain",
  "type": "feat",
  "img": "systems/pf1/icons/feats/athletic.jpg",
  "sort": 0,
  "flags": {},
  "system": {
    "description": {
      "value": "<p><strong>Granted Powers:</strong> In strength and brawn there is truth—your faith gives you incredible might and power.</p>\n<p><strong>Domain Spells: </strong></p>\n<ul>\n<li>1st—@Compendium[pf1.spells.jnlr9cuepka1l26e]{Enlarge Person}</li>\n<li>2nd—@Compendium[pf1.spells.05i5rxwim12hwktu]{Bull's Strength}</li>\n<li>3rd—@Compendium[pf1.spells.73han2zqxg59u18g]{Magic Vestment}</li>\n<li>4th—@Compendium[pf1.spells.ui70binwqvjsgaam]{Spell Immunity}</li>\n<li>5th—@Compendium[pf1.spells.6ax0ythzw8n4bta8]{Righteous Might}</li>\n<li>6th—@Compendium[pf1.spells.knyako6zopc1chrv]{Stoneskin}</li>\n<li>7th—@Compendium[pf1.spells.h2r6m68142borl8k]{Grasping Hand}</li>\n<li>8th—@Compendium[pf1.spells.0amu53wegzdp0axj]{Clenched Fist}</li>\n<li>9th—@Compendium[pf1.spells.1zyixa5b6aw7npub]{Crushing Hand}</li>\n</ul>"
    },
    "tags": [],
    "actions": [],
    "attackNotes": [],
    "effectNotes": [],
    "changes": [],
    "contextNotes": [],
    "links": {
      "children": [],
      "charges": []
    },
    "tag": "classFeat_strengthDomain",
    "useCustomTag": true,
    "armorProf": {
      "value": []
    },
    "weaponProf": {
      "value": []
    },
    "languages": {
      "value": []
    },
    "scriptCalls": [],
    "subType": "classFeat",
    "associations": {
      "classes": [["Cleric"]]
    }
  }
}
