{
  "_id": "jLg2G4wpQgL2zyI5",
  "name": "Strength of the Beast",
  "type": "feat",
  "img": "systems/pf1/icons/feats/athletic.jpg",
  "sort": 0,
  "flags": {},
  "system": {
    "description": {
      "value": "<p>At 9th level, you gain a +2 inherent bonus to your <em>Strength</em>. This bonus increases to +4 at 13th level, and to +6 at 17th level.</p>"
    },
    "tags": [],
    "actions": [],
    "attackNotes": [],
    "effectNotes": [],
    "changes": [
      {
        "_id": "3m341h0y",
        "formula": "2 + floor((@classes.sorcerer.level - 9) / 4)",
        "operator": "add",
        "subTarget": "str",
        "modifier": "inherent",
        "priority": 0,
        "value": 0,
        "target": "ability"
      }
    ],
    "contextNotes": [],
    "links": {
      "children": [],
      "charges": []
    },
    "tag": "classFeat_strengthOfTheBeast",
    "useCustomTag": true,
    "armorProf": {
      "value": []
    },
    "weaponProf": {
      "value": []
    },
    "languages": {
      "value": []
    },
    "scriptCalls": [],
    "subType": "classFeat",
    "associations": {
      "classes": [["Sorcerer"]]
    },
    "abilityType": "ex"
  }
}
