{
  "_id": "WIoNDjnbzdHBkLJr",
  "name": "Swift Alchemy",
  "type": "feat",
  "img": "systems/pf1/icons/skills/violet_25.jpg",
  "sort": 0,
  "flags": {},
  "system": {
    "description": {
      "value": "<p>At 3rd level, an alchemist can create alchemical items with astounding speed. It takes an alchemist half the normal amount of time to create alchemical items, and he can apply poison to a weapon as a move action.</p>"
    },
    "tags": [],
    "actions": [],
    "attackNotes": [],
    "effectNotes": [],
    "changes": [],
    "contextNotes": [],
    "links": {
      "children": [],
      "charges": []
    },
    "tag": "classFeat_swiftAlchemy",
    "useCustomTag": true,
    "armorProf": {
      "value": []
    },
    "weaponProf": {
      "value": []
    },
    "languages": {
      "value": []
    },
    "scriptCalls": [],
    "subType": "classFeat",
    "associations": {
      "classes": [["Alchemist"]]
    },
    "abilityType": "ex"
  }
}
