{
  "_id": "BCwaw1BX0rALEn2O",
  "name": "Transmutation Resonant School",
  "type": "feat",
  "img": "systems/pf1/icons/items/weapons/axe-orc-double.png",
  "sort": 0,
  "flags": {},
  "system": {
    "description": {
      "value": "<p><em>Transmutation implements can alter the properties of both objects and creatures.</em><p><strong>Implements: </strong>Belt, boots, sandals, vest, weapon.</p>"
    },
    "tags": [],
    "actions": [],
    "attackNotes": [],
    "effectNotes": [],
    "changes": [],
    "contextNotes": [],
    "links": {
      "children": [],
      "charges": []
    },
    "tag": "classFeat_transmutationResonantSchool",
    "useCustomTag": true,
    "armorProf": {
      "value": []
    },
    "weaponProf": {
      "value": []
    },
    "languages": {
      "value": []
    },
    "scriptCalls": [],
    "subType": "classFeat",
    "associations": {
      "classes": [["Occultist"]]
    }
  }
}
