{
  "name": "Trap Sense (INV)",
  "type": "feat",
  "img": "systems/pf1/icons/items/inventory/hook-hand.jpg",
  "flags": {},
  "system": {
    "description": {
      "value": "<p>At 3rd level, an investigator gains an intuitive sense that alerts him to danger from traps, granting him a +1 bonus on <em>Reflex</em> saving throws to avoid traps and a +1 <em>dodge bonus</em> to AC against attacks by traps. At 6th level and every 3 levels thereafter, these bonuses increase by 1 (to a maximum of +6 at 18th level).</p>"
    },
    "tags": [],
    "actions": [],
    "uses": {
      "per": ""
    },
    "attackNotes": [],
    "effectNotes": [],
    "changes": [],
    "contextNotes": [
      {
        "subTarget": "ref",
        "target": "savingThrows",
        "text": "+[[floor(@classes.investigator.level / 3)]] vs. traps"
      },
      {
        "subTarget": "ac",
        "target": "misc",
        "text": "+[[floor(@classes.investigator.level / 3)]] dodge vs. traps"
      }
    ],
    "links": {
      "children": [],
      "charges": []
    },
    "tag": "classFeat_trapSense",
    "useCustomTag": true,
    "armorProf": {
      "value": []
    },
    "weaponProf": {
      "value": []
    },
    "languages": {
      "value": []
    },
    "scriptCalls": [],
    "subType": "classFeat",
    "associations": {
      "classes": [["Investigator"]]
    },
    "abilityType": "ex",
    "classSkills": {
      "acr": false,
      "apr": false,
      "art": false,
      "blf": false,
      "clm": false,
      "crf": false,
      "dip": false,
      "dev": false,
      "dis": false,
      "esc": false,
      "fly": false,
      "han": false,
      "hea": false,
      "int": false,
      "kar": false,
      "kdu": false,
      "ken": false,
      "kge": false,
      "khi": false,
      "klo": false,
      "kna": false,
      "kno": false,
      "kpl": false,
      "kre": false,
      "lin": false,
      "lor": false,
      "per": false,
      "prf": false,
      "pro": false,
      "rid": false,
      "sen": false,
      "slt": false,
      "spl": false,
      "ste": false,
      "sur": false,
      "swm": false,
      "umd": false
    }
  },
  "sort": 0,
  "_id": "KbhRBQE5ZyYedJo6"
}
