{
  "_id": "Edat9QID9gD5xrrg",
  "name": "Tribal Cooperation",
  "type": "feat",
  "img": "systems/pf1/icons/skills/violet_20.jpg",
  "sort": 0,
  "flags": {},
  "system": {
    "description": {
      "value": "<p>The shaman gains a <a href=\"https://www.aonprd.com/Feats.aspx?Category=Teamwork\">teamwork feat</a> as a bonus feat. She must meet the feat’s prerequisites. As a standard action, the shaman can grant one of her teamwork feats to all allies within 30 feet who can see and hear her. Allies retain the use of this bonus feat for 3 rounds plus 1 round for every 2 levels the shaman has. Allies do not need to meet the prerequisites of this bonus feat.</p>\n<p>The shaman can use this ability a number of times per day equal to 3 + her Charisma modifier.</p>"
    },
    "tags": [],
    "actions": [
      {
        "_id": "ay3jjygj47kc9650",
        "name": "Use",
        "img": "systems/pf1/icons/skills/violet_20.jpg",
        "description": "",
        "tag": "",
        "activation": {
          "cost": 1,
          "type": "standard"
        },
        "unchainedAction": {
          "activation": {
            "cost": 2,
            "type": "action"
          }
        },
        "duration": {
          "value": "3 + floor(@classes.shaman.level / 2)",
          "units": "round"
        },
        "target": {
          "value": "allies"
        },
        "range": {
          "value": "30",
          "units": "ft",
          "maxIncrements": 1,
          "minValue": null,
          "minUnits": ""
        },
        "uses": {
          "autoDeductChargesCost": "",
          "self": {
            "value": 0,
            "maxFormula": "",
            "per": null
          },
          "per": "day",
          "value": 0,
          "maxFormula": "3 + @abilities.cha.mod"
        },
        "measureTemplate": {
          "type": "",
          "size": "",
          "overrideColor": false,
          "customColor": "",
          "overrideTexture": false,
          "customTexture": ""
        },
        "attackName": "",
        "actionType": "",
        "attackBonus": "",
        "critConfirmBonus": "",
        "damage": {
          "parts": [],
          "critParts": [],
          "nonCritParts": []
        },
        "attackParts": [],
        "formulaicAttacks": {
          "count": {
            "formula": ""
          },
          "bonus": {
            "formula": ""
          },
          "label": null
        },
        "formula": "",
        "ability": {
          "attack": null,
          "damage": null,
          "damageMult": 1,
          "critRange": 20,
          "critMult": 2
        },
        "save": {
          "dc": 0,
          "type": "",
          "description": ""
        },
        "effectNotes": [],
        "attackNotes": [],
        "soundEffect": "",
        "powerAttack": {
          "multiplier": "",
          "damageBonus": 2,
          "critMultiplier": 1
        },
        "naturalAttack": {
          "primaryAttack": true,
          "secondary": {
            "attackBonus": "-5",
            "damageMult": 0.5
          }
        },
        "nonlethal": false,
        "usesAmmo": false,
        "spellEffect": "",
        "spellArea": "",
        "conditionals": [],
        "enh": {
          "value": null
        }
      }
    ],
    "uses": {
      "per": "day",
      "maxFormula": "3 + @abilities.cha.mod"
    },
    "attackNotes": [],
    "effectNotes": [],
    "changes": [],
    "contextNotes": [],
    "links": {
      "children": [],
      "charges": []
    },
    "tag": "classFeat_tribalCooperation",
    "useCustomTag": true,
    "armorProf": {
      "value": []
    },
    "weaponProf": {
      "value": []
    },
    "languages": {
      "value": []
    },
    "scriptCalls": [],
    "subType": "classFeat",
    "associations": {
      "classes": [["Shaman"]]
    },
    "abilityType": "su"
  }
}
