{
  "_id": "9vClYy9InaOQKlh5",
  "name": "True Mutagen",
  "type": "feat",
  "img": "systems/pf1/icons/items/potions/unique-3.jpg",
  "sort": 0,
  "flags": {},
  "system": {
    "description": {
      "value": "<p>The alchemist’s mutagen now grants a +8 natural armor bonus and a +8 alchemical bonus to Strength, Dexterity, and Constitution. The alchemist takes a –2 penalty to his Intelligence, Wisdom, and Charisma as long as the mutagen persists.</p>\n<p>An alchemist must possess the grand mutagen discovery before selecting this discovery.</p>"
    },
    "tags": [],
    "actions": [],
    "attackNotes": [],
    "effectNotes": [],
    "changes": [],
    "contextNotes": [],
    "links": {
      "children": [],
      "charges": []
    },
    "tag": "classFeat_trueMutagen",
    "useCustomTag": true,
    "armorProf": {
      "value": []
    },
    "weaponProf": {
      "value": []
    },
    "languages": {
      "value": []
    },
    "scriptCalls": [],
    "subType": "classFeat",
    "associations": {
      "classes": [["Alchemist"]]
    }
  }
}
