{
  "_id": "Kc7ghoqn4u7VwC0V",
  "name": "Unarmed Combat Training",
  "type": "feat",
  "img": "systems/pf1/icons/items/weapons/kunai.png",
  "sort": 0,
  "flags": {},
  "system": {
    "description": {
      "value": "<p>A ninja who selects this ninja trick gains @Compendium[pf1.feats.2aTFNMs3pW6nUBlr]{Improved Unarmed Strike} as a bonus feat.</p>"
    },
    "tags": [["Ninja Trick"]],
    "actions": [],
    "attackNotes": [],
    "effectNotes": [],
    "changes": [],
    "contextNotes": [],
    "links": {
      "children": [],
      "charges": []
    },
    "tag": "classFeat_unarmedCombatTraining",
    "useCustomTag": true,
    "armorProf": {
      "value": []
    },
    "weaponProf": {
      "value": []
    },
    "languages": {
      "value": []
    },
    "scriptCalls": [],
    "subType": "classFeat",
    "associations": {
      "classes": [["Ninja"]]
    }
  }
}
