{
  "_id": "yQ69VNhPYXSInkaA",
  "name": "Undead Bloodline",
  "type": "feat",
  "img": "systems/pf1/icons/skills/affliction_17.jpg",
  "sort": 0,
  "flags": {},
  "system": {
    "description": {
      "value": "<p><em>The taint of the grave runs through your family. Perhaps one of your ancestors became a powerful lich or vampire, or maybe you were born dead before suddenly returning to life. Either way, the forces of death move through you and touch your every action.</em></p>\n<p><strong>Class Skill:</strong> <em>Knowledge</em> (religion).</p>\n<p><strong>Bonus Spells:</strong></p>\n<ul>\n<li>@Compendium[pf1.spells.to1cdmyh5rtfyg2s]{Chill Touch} (3rd),</li>\n<li>@Compendium[pf1.spells.3ze0kso9hxff5u2f]{False Life} (5th),</li>\n<li>@Compendium[pf1.spells.3efy1ico48ccrzni]{Vampiric Touch} (7th),</li>\n<li>@Compendium[pf1.spells.8uwmrygxgih1fb57]{Animate Dead} (9th),</li>\n<li>@Compendium[pf1.spells.ijvb1exko6dskalz]{Waves of Fatigue} (11th),</li>\n<li>@Compendium[pf1.spells.lllhr9py6w44cxjm]{Undeath to Death} (13th),</li>\n<li>@Compendium[pf1.spells.7toeli7vcq5a7tv1]{Finger Of Death} (15th),</li>\n<li>@Compendium[pf1.spells.e8zen5nzixnt7bde]{Horrid Wilting} (17th),</li>\n<li>@Compendium[pf1.spells.khfprkujokr9uigq]{Energy Drain} (19th).</li>\n</ul>\n<p><strong>Bonus Feats:</strong></p>\n<ul>\n<li>@Compendium[pf1.feats.u7rGDZUL296QIuA0]{Combat Casting},</li>\n<li>@Compendium[pf1.feats.O0e0UCim27GPKFuW]{Diehard},</li>\n<li>@Compendium[pf1.feats.ehqx8txNRGMaNOPt]{Endurance} </li>\n<li>@Compendium[pf1.feats.iAbIGhm7T2OK9Brt]{Iron Will},</li>\n<li>@Compendium[pf1.feats.7zJTztNW7hdaqjKc]{Skill Focus} (<em>Knowledge</em> [religion]),</li>\n<li>@Compendium[pf1.feats.V2zY7BltkpSXwejy]{Spell Focus},</li>\n<li>@Compendium[pf1.feats.jVFjMIyQD6TOAsmj]{Still Spell},</li>\n<li>@Compendium[pf1.feats.8snLqsJN4LLL00Nq]{Toughness}.</li>\n</ul>\n<p><strong>Bloodline Arcana:</strong> Some undead are susceptible to your mind-affecting spells. Corporeal undead that were once humanoids are treated as humanoids for the purposes of determining which spells affect them.</p>"
    },
    "tags": [],
    "actions": [],
    "attackNotes": [],
    "effectNotes": [],
    "changes": [],
    "contextNotes": [],
    "links": {
      "children": [],
      "charges": []
    },
    "tag": "classFeat_undeadBloodline",
    "useCustomTag": true,
    "armorProf": {
      "value": []
    },
    "weaponProf": {
      "value": []
    },
    "languages": {
      "value": []
    },
    "scriptCalls": [],
    "subType": "classFeat",
    "associations": {
      "classes": [["Sorcerer"]]
    }
  }
}
