{
  "_id": "J8HPQx61MFGH7Xaq",
  "name": "Vampiric Presence",
  "type": "feat",
  "img": "systems/pf1/icons/skills/beast_02.jpg",
  "sort": 0,
  "flags": {},
  "system": {
    "description": {
      "value": "<p>The vampire hunter gains a +2 <em>enhancement bonus</em> to <em>Charisma</em>. At 8th level, this bonus increases to +4, and he can cast @Compendium[pf1.spells.tjog6bufg5b08lvq]{Charm Person} as a <em>spell-like ability</em> a number of times per day equal to his adjusted <em>Charisma</em> modifier. At 16th level, the <em>enhancement bonus</em> to <em>Charisma</em> increases to +6, and the vampire hunter can cast @Compendium[pf1.spells.q070n0zoq3zojpas]{Dominate Person} as a <em>spell-like ability</em> a number of times per day equal to his adjusted <em>Charisma</em> modifier. The vampire hunter treats his level as his <em>caster level</em> when using the <em>spell-like abilities</em> this ability grants.</p>"
    },
    "tags": [],
    "actions": [
      {
        "_id": "k5zkd4y2ax5xcc3z",
        "name": "Use",
        "img": "systems/pf1/icons/skills/beast_02.jpg",
        "description": "",
        "tag": "",
        "activation": {
          "cost": 1,
          "type": "standard"
        },
        "unchainedAction": {
          "activation": {
            "cost": 2,
            "type": "action"
          }
        },
        "duration": {
          "value": null,
          "units": ""
        },
        "target": {
          "value": ""
        },
        "range": {
          "value": null,
          "units": "",
          "maxIncrements": 1,
          "minValue": null,
          "minUnits": ""
        },
        "uses": {
          "autoDeductChargesCost": "",
          "self": {
            "value": 0,
            "maxFormula": "",
            "per": null
          },
          "per": "day",
          "value": 0,
          "maxFormula": "@abilities.cha.mod"
        },
        "measureTemplate": {
          "type": "",
          "size": "0",
          "overrideColor": false,
          "customColor": "",
          "overrideTexture": false,
          "customTexture": ""
        },
        "attackName": "",
        "actionType": "",
        "attackBonus": "",
        "critConfirmBonus": "",
        "damage": {
          "parts": [],
          "critParts": [],
          "nonCritParts": []
        },
        "attackParts": [],
        "formulaicAttacks": {
          "count": {
            "formula": ""
          },
          "bonus": {
            "formula": ""
          },
          "label": null
        },
        "formula": "",
        "ability": {
          "attack": null,
          "damage": null,
          "damageMult": 1,
          "critRange": 20,
          "critMult": 2
        },
        "save": {
          "dc": 0,
          "type": "",
          "description": ""
        },
        "effectNotes": [],
        "attackNotes": [],
        "soundEffect": "",
        "powerAttack": {
          "multiplier": "",
          "damageBonus": 2,
          "critMultiplier": 1
        },
        "naturalAttack": {
          "primaryAttack": true,
          "secondary": {
            "attackBonus": "-5",
            "damageMult": 0.5
          }
        },
        "nonlethal": false,
        "usesAmmo": false,
        "spellEffect": "",
        "spellArea": "",
        "conditionals": [],
        "enh": {
          "value": null
        }
      }
    ],
    "uses": {
      "per": "day",
      "maxFormula": "@abilities.cha.mod"
    },
    "attackNotes": [],
    "effectNotes": [],
    "changes": [
      {
        "_id": "fq56hp94",
        "formula": "@classes.vampirehunter.level >= 16 ? 6 : ((@classes.vampirehunter.level < 16 && @classes.vampirehunter.level > 7) ? 4 : 2)",
        "operator": "add",
        "subTarget": "cha",
        "modifier": "enh",
        "priority": 0,
        "value": 0,
        "target": "ability"
      }
    ],
    "contextNotes": [],
    "links": {
      "children": [],
      "charges": []
    },
    "tag": "classFeat_vampiricPresence",
    "useCustomTag": true,
    "armorProf": {
      "value": []
    },
    "weaponProf": {
      "value": []
    },
    "languages": {
      "value": []
    },
    "scriptCalls": [],
    "subType": "classFeat",
    "associations": {
      "classes": [["Vampire Hunter"]]
    },
    "abilityType": "su"
  }
}
