{
  "_id": "tD6dyVp91BRMW8fS",
  "name": "Veil of Mists",
  "type": "feat",
  "img": "systems/pf1/icons/spells/ice-blue-2.jpg",
  "sort": 0,
  "flags": {},
  "system": {
    "description": {
      "value": "<p><strong>Element </strong>water; <strong>Type </strong>utility (Su); <strong>Level </strong>2; <strong>Burn </strong>0</p>\n<p>You create a misty veil over your features, disguising yourself as @Compendium[pf1.spells.oj36nfak6jc2s5ky]{Disguise Self} for a number of minutes equal to your Constitution modifier.</p>\n<p>If you accept 1 point of burn, until the next time your burn is removed, each use of this wild talent lasts until you dismiss it.</p>"
    },
    "tags": [],
    "actions": [],
    "attackNotes": [],
    "effectNotes": [],
    "changes": [],
    "contextNotes": [],
    "links": {
      "children": [],
      "charges": []
    },
    "tag": "classFeat_veilOfMists",
    "useCustomTag": true,
    "armorProf": {
      "value": []
    },
    "weaponProf": {
      "value": []
    },
    "languages": {
      "value": []
    },
    "scriptCalls": [],
    "subType": "classFeat",
    "associations": {
      "classes": [["Kineticist"]]
    },
    "abilityType": "su"
  }
}
