{
  "_id": "kL2HJCyRJc6KMf0g",
  "name": "Verdant Bloodline",
  "type": "feat",
  "img": "systems/pf1/icons/skills/green_17.jpg",
  "sort": 0,
  "flags": {},
  "system": {
    "description": {
      "value": "<p><em>Your progenitors infused themselves with raw plant life, binding it into their own tissue and passing it down to their literal seed, giving you innate communion with nature.</em></p>\n<p><strong>Class Skill:</strong> <em>Knowledge</em> (nature).</p>\n<p><strong>Bonus Spells:</strong></p>\n<ul>\n<li>@Compendium[pf1.spells.2nn2tshkn4p7k25l]{Entangle} (3rd),</li>\n<li>@Compendium[pf1.spells.la7kuehewu85ybnt]{Barkskin} (5th),</li>\n<li>@Compendium[pf1.spells.rrsefzpm3nhztvld]{Speak with Plants} (7th),</li>\n<li>@Compendium[pf1.spells.wi9uvm8p12qvq616]{Command Plants} (9th),</li>\n<li>@Compendium[pf1.spells.nqfoy30smshc3c6w]{Wall Of Thorns} (11th),</li>\n<li>@Compendium[pf1.spells.1i5uea24eq88q1kw]{Transport via Plants} (13th),</li>\n<li>@Compendium[pf1.spells.sheso071mxbywlah]{Plant Shape III} (15th),</li>\n<li>@Compendium[pf1.spells.qt0xmkag6ahtvesm]{Animate Plants} (17th),</li>\n<li>@Compendium[pf1.spells.bp4s030vn5iwwf58]{Shambler} (19th).</li>\n</ul>\n<p><strong>Bonus Feats:</strong></p>\n<ul>\n<li>@Compendium[pf1.feats.B6wEQOUMv2ifm2Nj]{Acrobatic Steps},</li>\n<li>@Compendium[pf1.feats.lIlQnrRkC3YJ1V6t]{Craft Staff},</li>\n<li>@Compendium[pf1.feats.ehqx8txNRGMaNOPt]{Endurance},</li>\n<li>@Compendium[pf1.feats.btXWioB3SKJv8YEG]{Extend Spell},</li>\n<li>@Compendium[pf1.feats.BkKYCzEGNTzZRiTz]{Fleet},</li>\n<li>@Compendium[pf1.feats.VMVAqGze4cs3naya]{Nimble Moves},</li>\n<li>@Compendium[pf1.feats.7zJTztNW7hdaqjKc]{Skill Focus} (<em>Knowledge</em> [nature]),</li>\n<li>@Compendium[pf1.feats.8snLqsJN4LLL00Nq]{Toughness}.</li>\n</ul>\n<p><strong>Bloodline Arcana:</strong> Whenever you cast a spell with a range of personal, your skin toughens, granting you a <em>natural armor bonus</em> equal to the spell’s level for 1d4 rounds. This bonus does not stack with any other <em>natural armor</em> bonuses you might have.</p>"
    },
    "tags": [],
    "actions": [],
    "attackNotes": [],
    "effectNotes": [],
    "changes": [],
    "contextNotes": [],
    "links": {
      "children": [],
      "charges": []
    },
    "tag": "classFeat_verdantBloodline",
    "useCustomTag": true,
    "armorProf": {
      "value": []
    },
    "weaponProf": {
      "value": []
    },
    "languages": {
      "value": []
    },
    "scriptCalls": [],
    "subType": "classFeat",
    "associations": {
      "classes": [["Sorcerer"]]
    }
  }
}
