{
  "_id": "hYPoefz1zLT69n09",
  "name": "Viper's Breath",
  "type": "feat",
  "img": "systems/pf1/icons/feats/deafening-critical.jpg",
  "sort": 0,
  "flags": {},
  "system": {
    "description": {
      "value": "<p>While holding a dose of poison in her mouth, the barbarian can exhale a 15-foot cone of inhaled poison. Anyone caught in the spray must succeed at a saving throw against the poison with a DC equal to the poison’s DC – 4 or suffer the poison’s effects with an immediate onset.</p>\n<p>A barbarian must have viper’s kiss to select this rage power.</p>"
    },
    "tags": [],
    "actions": [],
    "attackNotes": [],
    "effectNotes": [],
    "changes": [],
    "contextNotes": [],
    "links": {
      "children": [],
      "charges": []
    },
    "tag": "classFeat_vipersBreath",
    "useCustomTag": true,
    "armorProf": {
      "value": []
    },
    "weaponProf": {
      "value": []
    },
    "languages": {
      "value": []
    },
    "scriptCalls": [],
    "subType": "classFeat",
    "associations": {
      "classes": [["Barbarian"], ["Skald"]]
    },
    "abilityType": "ex"
  }
}
