{
  "_id": "o2hwMb0nD2FA3d9C",
  "name": "Voice of the Wind",
  "type": "feat",
  "img": "systems/pf1/icons/spells/wind-sky-3.jpg",
  "sort": 0,
  "flags": {},
  "system": {
    "description": {
      "value": "<p><strong>Element </strong>air; <strong>Type </strong>utility (Sp); <strong>Level </strong>1; <strong>Burn </strong>0<br><strong>Saving Throw </strong>none; <strong>SR </strong>yes</p>\n<p>When you whisper, you can have the wind carry your voice to the ears of anyone you can see within 120 feet, as if they were one of the targets of a @Compendium[pf1.spells.msaqovkgfxi6q8s8]{Message} spell you cast.</p>\n<p>Alternatively, you can send your voice to a distant location as if casting @Compendium[pf1.spells.v8czhud6wpmc9esu]{Whispering Wind}.</p>"
    },
    "tags": [],
    "actions": [],
    "attackNotes": [],
    "effectNotes": [],
    "changes": [],
    "contextNotes": [],
    "links": {
      "children": [],
      "charges": []
    },
    "tag": "classFeat_voiceOfTheWind",
    "useCustomTag": true,
    "armorProf": {
      "value": []
    },
    "weaponProf": {
      "value": []
    },
    "languages": {
      "value": []
    },
    "scriptCalls": [],
    "subType": "classFeat",
    "associations": {
      "classes": [["Kineticist"]]
    },
    "abilityType": "sp"
  }
}
