{
  "_id": "JMNUVeSSjnYoYjEW",
  "name": "Waves Mystery",
  "type": "feat",
  "img": "systems/pf1/icons/spells/light-magenta-2.jpg",
  "sort": 0,
  "flags": {},
  "system": {
    "description": {
      "value": "<p><strong>Class Skills:</strong> An oracle with the waves mystery adds Acrobatics, Escape Artist, Knowledge (nature), and Swim to her list of class skills.<p><strong>Bonus Spells:</strong></p>\n<ul>\n<li>@Compendium[pf1.spells.ts50hpvkdgerfp1a]{Touch of the Sea}a (2nd), </li>\n<li>@Compendium[pf1.spells.7fvsn0gbv6ynlp63]{Slipstream} (4th), </li>\n<li>@Compendium[pf1.spells.7m5us8d4a9lwh1ap]{Water Breathing} (6th), </li>\n<li>@Compendium[pf1.spells.ijui94bv4uzu8awb]{Wall Of Ice} (8th), </li>\n<li>@Compendium[pf1.spells.nll8ip8348eti0ff]{Geyser} (10th), </li>\n<li>@Compendium[pf1.spells.h4nlrm44ubsyzuhz]{Fluid Form} (12th), </li>\n<li>@Compendium[pf1.spells.tpid8izzs2rrfxv3]{Vortex} (14th), </li>\n<li>@Compendium[pf1.spells.o4rwtizvdj7216qd]{Seamantle} (16th), </li>\n<li>@Compendium[pf1.spells.ltda70etgwje43x6]{Tsunami} (18th).</li>\n</ul>"
    },
    "tags": [],
    "actions": [],
    "attackNotes": [],
    "effectNotes": [],
    "changes": [],
    "contextNotes": [],
    "links": {
      "children": [],
      "charges": []
    },
    "tag": "classFeat_wavesMystery",
    "useCustomTag": true,
    "armorProf": {
      "value": []
    },
    "weaponProf": {
      "value": []
    },
    "languages": {
      "value": []
    },
    "scriptCalls": [],
    "subType": "classFeat",
    "associations": {
      "classes": [["Oracle"]]
    }
  }
}
