{
  "_id": "cjyV92z52SkCemu2",
  "name": "Weapon Familiarity",
  "type": "feat",
  "img": "systems/pf1/icons/feats/deceitful.jpg",
  "sort": 0,
  "flags": {},
  "system": {
    "description": {
      "value": "<p>The vigilante selects either two simple or martial weapons or one exotic weapon when he gains this talent. He gains proficiency with his chosen weapon or weapons.</p>\n<p>At 8th level, he also gains @Compendium[pf1.feats.n250dFlbykAIAg5Z]{Weapon Focus} as a bonus feat for his selected weapon or weapons.</p>\n<p>Only an avenger vigilante can select this talent.</p>"
    },
    "tags": [],
    "actions": [],
    "attackNotes": [],
    "effectNotes": [],
    "changes": [],
    "contextNotes": [],
    "links": {
      "children": [],
      "charges": []
    },
    "tag": "classFeat_weaponFamiliarity",
    "useCustomTag": true,
    "armorProf": {
      "value": []
    },
    "weaponProf": {
      "value": []
    },
    "languages": {
      "value": []
    },
    "scriptCalls": [],
    "subType": "classFeat",
    "associations": {
      "classes": [["Vigilante"]]
    },
    "abilityType": "ex"
  }
}
