{
  "_id": "gTxzhwyiGEMWSNK4",
  "name": "Weapon Training (NIN)",
  "type": "feat",
  "img": "systems/pf1/icons/items/weapons/kunai.png",
  "flags": {},
  "system": {
    "description": {
      "value": "<p>A ninja who selects this ninja trick gains Weapon Focus as a bonus feat.</p>"
    },
    "tags": [["Ninja Trick"]],
    "actions": [],
    "uses": {
      "per": ""
    },
    "attackNotes": [],
    "effectNotes": [],
    "changes": [
      {
        "_id": "caqlmh1h",
        "formula": "1",
        "operator": "add",
        "subTarget": "bonusFeats",
        "modifier": "untyped",
        "priority": 0,
        "value": 1
      }
    ],
    "changeFlags": {
      "loseDexToAC": false,
      "noEncumbrance": false,
      "mediumArmorFullSpeed": false,
      "heavyArmorFullSpeed": false
    },
    "contextNotes": [],
    "links": {
      "children": [],
      "charges": []
    },
    "tag": "classFeat_weaponTrainingNin",
    "useCustomTag": true,
    "armorProf": {
      "value": [],
      "custom": ""
    },
    "weaponProf": {
      "value": [],
      "custom": ""
    },
    "languages": {
      "value": [],
      "custom": ""
    },
    "flags": {
      "boolean": {},
      "dictionary": {}
    },
    "scriptCalls": [],
    "subType": "classFeat",
    "associations": {
      "classes": [["Ninja"]]
    },
    "showInQuickbar": false,
    "abilityType": "ex",
    "crOffset": "",
    "disabled": false
  }
}
