{
  "_id": "yMZszNywATptsEFW",
  "name": "Wind Manipulator",
  "type": "feat",
  "img": "systems/pf1/icons/spells/wind-sky-3.jpg",
  "sort": 0,
  "flags": {},
  "system": {
    "description": {
      "value": "<p><strong>Element </strong>air; <strong>Type </strong>utility (Sp); <strong>Level </strong>6; <strong>Burn </strong>0<br><strong>Prerequisite </strong>engulfing winds</p>\n<p>You can call forth mighty winds in an enormous area. As a standard action, you can alter the wind around you as if using @Compendium[pf1.spells.g9koefk7x9szoheo]{Control Winds}, but the change remains only for as long as you continue to take a standard action to concentrate on this effect.</p>\n<p>If you accept 1 point of burn, you can extend the duration to 10 minutes per kineticist level you possess without your needing to concentrate.</p>"
    },
    "tags": [],
    "actions": [],
    "attackNotes": [],
    "effectNotes": [],
    "changes": [],
    "contextNotes": [],
    "links": {
      "children": [],
      "charges": []
    },
    "tag": "classFeat_windManipulator",
    "useCustomTag": true,
    "armorProf": {
      "value": []
    },
    "weaponProf": {
      "value": []
    },
    "languages": {
      "value": []
    },
    "scriptCalls": [],
    "subType": "classFeat",
    "associations": {
      "classes": [["Kineticist"]]
    },
    "abilityType": "sp"
  }
}
