{
  "_id": "HM6fhAZyzFiU1ouf",
  "name": "Wood Mystery",
  "type": "feat",
  "img": "systems/pf1/icons/spells/light-magenta-2.jpg",
  "sort": 0,
  "flags": {},
  "system": {
    "description": {
      "value": "<p><strong>Class Skills:</strong> An oracle with the wood mystery adds Climb, Knowledge (nature), Stealth, and Survival to her list of class skills.<p><strong>Bonus Spells:</strong></p>\n<ul>\n<li>@Compendium[pf1.spells.v05u8sl116ab2n9c]{Shillelagh} (2nd), </li>\n<li>@Compendium[pf1.spells.la7kuehewu85ybnt]{Barkskin} (4th), </li>\n<li>@Compendium[pf1.spells.jsvjsax2eabrlx8g]{Minor Creation} (wood items only) (6th), </li>\n<li>@Compendium[pf1.spells.818uuekrao87o57u]{Thorn Body} (8th), </li>\n<li>@Compendium[pf1.spells.6x6epf4g5wgzl1gh]{Tree Stride} (10th), </li>\n<li>@Compendium[pf1.spells.xmacjpo6tgm1xhnv]{Ironwood} (12th), </li>\n<li>@Compendium[pf1.spells.3fravqa4vrm4ygkr]{Transmute Metal to Wood} (14th), </li>\n<li>@Compendium[pf1.spells.cp5m19me647dojha]{Changestaff} (16th), </li>\n<li>@Compendium[pf1.spells.9fd7mcoint902oyb]{Wooden Phalanx} (18th).</li>\n</ul>"
    },
    "tags": [],
    "actions": [],
    "attackNotes": [],
    "effectNotes": [],
    "changes": [],
    "contextNotes": [],
    "links": {
      "children": [],
      "charges": []
    },
    "tag": "classFeat_woodMystery",
    "useCustomTag": true,
    "armorProf": {
      "value": []
    },
    "weaponProf": {
      "value": []
    },
    "languages": {
      "value": []
    },
    "scriptCalls": [],
    "subType": "classFeat",
    "associations": {
      "classes": [["Oracle"]]
    }
  }
}
