{
  "_id": "D2huasedfGMSetP7",
  "name": "Bane",
  "type": "buff",
  "img": "systems/pf1/icons/spells/evil-eye-eerie-1.jpg",
  "sort": 100001,
  "flags": {},
  "system": {
    "description": {
      "value": "<p>You take a -1 penalty on attack rolls and saving throws vs fear effects.</p>"
    },
    "tags": [],
    "changes": [
      {
        "_id": "naa3gpnz",
        "formula": "-1",
        "operator": "add",
        "subTarget": "attack",
        "modifier": "untyped",
        "priority": 0,
        "value": 0,
        "target": "attack"
      }
    ],
    "contextNotes": [
      {
        "formula": "",
        "operator": "add",
        "target": "savingThrows",
        "subTarget": "allSavingThrows",
        "modifier": "",
        "priority": 0,
        "value": 0,
        "text": "-[[1]] vs Fear effects"
      }
    ],
    "links": {
      "children": []
    },
    "scriptCalls": [],
    "level": "1",
    "duration": {
      "value": "@item.level",
      "units": "minute"
    }
  }
}
