{
  "_id": "kG8EriOOSJmDmYZd",
  "name": "Barkskin",
  "type": "buff",
  "img": "systems/pf1/icons/skills/blue_34.jpg",
  "sort": 5700000,
  "flags": {},
  "system": {
    "description": {
      "value": "<p>Your skin is toughened, granting you an enhancement bonus to your natural armor as per the barkskin spell.</p>\n<p><strong>Usage</strong>: Set the buff's level to the caster level of Barkskin.</p>"
    },
    "tags": [],
    "changes": [
      {
        "_id": "zjfo24qt",
        "formula": "clamped(2 + floor((@item.level - 3) / 3), 2, 5)",
        "operator": "add",
        "subTarget": "nac",
        "modifier": "enh",
        "priority": 0,
        "value": 0,
        "target": "ac"
      }
    ],
    "contextNotes": [],
    "links": {
      "children": []
    },
    "scriptCalls": [],
    "level": "3",
    "duration": {
      "value": "@item.level * 10",
      "units": "minute"
    }
  }
}
