{
  "_id": "lV9zpEnZrArmfEFZ",
  "name": "Bear's Endurance",
  "type": "buff",
  "img": "systems/pf1/icons/spells/runes-orange-1.jpg",
  "sort": 100001,
  "flags": {},
  "system": {
    "description": {
      "value": "<p>The subject has a +4 enhancement bonus to Constitution.</p>"
    },
    "tags": [],
    "changes": [
      {
        "_id": "wp3yjxvr",
        "formula": "4",
        "operator": "add",
        "subTarget": "con",
        "modifier": "enh",
        "priority": 0,
        "value": 0,
        "target": "ability"
      }
    ],
    "contextNotes": [],
    "links": {
      "children": []
    },
    "scriptCalls": [],
    "level": "3",
    "duration": {
      "value": "@item.level",
      "units": "minute"
    }
  }
}
