{
  "_id": "3czZB6whbQo9WhxR",
  "name": "Divine Favor",
  "type": "buff",
  "img": "systems/pf1/icons/skills/weapon_42.jpg",
  "sort": 6700000,
  "flags": {},
  "system": {
    "description": {
      "value": "<p>You have a luck bonus to attack rolls and weapon damage rolls.</p>\n<p><strong>Usage</strong>: Set the buff's level equal to the caster level Divine Favor.</p>"
    },
    "tags": [],
    "changes": [
      {
        "_id": "ha13jllu",
        "formula": "clamped(floor(@item.level / 3), 1, 3)",
        "operator": "add",
        "subTarget": "attack",
        "modifier": "luck",
        "priority": 0,
        "value": 0,
        "target": "attack"
      },
      {
        "_id": "4n037d0l",
        "formula": "clamped(floor(@item.level / 3), 1, 3)",
        "operator": "add",
        "subTarget": "wdamage",
        "modifier": "luck",
        "priority": 0,
        "value": 0,
        "target": "damage"
      }
    ],
    "contextNotes": [],
    "links": {
      "children": []
    },
    "scriptCalls": [],
    "level": "1",
    "duration": {
      "value": "1",
      "units": "minute"
    }
  }
}
