{
  "_id": "olTpyao476hOEzzm",
  "name": "Shield",
  "type": "buff",
  "img": "systems/pf1/icons/spells/protect-blue-1.jpg",
  "sort": 5600000,
  "flags": {},
  "system": {
    "description": {
      "value": "<p>An invisible shield of force hovers in front of you, with the following effects:</p>\n<ul>\n<li>+4 Shield Bonus to AC</li>\n<li>Negates Magic Missile attacks direct at you</li>\n</ul>\n<p>These bonuses apply to incorporeal touch attacks.</p>"
    },
    "tags": [],
    "changes": [
      {
        "_id": "gq5kc0g2",
        "formula": "4",
        "operator": "add",
        "subTarget": "sac",
        "modifier": "base",
        "priority": 0,
        "value": 0,
        "target": "ac"
      }
    ],
    "contextNotes": [],
    "links": {
      "children": []
    },
    "scriptCalls": [],
    "level": "1",
    "duration": {
      "value": "@item.level",
      "units": "minute"
    }
  }
}
