{
  "_id": "baocube6vvey9zlc",
  "name": "Blasphemy",
  "type": "spell",
  "img": "systems/pf1/icons/misc/magic-swirl.png",
  "sort": 0,
  "flags": {},
  "system": {
    "tags": [],
    "actions": [
      {
        "_id": "m78dfdn7agg3sgnl",
        "name": "Use",
        "img": "systems/pf1/icons/misc/magic-swirl.png",
        "description": "",
        "tag": "",
        "activation": {
          "cost": 1,
          "type": "standard"
        },
        "unchainedAction": {
          "activation": {
            "cost": 2,
            "type": "action"
          }
        },
        "duration": {
          "value": "instantaneous",
          "units": ""
        },
        "target": {
          "value": ""
        },
        "range": {
          "value": "40",
          "units": "ft",
          "maxIncrements": 1,
          "minValue": null,
          "minUnits": ""
        },
        "uses": {
          "autoDeductChargesCost": "",
          "self": {
            "value": 0,
            "maxFormula": "",
            "per": null
          },
          "per": "",
          "value": 0,
          "maxFormula": ""
        },
        "measureTemplate": {
          "type": "",
          "size": "0",
          "overrideColor": false,
          "customColor": "",
          "overrideTexture": false,
          "customTexture": ""
        },
        "attackName": "",
        "actionType": "spellsave",
        "attackBonus": "",
        "critConfirmBonus": "",
        "damage": {
          "parts": [],
          "critParts": [],
          "nonCritParts": []
        },
        "attackParts": [],
        "formulaicAttacks": {
          "count": {
            "formula": ""
          },
          "bonus": {
            "formula": ""
          },
          "label": null
        },
        "formula": "",
        "ability": {
          "attack": "",
          "damage": "",
          "damageMult": 1,
          "critRange": 20,
          "critMult": 2
        },
        "save": {
          "dc": "0",
          "type": "will",
          "description": "Will partial"
        },
        "effectNotes": [],
        "attackNotes": [],
        "soundEffect": "",
        "powerAttack": {
          "multiplier": "",
          "damageBonus": 2,
          "critMultiplier": 1
        },
        "naturalAttack": {
          "primaryAttack": true,
          "secondary": {
            "attackBonus": "-5",
            "damageMult": 0.5
          }
        },
        "nonlethal": false,
        "usesAmmo": false,
        "spellEffect": "",
        "spellArea": "nonevil creatures in a 40-ft.-radius spread centered on you",
        "conditionals": [],
        "enh": {
          "value": null
        }
      }
    ],
    "uses": {
      "per": ""
    },
    "attackNotes": [],
    "effectNotes": [],
    "links": {
      "children": []
    },
    "scriptCalls": [],
    "learnedAt": {
      "class": [
        ["cleric/oracle", 7],
        ["inquisitor", 6]
      ],
      "domain": [["Evil", 7]],
      "subDomain": [],
      "elementalSchool": [],
      "bloodline": []
    },
    "level": 7,
    "school": "evo",
    "types": "evil, sonic",
    "components": {
      "verbal": true
    },
    "shortDescription": "<p>Any nonevil creature within the area of a <i>blasphemy</i> spell suffers the following ill effects. <table border ='1'><tr><th>HD</th><th>Effect</th></tr><tr><td>Equal to caster level</td><td>Dazed</td></tr><tr><td>Up to caster level -1</td><td>Weakened, dazed</td></tr><tr><td>Up to caster level -5</td><td>Paralyzed, weakened, dazed</td></tr><tr><td>Up to caster level -10</td><td>Killed, paralyzed, weakened, dazed</td></tr></table> The effects are cumulative and concurrent. A successful Will save reduces or eliminates these effects. Creatures affected by multiple effects make only one save and apply the result to all the effects.</p><p><i>Dazed</i>: The creature can take no actions for 1 round, though it defends itself normally. Save negates.</p><p><i>Weakened</i>: The creature's Strength score decreases by 2d6 points for 2d4 rounds. Save for half.</p><p><i>Paralyzed</i>: The creature is paralyzed and helpless for 1d10 minutes. Save reduces the paralyzed effect to 1 round.</p><p><i>Killed</i>: Living creatures die. Undead creatures are destroyed. Save negates. If the save is successful, the creature instead takes 3d6 points of damage + 1 point per caster level (maximum +25).</p><p>Furthermore, if you are on your home plane when you cast this spell, nonevil extraplanar creatures within the area are instantly banished back to their home planes. Creatures so banished cannot return for at least 24 hours. This effect takes place regardless of whether the creatures hear the <i>blasphemy</i> or not. The banishment effect allows a Will save (at a -4 penalty) to negate.</p><p>Creatures whose Hit Dice exceed your caster level are unaffected by <i>blasphemy</i>.</p>"
  }
}
