{
  "_id": "ej87t487r59demgy",
  "name": "Call Animal",
  "type": "spell",
  "img": "systems/pf1/icons/misc/magic-swirl.png",
  "sort": 0,
  "flags": {},
  "system": {
    "tags": [],
    "actions": [
      {
        "_id": "0n4ou19oufsr0rjl",
        "name": "Use",
        "img": "systems/pf1/icons/misc/magic-swirl.png",
        "description": "",
        "tag": "",
        "activation": {
          "cost": 1,
          "type": "standard"
        },
        "unchainedAction": {
          "activation": {
            "cost": 2,
            "type": "action"
          }
        },
        "duration": {
          "value": "1 hour/level (D)",
          "units": ""
        },
        "target": {
          "value": ""
        },
        "range": {
          "value": null,
          "units": "",
          "maxIncrements": 1,
          "minValue": null,
          "minUnits": ""
        },
        "uses": {
          "autoDeductChargesCost": "",
          "self": {
            "value": 0,
            "maxFormula": "",
            "per": null
          },
          "per": "",
          "value": 0,
          "maxFormula": ""
        },
        "measureTemplate": {
          "type": "",
          "size": "0",
          "overrideColor": false,
          "customColor": "",
          "overrideTexture": false,
          "customTexture": ""
        },
        "attackName": "",
        "actionType": "other",
        "attackBonus": "",
        "critConfirmBonus": "",
        "damage": {
          "parts": [],
          "critParts": [],
          "nonCritParts": []
        },
        "attackParts": [],
        "formulaicAttacks": {
          "count": {
            "formula": ""
          },
          "bonus": {
            "formula": ""
          },
          "label": null
        },
        "formula": "",
        "ability": {
          "attack": "",
          "damage": "",
          "damageMult": 1,
          "critRange": 20,
          "critMult": 2
        },
        "save": {
          "dc": "0",
          "type": "",
          "description": ""
        },
        "effectNotes": [],
        "attackNotes": [],
        "soundEffect": "",
        "powerAttack": {
          "multiplier": "",
          "damageBonus": 2,
          "critMultiplier": 1
        },
        "naturalAttack": {
          "primaryAttack": true,
          "secondary": {
            "attackBonus": "-5",
            "damageMult": 0.5
          }
        },
        "nonlethal": false,
        "usesAmmo": false,
        "spellEffect": "one animal whose CR is equal or less than your caster level",
        "spellArea": "",
        "conditionals": [],
        "enh": {
          "value": null
        }
      }
    ],
    "uses": {
      "per": ""
    },
    "attackNotes": [],
    "effectNotes": [],
    "links": {
      "children": []
    },
    "scriptCalls": [],
    "learnedAt": {
      "class": [
        ["druid", 1],
        ["ranger", 1],
        ["mesmerist", 1],
        ["hunter", 1]
      ],
      "domain": [],
      "subDomain": [],
      "elementalSchool": [],
      "bloodline": []
    },
    "school": "enc",
    "subschool": "compulsion",
    "types": "mind-affecting",
    "components": {
      "verbal": true,
      "somatic": true,
      "divineFocus": 1
    },
    "sr": false,
    "shortDescription": "<p>This spell calls the nearest wild animal of a particular type you designate (provided the animal's CR is equal to or less than your caster level) to seek you out. The animal moves toward you under its own power, so the time it takes to arrivedepends on how close an animal of the desired type is when you cast the spell. If there is no animal of that type capable of reaching you within the spell's duration, you are aware of this fact, but the spell is wasted. Knowledge of the local fauna makes this spell more effective, and the GM may permit a Knowledge (nature) skill check (DC 15) to know what animals can be found in an area.</p><p>When the called animal arrives, it approaches to within 5 feet of you and remains nearby for the duration of the spell.</p><p>Its starting attitude is indifferent, modified by circumstances and interaction. Other than starting attitude, this spell gives you no special influence or ability to communicate with the called animal, although you may use other spells or abilities to do so.</p><p>Once the spell's duration expires, the animal acts in accordance with its attitude. Most animals will likely wander off, but a hostile predatory animal may attack, especially if it is hungry or provoked.</p><p>Domesticated animals or animals trained by someone else, including such creatures as familiars or animal companions, are unaffected by <i>call animals</i>.</p>"
  }
}
