{
  "_id": "av7YbbrWBVgNp2hP",
  "name": "Crown of Glory",
  "type": "spell",
  "img": "icons/equipment/head/crown-gold-blue.webp",
  "sort": 0,
  "flags": {},
  "system": {
    "tags": [],
    "actions": [
      {
        "_id": "72jroi8fd1cs992r",
        "name": "Use",
        "img": "icons/equipment/head/crown-gold-blue.webp",
        "description": "",
        "tag": "",
        "activation": {
          "cost": 1,
          "type": "full"
        },
        "unchainedAction": {
          "activation": {
            "cost": 1,
            "type": ""
          }
        },
        "duration": {
          "value": "1 minute/level",
          "units": ""
        },
        "target": {
          "value": ""
        },
        "range": {
          "value": null,
          "units": "personal",
          "maxIncrements": 1,
          "minValue": null,
          "minUnits": ""
        },
        "uses": {
          "autoDeductChargesCost": "1 + @sl",
          "self": {
            "value": 0,
            "maxFormula": "",
            "per": null
          },
          "per": null,
          "value": 0,
          "maxFormula": ""
        },
        "measureTemplate": {
          "type": "",
          "size": "",
          "overrideColor": false,
          "customColor": "",
          "overrideTexture": false,
          "customTexture": ""
        },
        "attackName": "",
        "actionType": "spellsave",
        "attackBonus": "",
        "critConfirmBonus": "",
        "damage": {
          "parts": [],
          "critParts": [],
          "nonCritParts": []
        },
        "attackParts": [],
        "formulaicAttacks": {
          "count": {
            "formula": ""
          },
          "bonus": {
            "formula": ""
          },
          "label": null
        },
        "formula": "",
        "ability": {
          "attack": null,
          "damage": "",
          "damageMult": 1,
          "critRange": 20,
          "critMult": 2
        },
        "save": {
          "dc": "0",
          "type": "will",
          "description": "Will negates"
        },
        "effectNotes": [],
        "attackNotes": [],
        "soundEffect": "",
        "powerAttack": {
          "multiplier": "",
          "damageBonus": 2,
          "critMultiplier": 1
        },
        "naturalAttack": {
          "primaryAttack": true,
          "secondary": {
            "attackBonus": "-5",
            "damageMult": 0.5
          }
        },
        "nonlethal": false,
        "usesAmmo": false,
        "spellEffect": "",
        "spellArea": "120-ft.-radius emanation centered on you",
        "conditionals": [],
        "enh": {
          "value": null
        }
      }
    ],
    "attackNotes": [],
    "effectNotes": [],
    "links": {
      "children": []
    },
    "scriptCalls": [],
    "learnedAt": {
      "class": [],
      "domain": [["Glory", 8]],
      "subDomain": [],
      "elementalSchool": [],
      "bloodline": []
    },
    "level": 8,
    "school": "evo",
    "components": {
      "verbal": true,
      "somatic": true,
      "material": true,
      "divineFocus": 2
    },
    "materials": {
      "value": "an opal worth at least 200 gp",
      "gpValue": 200
    },
    "spellbook": "",
    "shortDescription": "<p>You gain a +4 enhancement bonus to Charisma. All creatures with fewer than 8 HD are compelled to stop and pay attention to you. Any such creature that wants to take hostile action against you must make a Will save to do so. Any creature that fails this saving throw the first time it attempts a hostile action is enthralled for the duration of the spell (as the @Compendium[pf1.spells.v3d3lnjj7ks0ztii]{Enthrall} spell), as long as it is in the spell's area. It does not try to leave the area on its own. Creatures with 8 HD or more are not affected.</p>\n<p>When you speak, all listeners telepathically understand you. You can make up to three suggestions to creatures of fewer than 8 HD in range, as if using the @Compendium[pf1.spells.52v3fogun1n9jzum]{Mass Suggestion} spell (Will save negates). Only creatures within range at the time of a <em>suggestion</em> are subject to it.</p>"
  }
}
