{
  "name": "Cultural Adaptation (Taldan)",
  "type": "spell",
  "img": "icons/skills/social/diplomacy-unity-alliance.webp",
  "system": {
    "tags": [],
    "actions": [
      {
        "_id": "98E2zlvZ3QDTDjvG",
        "name": "Use",
        "img": "icons/skills/social/diplomacy-unity-alliance.webp",
        "description": "",
        "tag": "",
        "activation": {
          "cost": 1,
          "type": "standard"
        },
        "unchainedAction": {
          "activation": {
            "cost": 2,
            "type": "action"
          }
        },
        "duration": {
          "value": "10 minutes/level",
          "units": ""
        },
        "target": {
          "value": "you"
        },
        "range": {
          "value": null,
          "units": "personal",
          "maxIncrements": 1,
          "minValue": null,
          "minUnits": ""
        },
        "uses": {
          "autoDeductChargesCost": "",
          "self": {
            "value": 0,
            "maxFormula": "",
            "per": ""
          }
        },
        "measureTemplate": {
          "type": "",
          "size": "",
          "overrideColor": false,
          "customColor": "",
          "overrideTexture": false,
          "customTexture": ""
        },
        "attackName": "",
        "actionType": "",
        "attackBonus": "",
        "critConfirmBonus": "",
        "damage": {
          "parts": [],
          "critParts": [],
          "nonCritParts": []
        },
        "attackParts": [],
        "formulaicAttacks": {
          "count": {
            "formula": ""
          },
          "bonus": {
            "formula": ""
          },
          "label": null
        },
        "formula": "",
        "ability": {
          "attack": null,
          "damage": null,
          "damageMult": 1,
          "critRange": 20,
          "critMult": 2
        },
        "save": {
          "dc": "",
          "type": "",
          "description": ""
        },
        "effectNotes": [],
        "attackNotes": [],
        "soundEffect": "",
        "powerAttack": {
          "multiplier": null,
          "damageBonus": 2,
          "critMultiplier": 1
        },
        "naturalAttack": {
          "primaryAttack": true,
          "secondary": {
            "attackBonus": "-5",
            "damageMult": 0.5
          }
        },
        "nonlethal": false,
        "touch": false,
        "usesAmmo": false,
        "spellEffect": "",
        "spellArea": "",
        "conditionals": [],
        "enh": {
          "value": null
        }
      }
    ],
    "uses": {
      "autoDeductChargesCost": ""
    },
    "attackNotes": [],
    "effectNotes": [],
    "links": {
      "children": []
    },
    "scriptCalls": [],
    "learnedAt": {
      "class": [
        ["arcanist", 1],
        ["bard", 1],
        ["cleric", 1],
        ["oracle", 1],
        ["skald", 1],
        ["sorcerer", 1],
        ["warpriest", 1],
        ["wizard", 1]
      ],
      "domain": [],
      "subDomain": [],
      "elementalSchool": [],
      "bloodline": []
    },
    "school": "div",
    "components": {
      "verbal": true,
      "somatic": true,
      "material": true,
      "divineFocus": 2
    },
    "materials": {
      "value": "a document written in the language of the culture to be emulated"
    },
    "spellbook": "",
    "shortDescription": "<p>When casting this spell, you must concentrate on the culture to which you wish to adapt. If you speak the native language of the culture in question, then for the duration of this spell, you speak the language with a native accent. The spell does not teach you the language in question, but may be combined with tongues or a similar spell. Your body language and gestures mark you as a native of the culture, and you unconsciously make small decisions that help you blend in. These combined new traits give you a +2 on @UUID[Compendium.pf1.pf1e-rules.x175kVqUfLGPt8tC.JournalEntryPage.uB9Fy36RUjibxqvt]{Diplomacy} checks made to influence members of the culture to which you have adapted. You also gain a +2 circumstance bonus on @UUID[Compendium.pf1.pf1e-rules.x175kVqUfLGPt8tC.JournalEntryPage.xg25z3GIpS590NDW]{Disguise} checks made to pass yourself off as a member of the culture. Additionally, the DCs of enchantment (charm) spells you cast against natives of the culture to which you are attuned increase by +1.</p><p><em>Editor's Note:</em> Further setting information of the spell can be found in <em>Pathfinder Companion: Humans of Golarion.</em></p>"
  },
  "flags": {},
  "sort": 0,
  "_id": "0ZOD7wKyMRgudbYE"
}
