{
  "_id": "7n9f37zey1q24sog",
  "name": "Dream Shield",
  "type": "spell",
  "img": "systems/pf1/icons/misc/magic-swirl.png",
  "sort": 0,
  "flags": {},
  "system": {
    "tags": [],
    "actions": [
      {
        "_id": "5w6ay6iwfrgnuqbq",
        "name": "Use",
        "img": "systems/pf1/icons/misc/magic-swirl.png",
        "description": "",
        "tag": "",
        "activation": {
          "cost": 1,
          "type": "standard"
        },
        "unchainedAction": {
          "activation": {
            "cost": 2,
            "type": "action"
          }
        },
        "duration": {
          "value": "1 hour/level",
          "units": ""
        },
        "target": {
          "value": "creature touched"
        },
        "range": {
          "value": null,
          "units": "touch",
          "maxIncrements": 1,
          "minValue": null,
          "minUnits": ""
        },
        "uses": {
          "autoDeductChargesCost": "",
          "self": {
            "value": 0,
            "maxFormula": "",
            "per": null
          },
          "per": "",
          "value": 0,
          "maxFormula": ""
        },
        "measureTemplate": {
          "type": "",
          "size": "0",
          "overrideColor": false,
          "customColor": "",
          "overrideTexture": false,
          "customTexture": ""
        },
        "attackName": "",
        "actionType": "spellsave",
        "attackBonus": "",
        "critConfirmBonus": "",
        "damage": {
          "parts": [],
          "critParts": [],
          "nonCritParts": []
        },
        "attackParts": [],
        "formulaicAttacks": {
          "count": {
            "formula": ""
          },
          "bonus": {
            "formula": ""
          },
          "label": null
        },
        "formula": "",
        "ability": {
          "attack": "",
          "damage": "",
          "damageMult": 1,
          "critRange": 20,
          "critMult": 2
        },
        "save": {
          "dc": "0",
          "type": "will",
          "description": "Will negates (harmless)"
        },
        "effectNotes": [],
        "attackNotes": [],
        "soundEffect": "",
        "powerAttack": {
          "multiplier": "",
          "damageBonus": 2,
          "critMultiplier": 1
        },
        "naturalAttack": {
          "primaryAttack": true,
          "secondary": {
            "attackBonus": "-5",
            "damageMult": 0.5
          }
        },
        "nonlethal": false,
        "usesAmmo": false,
        "spellEffect": "",
        "spellArea": "",
        "conditionals": [],
        "enh": {
          "value": null
        }
      }
    ],
    "uses": {
      "per": ""
    },
    "attackNotes": [],
    "effectNotes": [],
    "links": {
      "children": []
    },
    "scriptCalls": [],
    "learnedAt": {
      "class": [
        ["sorcerer/wizard", 4],
        ["bard", 2],
        ["alchemist", 2],
        ["witch", 4],
        ["shaman", 2],
        ["psychic", 3],
        ["medium", 2],
        ["mesmerist", 2]
      ],
      "domain": [],
      "subDomain": [],
      "elementalSchool": [],
      "bloodline": []
    },
    "level": 4,
    "school": "abj",
    "components": {
      "verbal": true,
      "somatic": true,
      "material": true
    },
    "materials": {
      "value": "hollow glass ball or dreamcatcher"
    },
    "sr": false,
    "shortDescription": "<p>You ward the target's mind against intrusion and influence while she is unconscious. While sleeping, the target is protected against divinations such as <i>nondetection</i> and gains spell resistance equal to 10 + your caster level against mind-affecting effects. In addition, the subject immediately receives another saving throw (if one was allowed to begin with) against any spell or effect  that would possess or exercise direct mental control over her. This functions in all respects like the second property of <i>Protection from Evil</i> but it applies regardless of the alignment of the creature or object that created the possession or mental influence effect.  If the target is awake, instead of the previous effects, the <i>dream shield</i> provides a +4 bonus on saving throws against sleep effects. The spell's other effects are suppressed while the target is awake. If the target falls asleep or is otherwise rendered unconscious, the other effects of the <i>dream shield</i> resume. Every 10 minutes spent awake consumes 1 hour of the <i>dream shield</i>'s duration.</p>"
  }
}
