{
  "_id": "mqdoexj35atgqafn",
  "name": "Gaseous Form",
  "type": "spell",
  "img": "systems/pf1/icons/misc/magic-swirl.png",
  "sort": 0,
  "flags": {},
  "system": {
    "tags": [],
    "actions": [
      {
        "_id": "rb1g9tex82wq6j03",
        "name": "Use",
        "img": "systems/pf1/icons/misc/magic-swirl.png",
        "description": "",
        "tag": "",
        "activation": {
          "cost": 1,
          "type": "standard"
        },
        "unchainedAction": {
          "activation": {
            "cost": 2,
            "type": "action"
          }
        },
        "duration": {
          "value": "2 min./level (D)",
          "units": ""
        },
        "target": {
          "value": "willing corporeal creature touched"
        },
        "range": {
          "value": null,
          "units": "touch",
          "maxIncrements": 1,
          "minValue": null,
          "minUnits": ""
        },
        "uses": {
          "autoDeductChargesCost": "",
          "self": {
            "value": 0,
            "maxFormula": "",
            "per": null
          },
          "per": "",
          "value": 0,
          "maxFormula": ""
        },
        "measureTemplate": {
          "type": "",
          "size": "0",
          "overrideColor": false,
          "customColor": "",
          "overrideTexture": false,
          "customTexture": ""
        },
        "attackName": "",
        "actionType": "",
        "attackBonus": "",
        "critConfirmBonus": "",
        "damage": {
          "parts": [],
          "critParts": [],
          "nonCritParts": []
        },
        "attackParts": [],
        "formulaicAttacks": {
          "count": {
            "formula": ""
          },
          "bonus": {
            "formula": ""
          },
          "label": null
        },
        "formula": "",
        "ability": {
          "attack": "",
          "damage": "",
          "damageMult": 1,
          "critRange": 20,
          "critMult": 2
        },
        "save": {
          "dc": "0",
          "type": "",
          "description": ""
        },
        "effectNotes": [],
        "attackNotes": [],
        "soundEffect": "",
        "powerAttack": {
          "multiplier": "",
          "damageBonus": 2,
          "critMultiplier": 1
        },
        "naturalAttack": {
          "primaryAttack": true,
          "secondary": {
            "attackBonus": "-5",
            "damageMult": 0.5
          }
        },
        "nonlethal": false,
        "usesAmmo": false,
        "spellEffect": "",
        "spellArea": "",
        "conditionals": [],
        "enh": {
          "value": null
        }
      }
    ],
    "uses": {
      "per": ""
    },
    "attackNotes": [],
    "effectNotes": [],
    "links": {
      "children": []
    },
    "scriptCalls": [],
    "learnedAt": {
      "class": [
        ["sorcerer/wizard", 3],
        ["bard", 3],
        ["alchemist", 3],
        ["magus", 3],
        ["psychic", 3],
        ["medium", 3],
        ["occultist", 3],
        ["spiritualist", 3]
      ],
      "domain": [["Air", 3]],
      "subDomain": [],
      "elementalSchool": [],
      "bloodline": [
        ["Marid", 3],
        ["Nanite", 3],
        ["Protean", 3]
      ]
    },
    "level": 3,
    "school": "trs",
    "components": {
      "somatic": true,
      "material": true,
      "divineFocus": 2
    },
    "materials": {
      "value": "a bit of gauze and a wisp of smoke"
    },
    "sr": false,
    "shortDescription": "<p>The subject and all its gear become insubstantial, misty, and translucent. Its material armor (including natural armor) becomes worthless, though its size, Dexterity, deflection bonuses, and armor bonuses from force effects still apply. The subject gains DR 10/ magic and becomes immune to poison, sneak attacks, and critical hits. It can't attack or cast spells with verbal, somatic, material, or focus components while in <i>gaseous form</i>. This does not rule out the use of certain spells that the subject may have prepared using the feats Silent Spell, Still Spell, and Eschew Materials. The subject also loses supernatural abilities while in <i>gaseous form</i>. If it has a touch spell ready to use, that spell is discharged harmlessly when the <i>gaseous form</i> spell takes effect.</p><p>A gaseous creature can't run, but it can fly at a speed of 10 feet and automatically succeeds on all Fly skill checks. It can pass through small holes or narrow openings, even mere cracks, with all it was wearing or holding in its hands, as long as the spell persists. The creature is subject to the effects of wind, and it can't enter water or other liquid. It also can't manipulate objects or activate items, even those carried along with its <i>gaseous form</i>. Continuously active items remain active, though in some cases their effects may be moot.</p>"
  }
}
