{
  "_id": "hhglvs1metqe403m",
  "name": "Impart Mind",
  "type": "spell",
  "img": "systems/pf1/icons/misc/magic-swirl.png",
  "sort": 0,
  "flags": {},
  "system": {
    "tags": [],
    "actions": [
      {
        "_id": "dhjqkunhum70gfmi",
        "name": "Use",
        "img": "systems/pf1/icons/misc/magic-swirl.png",
        "description": "",
        "tag": "",
        "activation": {
          "cost": 2,
          "type": "round"
        },
        "unchainedAction": {
          "activation": {
            "cost": 6,
            "type": "action"
          }
        },
        "duration": {
          "value": "1 hour/level",
          "units": ""
        },
        "target": {
          "value": "permanent nonintelligent magic item touched"
        },
        "range": {
          "value": null,
          "units": "touch",
          "maxIncrements": 1,
          "minValue": null,
          "minUnits": ""
        },
        "uses": {
          "autoDeductChargesCost": "",
          "self": {
            "value": 0,
            "maxFormula": "",
            "per": null
          },
          "per": "",
          "value": 0,
          "maxFormula": ""
        },
        "measureTemplate": {
          "type": "",
          "size": "0",
          "overrideColor": false,
          "customColor": "",
          "overrideTexture": false,
          "customTexture": ""
        },
        "attackName": "",
        "actionType": "",
        "attackBonus": "",
        "critConfirmBonus": "",
        "damage": {
          "parts": [],
          "critParts": [],
          "nonCritParts": []
        },
        "attackParts": [],
        "formulaicAttacks": {
          "count": {
            "formula": ""
          },
          "bonus": {
            "formula": ""
          },
          "label": null
        },
        "formula": "",
        "ability": {
          "attack": "",
          "damage": "",
          "damageMult": 1,
          "critRange": 20,
          "critMult": 2
        },
        "save": {
          "dc": "0",
          "type": "",
          "description": ""
        },
        "effectNotes": [],
        "attackNotes": [],
        "soundEffect": "",
        "powerAttack": {
          "multiplier": "",
          "damageBonus": 2,
          "critMultiplier": 1
        },
        "naturalAttack": {
          "primaryAttack": true,
          "secondary": {
            "attackBonus": "-5",
            "damageMult": 0.5
          }
        },
        "nonlethal": false,
        "usesAmmo": false,
        "spellEffect": "",
        "spellArea": "",
        "conditionals": [],
        "enh": {
          "value": null
        }
      }
    ],
    "uses": {
      "per": ""
    },
    "attackNotes": [],
    "effectNotes": [],
    "links": {
      "children": []
    },
    "scriptCalls": [],
    "learnedAt": {
      "class": [
        ["sorcerer/wizard", 6],
        ["cleric/oracle", 6],
        ["magus", 5]
      ],
      "domain": [],
      "subDomain": [],
      "elementalSchool": [],
      "bloodline": []
    },
    "level": 6,
    "school": "trs",
    "components": {
      "verbal": true,
      "somatic": true,
      "material": true
    },
    "materials": {
      "value": "diamond dust worth at least 1,000 gp",
      "gpValue": 1000
    },
    "spellbook": "",
    "preparation": {
      "spontaneousPrepared": false
    },
    "sr": false,
    "shortDescription": "<p>This spell grants the target magic item temporary intelligence by siphoning off a tiny portion of your own mind to infuse the object. Only permanent magic items may be enhanced by this spell-one-use items and charged items cannot be affected by <i>impart mind</i>. Intelligent magic items cannot be affected by <i>impart mind</i>.</p><p>When you cast <i>impart mind</i> on a magic item, the item gains an Intelligence, Wisdom, and Charisma score of 10 and gains your alignment. You have no special control over the item once it becomes intelligent, although since it has your alignment, personality conflicts with items you wield won't be a problem. Determine the item's ego normally, as per the rules on intelligent items in the <i>Core Rulebook</i>.</p><p>An item made intelligent via <i>impart mind</i> communicates via speech and has normal senses to a range of 60 feet. It speaks and reads one language known by you-if you know multiple languages, you may choose which language the item knows.</p><p>When you cast <i>impart mind</i> on an item, roll once on Table 15-24 on page 534 of the <i>Core Rulebook</i> to randomly determine the item's power-add your caster level to this roll. By expending additional diamond dust in excess of the 1,000 gp worth of material components required to cast this spell, you can gain further bonuses on the d% roll made to determine the item's power. Every additional 100 gp in diamond dust you use in excess grants a cumulative +1 bonus to the roll, up to a maximum additional bonus equal to your caster level. If the item gains the ability to cast a spell, determine the spell it can cast randomly from spells you know of the appropriate level. If the item gains ranks in a skill, it gains ranks in a random skill in which you have at least 1 rank.</p><p>If you roll above 100, then you can choose one item power on Table 15-24 in the <i>Core Rulebook</i> to grant the item, and the item gains a special purpose. Roll once on Tables 15-25 and 15-26 on page 534 of the <i>Core Rulebook</i> to determine what the item's special purpose and dedicated powers are. These d% rolls are not modified by your caster level or any additional powdered gems you used to cast the spell.</p><p>Once this spell ends, the item reverts to its previous nature-if you cast this spell on the item again, it gains entirely different powers as determined by a new set of rolls.</p>"
  }
}
