{
  "_id": "dymdg2azgrfh7fi3",
  "name": "Implant False Reading",
  "type": "spell",
  "img": "systems/pf1/icons/misc/magic-swirl.png",
  "sort": 0,
  "flags": {},
  "system": {
    "tags": [],
    "actions": [
      {
        "_id": "8zbmq6wigt5xvkl0",
        "name": "Use",
        "img": "systems/pf1/icons/misc/magic-swirl.png",
        "description": "",
        "tag": "",
        "activation": {
          "cost": 1,
          "type": "minute"
        },
        "unchainedAction": {
          "activation": {
            "cost": 1,
            "type": "minute"
          }
        },
        "duration": {
          "value": "1 day/level",
          "units": ""
        },
        "target": {
          "value": "object touched"
        },
        "range": {
          "value": null,
          "units": "touch",
          "maxIncrements": 1,
          "minValue": null,
          "minUnits": ""
        },
        "uses": {
          "autoDeductChargesCost": "",
          "self": {
            "value": 0,
            "maxFormula": "",
            "per": null
          },
          "per": "",
          "value": 0,
          "maxFormula": ""
        },
        "measureTemplate": {
          "type": "",
          "size": "0",
          "overrideColor": false,
          "customColor": "",
          "overrideTexture": false,
          "customTexture": ""
        },
        "attackName": "",
        "actionType": "spellsave",
        "attackBonus": "",
        "critConfirmBonus": "",
        "damage": {
          "parts": [],
          "critParts": [],
          "nonCritParts": []
        },
        "attackParts": [],
        "formulaicAttacks": {
          "count": {
            "formula": ""
          },
          "bonus": {
            "formula": ""
          },
          "label": null
        },
        "formula": "",
        "ability": {
          "attack": "",
          "damage": "",
          "damageMult": 1,
          "critRange": 20,
          "critMult": 2
        },
        "save": {
          "dc": "0",
          "type": "",
          "description": "none; see text"
        },
        "effectNotes": [],
        "attackNotes": [],
        "soundEffect": "",
        "powerAttack": {
          "multiplier": "",
          "damageBonus": 2,
          "critMultiplier": 1
        },
        "naturalAttack": {
          "primaryAttack": true,
          "secondary": {
            "attackBonus": "-5",
            "damageMult": 0.5
          }
        },
        "nonlethal": false,
        "usesAmmo": false,
        "spellEffect": "",
        "spellArea": "",
        "conditionals": [],
        "enh": {
          "value": null
        }
      }
    ],
    "uses": {
      "per": ""
    },
    "attackNotes": [],
    "effectNotes": [],
    "links": {
      "children": []
    },
    "scriptCalls": [],
    "learnedAt": {
      "class": [
        ["psychic", 2],
        ["mesmerist", 2],
        ["occultist", 2]
      ],
      "domain": [],
      "subDomain": [],
      "elementalSchool": [],
      "bloodline": []
    },
    "level": 2,
    "school": "ill",
    "subschool": "glamer",
    "components": {
      "verbal": true,
      "somatic": true
    },
    "sr": false,
    "shortDescription": "<p>You implant a false psychometric reading into an object, imbuing the item with misleading information that might be learned from the <i>object reading</i> spell or through the psychometry occult skill unlock (see page 196). This information might fool enemies, create a false history, or pass on secret messages through objects to psychically attuned allies. You can implant any information you wish that could be implanted by the <i>charge object</i> spell, as well as up to one piece of information per 3 levels that could be attained using psychometry or the <i>object reading</i> spell. You can detail this information in any way you see fit, either making up a previous owner and circumstances involving the object  from whole cloth, or attempting to emulate the biographical information and fictional accounts of a specific individual's experience with the object.  During the spell's duration, creatures reading the object through the <i>object reading</i> spell or the psychometry occult skill unlock receive this false information in place of an item's true history if they fail a Will saving throw. Creatures that succeed at their saves still <i>detect</i> and receive the false information, but recognize it for what is and are able to discern the fictitious information from the item's true history without difficulty.  This spell masks its own magical aura, causing the target to not register as magical to <i>detect</i> spells and similar effects. This masking doesn't conceal any other magical auras on the object, and can be overcome in the same ways as <i>magic aura</i>.</p>"
  }
}
