{
  "_id": "a111te7xsmnclbjr",
  "name": "Lissalan Snake Sigil",
  "type": "spell",
  "img": "systems/pf1/icons/misc/magic-swirl.png",
  "sort": 0,
  "flags": {},
  "system": {
    "tags": [],
    "actions": [
      {
        "_id": "ao9byeqsb7977aws",
        "name": "Use",
        "img": "systems/pf1/icons/misc/magic-swirl.png",
        "description": "",
        "tag": "",
        "activation": {
          "cost": 10,
          "type": "minute"
        },
        "unchainedAction": {
          "activation": {
            "cost": 10,
            "type": "minute"
          }
        },
        "duration": {
          "value": "permanent until discharged; 1 day/level; see text",
          "units": ""
        },
        "target": {
          "value": "one touched book or written work"
        },
        "range": {
          "value": null,
          "units": "touch",
          "maxIncrements": 1,
          "minValue": null,
          "minUnits": ""
        },
        "uses": {
          "autoDeductChargesCost": "",
          "self": {
            "value": 0,
            "maxFormula": "",
            "per": null
          },
          "per": "",
          "value": 0,
          "maxFormula": ""
        },
        "measureTemplate": {
          "type": "",
          "size": "0",
          "overrideColor": false,
          "customColor": "",
          "overrideTexture": false,
          "customTexture": ""
        },
        "attackName": "",
        "actionType": "spellsave",
        "attackBonus": "",
        "critConfirmBonus": "",
        "damage": {
          "parts": [],
          "critParts": [],
          "nonCritParts": []
        },
        "attackParts": [],
        "formulaicAttacks": {
          "count": {
            "formula": ""
          },
          "bonus": {
            "formula": ""
          },
          "label": null
        },
        "formula": "",
        "ability": {
          "attack": "",
          "damage": "",
          "damageMult": 1,
          "critRange": 20,
          "critMult": 2
        },
        "save": {
          "dc": "0",
          "type": "ref",
          "description": "Reflex negates"
        },
        "effectNotes": [],
        "attackNotes": [],
        "soundEffect": "",
        "powerAttack": {
          "multiplier": "",
          "damageBonus": 2,
          "critMultiplier": 1
        },
        "naturalAttack": {
          "primaryAttack": true,
          "secondary": {
            "attackBonus": "-5",
            "damageMult": 0.5
          }
        },
        "nonlethal": false,
        "usesAmmo": false,
        "spellEffect": "",
        "spellArea": "",
        "conditionals": [],
        "enh": {
          "value": null
        }
      }
    ],
    "uses": {
      "per": ""
    },
    "attackNotes": [],
    "effectNotes": [],
    "links": {
      "children": []
    },
    "scriptCalls": [],
    "learnedAt": {
      "class": [
        ["sorcerer/wizard", 3],
        ["cleric/oracle", 3]
      ],
      "domain": [],
      "subDomain": [],
      "elementalSchool": [],
      "bloodline": []
    },
    "level": 3,
    "school": "abj",
    "components": {
      "verbal": true,
      "somatic": true,
      "material": true
    },
    "materials": {
      "value": "powdered amber worth 500 gp and a snake scale",
      "gpValue": 500
    },
    "spellbook": "",
    "preparation": {
      "spontaneousPrepared": false
    },
    "sr": false,
    "shortDescription": "<p>There are seven variants of this spell, one for each of the Thassilonian schools of magic. Each functions like <i>sepia snake sigil</i> (and counts as that spell for the purpose of combining other spells that hide or garble text), except instead of trapping the subject, the triggered sigil's effect depends on this spell's school. This effect lasts for 1 day/level. This is a curse effect that can be removed via <i>remove curse</i>. <i>Abjuration</i>: All beneficial magical effects on the target last half as long as normal. <i>Conjuration</i>: The target is nauseated. This is a poison effect. <i>Enchantment</i>: The target takes a 1d6 penalty to Intelligence, Wisdom, and Charisma. This is a compulsion effect. <i>Evocation</i>: The target gains vulnerability to an energy type, chosen randomly from the following: acid, cold, electricity, or fire. This is an acid, cold, electricity, or fire effect. <i>Illusion</i>: The target's vision is blurred, giving it a -4 penalty on Perception checks relating to vision, and the target treats all other creatures as having <i>displacement</i>. This is a glamer effect. <i>Necromancy</i>: The target is exhausted. This condition cannot be removed with rest. <i>Transmutation</i>: Target is affected by <i>slow</i>.</p>"
  }
}
