{
  "_id": "swff0huj9ese8t56",
  "name": "Mask from Divination",
  "type": "spell",
  "img": "systems/pf1/icons/misc/magic-swirl.png",
  "sort": 0,
  "flags": {},
  "system": {
    "tags": [],
    "actions": [
      {
        "_id": "1gwxu1afq3thq7co",
        "name": "Use",
        "img": "systems/pf1/icons/misc/magic-swirl.png",
        "description": "",
        "tag": "",
        "activation": {
          "cost": 1,
          "type": "standard"
        },
        "unchainedAction": {
          "activation": {
            "cost": 2,
            "type": "action"
          }
        },
        "duration": {
          "value": "24 hours",
          "units": ""
        },
        "target": {
          "value": "creature touched"
        },
        "range": {
          "value": null,
          "units": "touch",
          "maxIncrements": 1,
          "minValue": null,
          "minUnits": ""
        },
        "uses": {
          "autoDeductChargesCost": "",
          "self": {
            "value": 0,
            "maxFormula": "",
            "per": null
          },
          "per": "",
          "value": 0,
          "maxFormula": ""
        },
        "measureTemplate": {
          "type": "",
          "size": "0",
          "overrideColor": false,
          "customColor": "",
          "overrideTexture": false,
          "customTexture": ""
        },
        "attackName": "",
        "actionType": "spellsave",
        "attackBonus": "",
        "critConfirmBonus": "",
        "damage": {
          "parts": [],
          "critParts": [],
          "nonCritParts": []
        },
        "attackParts": [],
        "formulaicAttacks": {
          "count": {
            "formula": ""
          },
          "bonus": {
            "formula": ""
          },
          "label": null
        },
        "formula": "",
        "ability": {
          "attack": "",
          "damage": "",
          "damageMult": 1,
          "critRange": 20,
          "critMult": 2
        },
        "save": {
          "dc": "0",
          "type": "will",
          "description": "Will negates (harmless, object)"
        },
        "effectNotes": [],
        "attackNotes": [],
        "soundEffect": "",
        "powerAttack": {
          "multiplier": "",
          "damageBonus": 2,
          "critMultiplier": 1
        },
        "naturalAttack": {
          "primaryAttack": true,
          "secondary": {
            "attackBonus": "-5",
            "damageMult": 0.5
          }
        },
        "nonlethal": false,
        "usesAmmo": false,
        "spellEffect": "",
        "spellArea": "",
        "conditionals": [],
        "enh": {
          "value": null
        }
      }
    ],
    "uses": {
      "per": ""
    },
    "attackNotes": [],
    "effectNotes": [],
    "links": {
      "children": []
    },
    "scriptCalls": [],
    "learnedAt": {
      "class": [
        ["sorcerer/wizard", 5],
        ["alchemist", 5],
        ["witch", 5],
        ["magus", 5],
        ["bloodrager", 4],
        ["shaman", 5]
      ],
      "domain": [],
      "subDomain": [],
      "elementalSchool": [],
      "bloodline": []
    },
    "level": 5,
    "school": "div",
    "components": {
      "verbal": true,
      "somatic": true,
      "material": true,
      "focus": true
    },
    "materials": {
      "value": "diamond dust worth 200 gp",
      "focus": "an eyeless mask",
      "gpValue": 200
    },
    "spellbook": "",
    "preparation": {
      "spontaneousPrepared": false
    },
    "shortDescription": "<p>As part of the action used to cast this spell, you place the mask used as the focus component on the target's face, after which it adheres tightly to the target for the spell's duration and cannot be removed by physical force. Despite lacking eyes, this mask does not impair its wearer's vision in any way. While in effect, this spell functions like <i>nondetection</i>, except it also foils divination spells that attempt to gather information about the creature, even if they don't target it specifically. In the case of divination spells that would normally reveal the wearer's presence, such as <i>see invisibility</i>, the spell works, but the wearer is detected only if the caster succeeds at a caster level check. Likewise, scrying attempts that specifically target the wearer do not work at all unless the caster succeeds at a caster level check. In addition, the DCs of skill checks to learn about the wearer or identify the wearer and its strengths and weaknesses- including Diplomacy checks to gather information, Perception checks opposed by the target's Disguise checks, and Knowledge checks-increase by 4. The mask cannot be removed for the duration of the spell, and the fact that the target is wearing the focus mask cannot be hidden in any way from creatures that observe the target.</p>"
  }
}
