{
  "name": "Silt Sphere",
  "type": "spell",
  "img": "systems/pf1/icons/misc/magic-swirl.png",
  "system": {
    "tags": [],
    "actions": [
      {
        "_id": "7z9y6sQgeNfp4FH5",
        "name": "Use",
        "img": "systems/pf1/icons/misc/magic-swirl.png",
        "description": "",
        "tag": "",
        "activation": {
          "cost": 1,
          "type": "standard"
        },
        "unchainedAction": {
          "activation": {
            "cost": 2,
            "type": "action"
          }
        },
        "duration": {
          "value": "1 minute/level (D)",
          "units": ""
        },
        "target": {
          "value": ""
        },
        "range": {
          "value": "20",
          "units": "ft",
          "maxIncrements": 1,
          "minValue": null,
          "minUnits": ""
        },
        "uses": {
          "autoDeductChargesCost": "",
          "self": {
            "value": 0,
            "maxFormula": "",
            "per": ""
          }
        },
        "measureTemplate": {
          "type": "",
          "size": "",
          "overrideColor": false,
          "customColor": "",
          "overrideTexture": false,
          "customTexture": ""
        },
        "attackName": "",
        "actionType": "other",
        "attackBonus": "",
        "critConfirmBonus": "",
        "damage": {
          "parts": [],
          "critParts": [],
          "nonCritParts": []
        },
        "attackParts": [],
        "formulaicAttacks": {
          "count": {
            "formula": ""
          },
          "bonus": {
            "formula": ""
          },
          "label": null
        },
        "formula": "",
        "ability": {
          "attack": null,
          "damage": "",
          "damageMult": 1,
          "critRange": 20,
          "critMult": 2
        },
        "save": {
          "dc": "",
          "type": "",
          "description": "none"
        },
        "effectNotes": [],
        "attackNotes": [],
        "soundEffect": "",
        "powerAttack": {
          "multiplier": "",
          "damageBonus": 2,
          "critMultiplier": 1
        },
        "naturalAttack": {
          "primaryAttack": true,
          "secondary": {
            "attackBonus": "-5",
            "damageMult": 0.5
          }
        },
        "nonlethal": false,
        "usesAmmo": false,
        "spellEffect": "20-ft.-radius centered on you",
        "spellArea": "",
        "conditionals": [],
        "enh": {
          "value": null
        }
      }
    ],
    "uses": {
      "autoDeductChargesCost": ""
    },
    "attackNotes": [],
    "effectNotes": [],
    "links": {
      "children": []
    },
    "scriptCalls": [],
    "learnedAt": {
      "class": [
        ["arcanist", 3],
        ["bard", 3],
        ["skald", 3],
        ["sorcerer/wizard", 3]
      ],
      "domain": [],
      "subDomain": [],
      "elementalSchool": [],
      "bloodline": []
    },
    "level": 3,
    "school": "ill",
    "subschool": "glamer",
    "components": {
      "verbal": true,
      "somatic": true,
      "material": true
    },
    "materials": {
      "value": "a smooth stone"
    },
    "spellbook": "",
    "sr": false,
    "shortDescription": "<p>This spell generates an illusory silt cloud that drifts around you and moves with you. The cloud provides total concealment to creatures within it (including you) when the spell is cast. Creatures moving into the cloud after the spell is cast gain concealment (but not total concealment) due to the illusion. Any creatures within the cloud can see each other normally and can see out from within the cloud as though it were transparent. If a creature other than you that has total concealment due to the cloud makes an attack against any foe, it loses total concealment and gains concealment instead. If you make an attack against any creature, the spell ends.</p><p>A creature that examines the cloud from the outside and succeeds at a DC 20 Knowledge (nature) check notices the silt cloud is unnaturally compact and fast moving, and that creature can attempt an immediate saving throw to disbelieve the illusion. Other circumstances (such as if the silt cloud floats in the middle of otherwise clear waters) can modify the DC of the Knowledge (nature) check.</p><p>This spell can be cast only underwater.</p>"
  },
  "flags": {},
  "sort": 0,
  "_id": "pnxVYE4O81jmuKyR"
}
