{
  "_id": "psray5e9r6gwjlnb",
  "name": "Soulseeker",
  "type": "spell",
  "img": "systems/pf1/icons/misc/magic-swirl.png",
  "sort": 0,
  "flags": {},
  "system": {
    "tags": [],
    "actions": [
      {
        "_id": "x1lko216nw495y10",
        "name": "Use",
        "img": "systems/pf1/icons/misc/magic-swirl.png",
        "description": "",
        "tag": "",
        "activation": {
          "cost": 1,
          "type": "hour"
        },
        "unchainedAction": {
          "activation": {
            "cost": 1,
            "type": "hour"
          }
        },
        "duration": {
          "value": "instantaneous or 1 hour/level",
          "units": ""
        },
        "target": {
          "value": "one soul"
        },
        "range": {
          "value": null,
          "units": "",
          "maxIncrements": 1,
          "minValue": null,
          "minUnits": ""
        },
        "uses": {
          "autoDeductChargesCost": "",
          "self": {
            "value": 0,
            "maxFormula": "",
            "per": null
          },
          "per": "",
          "value": 0,
          "maxFormula": ""
        },
        "measureTemplate": {
          "type": "",
          "size": "0",
          "overrideColor": false,
          "customColor": "",
          "overrideTexture": false,
          "customTexture": ""
        },
        "attackName": "",
        "actionType": "spellsave",
        "attackBonus": "",
        "critConfirmBonus": "",
        "damage": {
          "parts": [],
          "critParts": [],
          "nonCritParts": []
        },
        "attackParts": [],
        "formulaicAttacks": {
          "count": {
            "formula": ""
          },
          "bonus": {
            "formula": ""
          },
          "label": null
        },
        "formula": "",
        "ability": {
          "attack": "",
          "damage": "",
          "damageMult": 1,
          "critRange": 20,
          "critMult": 2
        },
        "save": {
          "dc": "0",
          "type": "will",
          "description": "Will negates (see text)"
        },
        "effectNotes": [],
        "attackNotes": [],
        "soundEffect": "",
        "powerAttack": {
          "multiplier": "",
          "damageBonus": 2,
          "critMultiplier": 1
        },
        "naturalAttack": {
          "primaryAttack": true,
          "secondary": {
            "attackBonus": "-5",
            "damageMult": 0.5
          }
        },
        "nonlethal": false,
        "usesAmmo": false,
        "spellEffect": "",
        "spellArea": "",
        "conditionals": [],
        "enh": {
          "value": null
        }
      }
    ],
    "uses": {
      "per": ""
    },
    "attackNotes": [],
    "effectNotes": [],
    "links": {
      "children": []
    },
    "scriptCalls": [],
    "learnedAt": {
      "class": [
        ["cleric/oracle", 8],
        ["witch", 8],
        ["shaman", 8],
        ["medium", 4],
        ["occultist", 6],
        ["spiritualist", 6]
      ],
      "domain": [],
      "subDomain": [],
      "elementalSchool": [],
      "bloodline": []
    },
    "level": 8,
    "school": "div",
    "components": {
      "verbal": true,
      "somatic": true,
      "material": true,
      "focus": true
    },
    "materials": {
      "value": "incense worth 250 gp",
      "focus": "see text",
      "gpValue": 250
    },
    "spellbook": "",
    "preparation": {
      "spontaneousPrepared": false
    },
    "sr": false,
    "shortDescription": "<p>You identify the stage of a given soul's judgment, or determine its fate post-judgment. You must either unambiguously identify  the soul you seek or use the skull of the body the soul vacated as a focus. If the subject does not share your alignment, the soul can attempt a Will save to resist this spell's effects as if it were still alive. If the subject is still alive or its soul has been destroyed, this spell fails without providing any information.  If the soul has not yet been judged and moved on to its final reward or punishment, <i>soulseeker</i> provides an estimate of its location; in most cases, this is somewhere in the River of Souls or the Boneyard. While this may assist in physically traveling to the soul's location, especially in cases involving effects such as <i>soul bind</i> or a devourer's devour soul ability, the spell's primary purpose is to identify how long the subject has been dead (and what form of life-restoring magic is necessary). If the soul has already been judged, <i>soulseeker</i> instead identifies the plane to which the soul has been sent as a petitioner and the petitioner's general location on that plane (such as \"Elysium, beneath the boughs of the Witchwood\").  If <i>soulseeker</i> is cast on the same plane on which the soul's new petitioner form currently exists, it guides you along the shortest, most direct physical route to the petitioner, as described in <i>find the path</i>. In this case, the spell's duration is 1 hour per level.</p>"
  }
}
