{
  "_id": "ponwppzb2occx5ym",
  "name": "Spellsteal",
  "type": "spell",
  "img": "systems/pf1/icons/misc/magic-swirl.png",
  "sort": 0,
  "flags": {},
  "system": {
    "tags": [],
    "actions": [
      {
        "_id": "v80jijlhwcwetdt6",
        "name": "Use",
        "img": "systems/pf1/icons/misc/magic-swirl.png",
        "description": "",
        "tag": "",
        "activation": {
          "cost": 1,
          "type": "standard"
        },
        "unchainedAction": {
          "activation": {
            "cost": 2,
            "type": "action"
          }
        },
        "duration": {
          "value": "instantaneous and see text",
          "units": ""
        },
        "target": {
          "value": "one creature"
        },
        "range": {
          "value": null,
          "units": "medium",
          "maxIncrements": 1,
          "minValue": null,
          "minUnits": ""
        },
        "uses": {
          "autoDeductChargesCost": "",
          "self": {
            "value": 0,
            "maxFormula": "",
            "per": null
          },
          "per": "",
          "value": 0,
          "maxFormula": ""
        },
        "measureTemplate": {
          "type": "",
          "size": "0",
          "overrideColor": false,
          "customColor": "",
          "overrideTexture": false,
          "customTexture": ""
        },
        "attackName": "",
        "actionType": "spellsave",
        "attackBonus": "",
        "critConfirmBonus": "",
        "damage": {
          "parts": [],
          "critParts": [],
          "nonCritParts": []
        },
        "attackParts": [],
        "formulaicAttacks": {
          "count": {
            "formula": ""
          },
          "bonus": {
            "formula": ""
          },
          "label": null
        },
        "formula": "",
        "ability": {
          "attack": "",
          "damage": "",
          "damageMult": 1,
          "critRange": 20,
          "critMult": 2
        },
        "save": {
          "dc": "0",
          "type": "will",
          "description": "Will negates"
        },
        "effectNotes": [],
        "attackNotes": [],
        "soundEffect": "",
        "powerAttack": {
          "multiplier": "",
          "damageBonus": 2,
          "critMultiplier": 1
        },
        "naturalAttack": {
          "primaryAttack": true,
          "secondary": {
            "attackBonus": "-5",
            "damageMult": 0.5
          }
        },
        "nonlethal": false,
        "usesAmmo": false,
        "spellEffect": "",
        "spellArea": "",
        "conditionals": [],
        "enh": {
          "value": null
        }
      }
    ],
    "uses": {
      "per": ""
    },
    "attackNotes": [],
    "effectNotes": [],
    "links": {
      "children": []
    },
    "scriptCalls": [],
    "learnedAt": {
      "class": [
        ["sorcerer/wizard", 5],
        ["cleric/oracle", 5],
        ["witch", 5],
        ["psychic", 5]
      ],
      "domain": [],
      "subDomain": [],
      "elementalSchool": [],
      "bloodline": []
    },
    "level": 5,
    "school": "abj",
    "components": {
      "verbal": true,
      "somatic": true
    },
    "shortDescription": "<p>You create a discordant blast of energy that disrupts the target's available magic and transfers knowledge of that magic to you.  If the target prepares spells, it must choose one of its prepared 3rd-level spells, which is immediately lost. If the target has no 3rd-level spells prepared, it loses a 2nd-level spell it has prepared. This progresses down to a 1st-level spell if the target has no 2nd-level spells prepared, and this spell has no effect if the target also has no 1st-level spells prepared. If the spell is on your spell list, you can cast this lost spell (using your caster level) on your next turn.  If the target is a spontaneous spellcaster, it loses one of its available 3rd-level spell slots. If the target has no available 3rd-level spell slots, it must lose a 2nd-level spell slot (progressing as above). Randomly select one of the target's spells known of that spell level; if that spell is on your spell list, you can cast it (using your caster level) on your next turn.  You must provide any focus or material components to cast the stolen spell.  If the target has more than one spellcasting class, choose one at random to be affected. This spell has no effect on spell-like abilities.  Any spell or spell slot lost because of this spell is treated as if the caster had failed a concentration check while trying to cast-the spell or spell slot is wasted and has no effect, but it is recovered normally the next time the character prepares spells or regains spell slots.</p>"
  }
}
