{
  "name": "Telepathic Silence",
  "type": "spell",
  "img": "icons/magic/control/silhouette-aura-energy.webp",
  "system": {
    "tags": [],
    "actions": [
      {
        "_id": "XhoynDPSyzbAGP4Q",
        "name": "Use",
        "img": "icons/magic/control/silhouette-aura-energy.webp",
        "description": "",
        "tag": "",
        "activation": {
          "cost": 1,
          "type": "round"
        },
        "unchainedAction": {
          "activation": {
            "cost": 3,
            "type": "action"
          }
        },
        "duration": {
          "value": "1 round/level (D)",
          "units": ""
        },
        "target": {
          "value": ""
        },
        "range": {
          "value": null,
          "units": "long",
          "maxIncrements": 1,
          "minValue": null,
          "minUnits": ""
        },
        "uses": {
          "autoDeductChargesCost": "",
          "self": {
            "value": 0,
            "maxFormula": "",
            "per": ""
          }
        },
        "measureTemplate": {
          "type": "circle",
          "size": "60",
          "overrideColor": false,
          "customColor": "",
          "overrideTexture": false,
          "customTexture": ""
        },
        "attackName": "",
        "actionType": "",
        "attackBonus": "",
        "critConfirmBonus": "",
        "damage": {
          "parts": [],
          "critParts": [],
          "nonCritParts": []
        },
        "attackParts": [],
        "formulaicAttacks": {
          "count": {
            "formula": ""
          },
          "bonus": {
            "formula": ""
          },
          "label": null
        },
        "formula": "",
        "ability": {
          "attack": null,
          "damage": null,
          "damageMult": 1,
          "critRange": 20,
          "critMult": 2
        },
        "save": {
          "dc": "",
          "type": "",
          "description": ""
        },
        "effectNotes": [],
        "attackNotes": [],
        "soundEffect": "",
        "powerAttack": {
          "multiplier": null,
          "damageBonus": 2,
          "critMultiplier": 1
        },
        "naturalAttack": {
          "primaryAttack": true,
          "secondary": {
            "attackBonus": "-5",
            "damageMult": 0.5
          }
        },
        "nonlethal": false,
        "touch": false,
        "usesAmmo": false,
        "spellEffect": "",
        "spellArea": "60-ft.-radius emanation centered on a point in space",
        "conditionals": [],
        "enh": {
          "value": null
        }
      }
    ],
    "uses": {
      "autoDeductChargesCost": ""
    },
    "attackNotes": [],
    "effectNotes": [],
    "links": {
      "children": []
    },
    "scriptCalls": [],
    "learnedAt": {
      "class": [
        ["medium", 4],
        ["mesmerist", 4],
        ["occultist", 4],
        ["psychic", 4],
        ["spiritualist", 4]
      ],
      "domain": [],
      "subDomain": [],
      "elementalSchool": [],
      "bloodline": []
    },
    "level": 4,
    "school": "ill",
    "subschool": "glamer",
    "components": {
      "verbal": true,
      "somatic": true
    },
    "spellbook": "",
    "sr": false,
    "shortDescription": "<p>Creatures within the area cannot send or receive telepathic messages, and anyone in the area casting a spell with a thought component must succeed at a concentration check (DC = 20 + twice the spell’s level; this includes the increased concentration DC for casting spells with a thought component) or lose the spell. Furthermore, the thoughts of creatures within the area cannot be detected, located, or read with thoughtsense, detect thoughts, or similar effects. <em>Telepathic silence</em> does not hinder spells that target a creature’s mind or that do not rely on communication, such as @Compendium[pf1.spells.rvf2gxyy1d4strae]{mind thrust}.</p>"
  },
  "flags": {},
  "sort": 0,
  "_id": "4cTBeTF32aOcJbVd"
}
