{
  "_id": "c4kdcyco9k6nq5um",
  "name": "Zone of Foul Flames",
  "type": "spell",
  "img": "systems/pf1/icons/misc/magic-swirl.png",
  "sort": 0,
  "flags": {},
  "system": {
    "tags": [],
    "actions": [
      {
        "_id": "3phuct7du4auwv5a",
        "name": "Use",
        "img": "systems/pf1/icons/misc/magic-swirl.png",
        "description": "",
        "tag": "",
        "activation": {
          "cost": 1,
          "type": "standard"
        },
        "unchainedAction": {
          "activation": {
            "cost": 2,
            "type": "action"
          }
        },
        "duration": {
          "value": "1 minute/level",
          "units": ""
        },
        "target": {
          "value": ""
        },
        "range": {
          "value": null,
          "units": "close",
          "maxIncrements": 1,
          "minValue": null,
          "minUnits": ""
        },
        "uses": {
          "autoDeductChargesCost": "",
          "self": {
            "value": 0,
            "maxFormula": "",
            "per": null
          },
          "per": "",
          "value": 0,
          "maxFormula": ""
        },
        "measureTemplate": {
          "type": "",
          "size": "0",
          "overrideColor": false,
          "customColor": "",
          "overrideTexture": false,
          "customTexture": ""
        },
        "attackName": "",
        "actionType": "spellsave",
        "attackBonus": "",
        "critConfirmBonus": "",
        "damage": {
          "parts": [],
          "critParts": [],
          "nonCritParts": []
        },
        "attackParts": [],
        "formulaicAttacks": {
          "count": {
            "formula": ""
          },
          "bonus": {
            "formula": ""
          },
          "label": null
        },
        "formula": "",
        "ability": {
          "attack": "",
          "damage": "",
          "damageMult": 1,
          "critRange": 20,
          "critMult": 2
        },
        "save": {
          "dc": "0",
          "type": "will",
          "description": "Will negates"
        },
        "effectNotes": [],
        "attackNotes": [],
        "soundEffect": "",
        "powerAttack": {
          "multiplier": "",
          "damageBonus": 2,
          "critMultiplier": 1
        },
        "naturalAttack": {
          "primaryAttack": true,
          "secondary": {
            "attackBonus": "-5",
            "damageMult": 0.5
          }
        },
        "nonlethal": false,
        "usesAmmo": false,
        "spellEffect": "",
        "spellArea": "20-ft.-radius spread",
        "conditionals": [],
        "enh": {
          "value": null
        }
      }
    ],
    "uses": {
      "per": ""
    },
    "attackNotes": [],
    "effectNotes": [],
    "links": {
      "children": []
    },
    "scriptCalls": [],
    "learnedAt": {
      "class": [
        ["druid", 4],
        ["hunter", 4]
      ],
      "domain": [],
      "subDomain": [],
      "elementalSchool": [],
      "bloodline": []
    },
    "level": 4,
    "school": "trs",
    "components": {
      "verbal": true,
      "somatic": true,
      "material": true
    },
    "materials": {
      "value": "a sliver of tree bark from a burnt tree from the Uskwood"
    },
    "shortDescription": "<p>The twisted druids of the Uskwood forsook fire in ages past for the glory of Zon-Kuthon. Despite this aversion, these servants of Nidal know well the sting of flame, and have learned to turn it back on those that wield it. This spell creates a zone where magical fire effects twist and lash out against those who create the effects. A <i>zone of foul flames</i> looks unremarkable to the casual observer, but a Perception check (DC = 20 + the caster's level) reveals a faint rippling effect in the area, as if of heat distortions in the air.</p><p>Whenever a creature casts a spell with the fire descriptor or activates a magical fire effect (as from a magic item or a special attack) while that creature is located in a <i>zone of foul flames</i>, that creature takes full fire damage from the effect.</p><p>If the effect allows a saving throw to reduce the damage, the victim may attempt the same saving throw to reduce the damage. All creatures in a <i>zone of foul flames</i> gain a +4 circumstance bonus on all saving throws against fire effects, except for those made by a creature attempting to save against fire damage from his own magic. Nonmagical fire in a <i>zone of foul flames</i> burns half as brightly but is otherwise not affected.</p>"
  }
}
