{
  "_id": "ON7b8yS1lcBxkMuo",
  "name": "Roll Saving Throw",
  "type": "script",
  "flags": {},
  "scope": "global",
  "command": "// CONFIGURATION\n// Leave the actorNames array empty to guess the players\n// Example actorNames: `actorNames: [\"Bob\", \"John\"],`\nconst c = {\n  actorNames: [],\n};\n// END CONFIGURATION\n\nconst tokens = canvas.tokens.controlled;\nlet actors = tokens.map(o => o.actor);\nif (!actors.length && c.actorNames.length) actors = game.actors.filter(o => c.actorNames.includes(o.name));\nif (!actors.length) actors = game.actors.filter(o => o.isPC && o.testUserPermission(game.user, \"OWNER\"));\nactors = actors.filter(o => o.testUserPermission(game.user, \"OWNER\"));\n\nif (!actors.length) ui.notifications.warn(\"No applicable actor(s) found\");\nelse {\n  const _roll = async function(type) {\n    for (let a = 0; a < actors.length; a++) {\n      const o = actors[a];\n      await o.rollSavingThrow(type, { event: new MouseEvent({}), noSound: a > 0, });\n    }\n  };\n\n  const msg = `Choose a saving throw to roll for the following actor(s): <strong>${actors.map(o => o.name).join(\"</strong>, <strong>\")}</strong>`;\n\n  new Dialog({\n    title: \"Roll saving throw\",\n    content: `<p>${msg}</p>`,\n    buttons: {\n      fort: {\n        label: \"Fortitude\",\n        callback: () => _roll(\"fort\"),\n      },\n      ref: {\n        label: \"Reflex\",\n        callback: () => _roll(\"ref\"),\n      },\n      will: {\n        label: \"Will\",\n        callback: () => _roll(\"will\"),\n      },\n    },\n  }).render(true);\n}",
  "author": "T9i9xVjdkHeFZC72",
  "img": "systems/pf1/icons/feats/diehard.jpg",
  "actorIds": []
}
