{
  "_id": "uynVENa0deVdmf53",
  "name": "Antipaladin",
  "type": "class",
  "img": "systems/pf1/icons/skills/shadow_03.jpg",
  "sort": 0,
  "flags": {},
  "system": {
    "description": {
      "value": "<p>Although it is a rare occurrence, paladins do sometimes stray from the path of righteousness. Most of these wayward holy warriors seek out redemption and forgiveness for their misdeeds, regaining their powers through piety, charity, and powerful magic. Yet there are others, the dark and disturbed few, who turn actively to evil, courting the dark powers they once railed against in order to take vengeance on their former brothers. It’s said that those who climb the farthest have the farthest to fall, and antipaladins are living proof of this fact, their pride and hatred blinding them to the glory of their forsaken patrons.</p>\n<p>Antipaladins become the antithesis of their former selves. They make pacts with fiends, take the lives of the innocent, and put nothing ahead of their personal power and wealth. Champions of evil, they often lead armies of evil creatures and work with other villains to bring ruin to the holy and tyranny to the weak. Not surprisingly, paladins stop at nothing to put an end to such nefarious antiheroes.</p>\n<p><strong>Role</strong>: Antipaladins are villains at their most dangerous. They care nothing for the lives of others and actively seek to bring death and destruction to ordered society. They rarely travel with those that they do not subjugate, unless as part of a ruse to bring ruin from within.</p>\n<p><strong>Alignment</strong>: Chaotic evil.</p>\n<p><strong>Hit Die</strong>: d10.</p>\n<p><strong>Starting Wealth</strong>: 5d6 × 10 gp (average 175 gp.) In addition, each character begins play with an outfit worth 10 gp or less.</p>\n<h2>Class skills</h2>\n<p>The antipaladin’s class skills are <em>Bluff</em> (<em>Cha</em>), <em>Craft</em> (<em>Int</em>), <em>Disguise</em> (<em>Cha</em>), <em>Handle Animal</em> (<em>Cha</em>), <em>Intimidate</em> (<em>Cha</em>), <em>Knowledge</em> (religion) (<em>Int</em>), <em>Profession</em> (<em>Wis</em>), <em>Ride</em> (<em>Dex</em>), <em>Sense Motive</em> (<em>Wis</em>), <em>Spellcraft</em> (<em>Int</em>), and <em>Stealth</em> (<em>Dex</em>).</p>\n<p><strong>Skill Ranks per Level</strong>: 2 + <em>Int</em> modifier.</p>"
    },
    "casting": {
      "type": "prepared",
      "progression": "low",
      "ability": "cha",
      "spells": "divine",
      "cantrips": false
    },
    "tags": [],
    "changes": [],
    "links": {
      "children": [],
      "classAssociations": [
        {
          "id": "pf1.class-abilities.2YA3Ken4K90rB0EE",
          "dataType": "compendium",
          "name": "Aura of Evil",
          "img": "systems/pf1/icons/skills/blood_10.jpg",
          "level": 1,
          "_index": 0
        },
        {
          "id": "pf1.class-abilities.aqB7IymBc8kzJbzQ",
          "dataType": "compendium",
          "name": "Unholy Champion",
          "img": "systems/pf1/icons/skills/yellow_14.jpg",
          "level": 20,
          "_index": 1
        },
        {
          "id": "pf1.class-abilities.LkbGAZaa2KDrnS89",
          "dataType": "compendium",
          "name": "Aura of Depravity",
          "img": "systems/pf1/icons/spells/horror-red-1.jpg",
          "level": 17,
          "_index": 2
        },
        {
          "id": "pf1.class-abilities.nyz3JgtYMrJZF6o5",
          "dataType": "compendium",
          "name": "Aura of Sin",
          "img": "systems/pf1/icons/spells/enchant-red-1.jpg",
          "level": 14,
          "_index": 3
        },
        {
          "id": "pf1.class-abilities.SqTaI2sHPIZpLDtQ",
          "dataType": "compendium",
          "name": "Aura of Vengeance",
          "img": "systems/pf1/icons/spells/slice-spirit-3.jpg",
          "level": 11,
          "_index": 4
        },
        {
          "id": "pf1.class-abilities.31CVgcirb74C3ieQ",
          "dataType": "compendium",
          "name": "Aura of Despair (APA)",
          "img": "systems/pf1/icons/skills/affliction_03.jpg",
          "level": 8,
          "_index": 5
        },
        {
          "id": "pf1.class-abilities.LYWqXODjRJjVJeQ1",
          "dataType": "compendium",
          "name": "Fiendish Boon",
          "img": "systems/pf1/icons/skills/weapon_29.jpg",
          "level": 5,
          "_index": 6
        },
        {
          "id": "pf1.class-abilities.veyAa4qdI9lqSx6m",
          "dataType": "compendium",
          "name": "Channel Negative Energy",
          "img": "systems/pf1/icons/skills/violet_17.jpg",
          "level": 4,
          "_index": 7
        },
        {
          "id": "pf1.class-abilities.dhBZs1g1QQNQM3vm",
          "dataType": "compendium",
          "name": "Aura of Cowardice",
          "img": "systems/pf1/icons/skills/yellow_18.jpg",
          "level": 3,
          "_index": 8
        },
        {
          "id": "pf1.class-abilities.jz0LkAoq9lgyZXGM",
          "dataType": "compendium",
          "name": "Plague Bringer",
          "img": "systems/pf1/icons/skills/affliction_03.jpg",
          "level": 3,
          "_index": 9
        },
        {
          "id": "pf1.class-abilities.zwZnq5WCBCijev6o",
          "dataType": "compendium",
          "name": "Cruelty",
          "img": "systems/pf1/icons/skills/affliction_04.jpg",
          "level": 3,
          "_index": 10
        },
        {
          "id": "pf1.class-abilities.aabyB4FV9OH7hcYZ",
          "dataType": "compendium",
          "name": "Touch of Corruption",
          "img": "systems/pf1/icons/skills/green_15.jpg",
          "level": 2,
          "_index": 11
        },
        {
          "id": "pf1.class-abilities.J0CtwXcv94eGCSaW",
          "dataType": "compendium",
          "name": "Unholy Resilience",
          "img": "systems/pf1/icons/skills/yellow_08.jpg",
          "level": 2,
          "_index": 12
        },
        {
          "id": "pf1.class-abilities.4RSsmGUZBhTiGmSj",
          "dataType": "compendium",
          "name": "Detect Good",
          "img": "systems/pf1/icons/skills/shadow_03.jpg",
          "level": 1,
          "_index": 13
        },
        {
          "id": "pf1.class-abilities.DbC7QZBYYIClw1m6",
          "dataType": "compendium",
          "name": "Smite Good",
          "img": "systems/pf1/icons/skills/red_16.jpg",
          "level": 1,
          "_index": 14
        }
      ]
    },
    "tag": "antipaladin",
    "useCustomTag": true,
    "armorProf": {
      "value": ["lgt", "med", "hvy", "shl"]
    },
    "weaponProf": {
      "value": ["sim", "mar"]
    },
    "languages": {
      "value": []
    },
    "scriptCalls": [],
    "hd": 10,
    "hp": 10,
    "bab": "high",
    "skillsPerLevel": 2,
    "savingThrows": {
      "fort": {
        "value": "high"
      },
      "will": {
        "value": "high"
      }
    },
    "classSkills": {
      "blf": true,
      "acr": false,
      "apr": false,
      "art": true,
      "clm": false,
      "crf": true,
      "dip": false,
      "dev": false,
      "dis": true,
      "esc": false,
      "fly": false,
      "han": true,
      "hea": false,
      "int": true,
      "kar": false,
      "kdu": false,
      "ken": false,
      "kge": false,
      "khi": false,
      "klo": false,
      "kna": false,
      "kno": false,
      "kpl": false,
      "kre": true,
      "lin": false,
      "lor": true,
      "per": false,
      "prf": false,
      "pro": true,
      "rid": true,
      "sen": true,
      "slt": false,
      "spl": true,
      "ste": true,
      "sur": false,
      "swm": false,
      "umd": false
    }
  }
}
