{
  "_id": "iDlGMIezGuqqt8Us",
  "name": "Brawler",
  "type": "class",
  "img": "systems/pf1/icons/skills/blood_11.jpg",
  "sort": 0,
  "flags": {},
  "system": {
    "description": {
      "value": "<p>Deadly even with nothing in her hands, a brawler eschews using the fighter’s heavy armor and the monk’s mysticism, focusing instead on perfecting many styles of brutal unarmed combat. Versatile, agile, and able to adapt to most enemy attacks, a brawler’s body is a powerful weapon.</p>\n<p><strong>Role</strong>: Brawlers are maneuverable and well suited for creating flanking situations or dealing with lightly armored enemies, as well as quickly adapting to a rapidly changing battlefield.</p>\n<p><strong>Alignment</strong>: Any.</p>\n<p><strong>Hit Die</strong>: d10.</p>\n<p><strong>Parent Classes</strong>: <em>Fighter</em> and <em>monk</em>.</p>\n<p><strong>Starting Wealth</strong>: 3d6 × 10 gp (average 105 gp.) In addition, each character begins play with an outfit worth 10 gp or less.</p>\n<h2>Class Skills</h2>\n<p>The brawler’s class skills are <em>Acrobatics</em> (<em>Dex</em>), <em>Climb</em> (<em>Str</em>), <em>Craft</em> (<em>Int</em>), <em>Escape Artist</em> (<em>Dex</em>), <em>Handle Animal</em> (<em>Cha</em>), <em>Intimidate</em> (<em>Cha</em>), <em>Knowledge</em> (dungeoneering) (<em>Int</em>), <em>Knowledge</em> (local) (<em>Int</em>), <em>Perception</em> (<em>Wis</em>), <em>Profession</em> (<em>Wis</em>), <em>Ride</em> (<em>Dex</em>), <em>Sense Motive</em> (<em>Wis</em>), and <em>Swim</em> (<em>Str</em>).</p>\n<p><strong>Skill Ranks per Level</strong>: 4 + <em>Int</em> modifier.</p>"
    },
    "tags": [],
    "changes": [],
    "links": {
      "children": [],
      "classAssociations": [
        {
          "id": "pf1.class-abilities.W6lurGAdeDsAch3G",
          "dataType": "compendium",
          "name": "Improved Awesome Blow",
          "img": "systems/pf1/icons/skills/yellow_10.jpg",
          "level": 20,
          "_index": 0
        },
        {
          "id": "pf1.class-abilities.EnMgClQRxY1GXg4e",
          "dataType": "compendium",
          "name": "Awesome Blow",
          "img": "systems/pf1/icons/skills/violet_28.jpg",
          "level": 16,
          "_index": 1
        },
        {
          "id": "pf1.class-abilities.o8AEIzEXMjEZ2EX1",
          "dataType": "compendium",
          "name": "Bonus Combat Feats (BRA)",
          "img": "systems/pf1/icons/skills/gray_08.jpg",
          "level": 2,
          "_index": 2
        },
        {
          "id": "pf1.class-abilities.6wtTc1PRWBKZuF9D",
          "dataType": "compendium",
          "name": "Brawler's Cunning",
          "img": "systems/pf1/icons/skills/yellow_08.jpg",
          "level": 1,
          "_index": 3
        },
        {
          "id": "pf1.class-abilities.sOwXPOtI5IlEBKwr",
          "dataType": "compendium",
          "name": "Martial Flexibility",
          "img": "systems/pf1/icons/skills/yellow_27.jpg",
          "level": 1,
          "_index": 4
        },
        {
          "id": "pf1.class-abilities.agVFqf3mfxf0l8oT",
          "dataType": "compendium",
          "name": "Martial Training",
          "img": "systems/pf1/icons/skills/blue_23.jpg",
          "level": 1,
          "_index": 5
        },
        {
          "id": "pf1.class-abilities.dlrAyDyBF8ldtpH8",
          "dataType": "compendium",
          "name": "Unarmed Strike (BRA)",
          "img": "systems/pf1/icons/skills/blood_11.jpg",
          "level": 1,
          "_index": 6
        },
        {
          "id": "pf1.class-abilities.UwcsrKHgN6mEo8Bd",
          "dataType": "compendium",
          "name": "Brawler's Flurry",
          "img": "systems/pf1/icons/skills/fire_07.jpg",
          "level": 2,
          "_index": 7
        },
        {
          "id": "pf1.class-abilities.n1PlbzPfZGklyUVV",
          "dataType": "compendium",
          "name": "Maneuver Training (BRA)",
          "img": "systems/pf1/icons/feats/greater-sunder.jpg",
          "level": 3,
          "_index": 8
        },
        {
          "id": "pf1.class-abilities.Z53orCz6KeTS5LOb",
          "dataType": "compendium",
          "name": "AC Bonus (BRA)",
          "img": "systems/pf1/icons/feats/dodge.jpg",
          "level": 4,
          "_index": 9
        },
        {
          "id": "pf1.class-abilities.SQXP7EIAIH22DM39",
          "dataType": "compendium",
          "name": "Knockout",
          "img": "systems/pf1/icons/feats/extra-rage.jpg",
          "level": 4,
          "_index": 10
        },
        {
          "id": "pf1.class-abilities.7ORiNdGyLzGddgNK",
          "dataType": "compendium",
          "name": "Brawler's Strike",
          "img": "systems/pf1/icons/feats/stunning-fist.jpg",
          "level": 5,
          "_index": 11
        }
      ]
    },
    "tag": "brawler",
    "useCustomTag": true,
    "armorProf": {
      "value": ["lgt", "shl"]
    },
    "weaponProf": {
      "value": ["sim"],
      "custom": "Handaxe;Short sword;Close Weapon Group"
    },
    "languages": {
      "value": []
    },
    "scriptCalls": [],
    "hd": 10,
    "hp": 10,
    "bab": "high",
    "skillsPerLevel": 4,
    "savingThrows": {
      "fort": {
        "value": "high"
      },
      "ref": {
        "value": "high"
      }
    },
    "classSkills": {
      "acr": true,
      "apr": false,
      "art": true,
      "blf": false,
      "clm": true,
      "crf": true,
      "dip": false,
      "dev": false,
      "dis": false,
      "esc": true,
      "fly": false,
      "han": true,
      "hea": false,
      "int": true,
      "kar": false,
      "kdu": true,
      "ken": false,
      "kge": false,
      "khi": false,
      "klo": true,
      "kna": false,
      "kno": false,
      "kpl": false,
      "kre": false,
      "lin": false,
      "lor": true,
      "per": true,
      "prf": false,
      "pro": true,
      "rid": true,
      "sen": true,
      "slt": false,
      "spl": false,
      "ste": false,
      "sur": false,
      "swm": true,
      "umd": false
    }
  }
}
