{
  "_id": "WNzyRU5gMQcb6HUu",
  "name": "Omdura",
  "type": "class",
  "img": "systems/pf1/icons/skills/light_06.jpg",
  "sort": 0,
  "flags": {},
  "system": {
    "description": {
      "value": "<p>Acting as divine warriors, omduras embody the tenets of their gods and serve as divine vessels. In the world of Asunda, omdura means “leader of souls” omdaris the masculine form and omdurais the feminine form. As Niobe is a woman, the feminine form of the class is used throughout this section. These mortals are granted greater purpose and are tasked with both spreading their god’s faith and defeating the faith’s enemies. Omduras are able to grant the same divine power they hold within themselves to others around them. This allows omduras to both defend others from enemies of their faith and inspire others to follow in their footsteps. Gods of all kinds select omduras to enact their will, though how this will is interpreted varies from omdura to omdura.</p>\n<p><strong>Role:</strong> Omduras’ divine abilities allow them to support their allies with spellcasting and the divine power of their gods. When fighting on their own, they call forth their god’s power to help them defeat their enemies, channeling a god’s divine force into mighty weapons.</p>\n<p>As their powers are influenced by their faith, all omduras must focus their worship upon a divine source. While the vast majority of omduras revere a specific deity (or multiple deities), a small number dedicate themselves to a divine concept worthy of devotion-such as battle, death, justice, or knowledge-free of a deific abstraction. (Work with your GM if you prefer this path to selecting a specific deity.)</p>\n<p><strong>Alignment:</strong> An omdura’s <em>alignment</em> must be within one step of her deity’s.</p>\n<p><strong>Hit Die</strong>: d8.</p>\n<h2>Class Skills</h2>\n<p>The omdura’s class skills are <em>Appraise</em> (<em>Int</em>), <em>Bluff</em> (<em>Cha</em>), <em>Craft</em> (<em>Int</em>), <em>Diplomacy</em> (<em>Cha</em>), <em>Heal</em> (<em>Wis</em>), <em>Intimidate</em> (<em>Cha</em>), <em>Knowledge</em> (arcana) (<em>Int</em>), <em>Knowledge</em> (nobility) (<em>Int</em>), <em>Knowledge</em> (planes) (<em>Int</em>), <em>Knowledge</em> (religion) (<em>Int</em>), <em>Linguistics</em> (<em>Int</em>), <em>Perception</em> (<em>Wis</em>), <em>Profession</em> (<em>Wis</em>), <em>Sense Motive</em> (<em>Wis</em>), and <em>Spellcraft</em> (<em>Int</em>).</p>\n<p><strong>Skill Ranks per Level</strong>: 4 + <em>Int</em> modifier.</p>"
    },
    "tags": [],
    "changes": [],
    "links": {
      "children": [],
      "classAssociations": [
        {
          "id": "pf1.class-abilities.KQjqqZr31ZxM9K2u",
          "dataType": "compendium",
          "name": "Aura (OMD)",
          "img": "systems/pf1/icons/skills/blue_33.jpg",
          "level": 1,
          "_index": 0
        },
        {
          "id": "pf1.class-abilities.KGjeQOeDKBMUt98q",
          "dataType": "compendium",
          "name": "Detect Alignment",
          "img": "systems/pf1/icons/spells/evil-eye-red-1.jpg",
          "level": 1,
          "_index": 1
        },
        {
          "id": "pf1.class-abilities.bPJNmeL9hs2LTbco",
          "dataType": "compendium",
          "name": "Invocation",
          "img": "systems/pf1/icons/skills/affliction_24.jpg",
          "level": 1,
          "_index": 2
        },
        {
          "id": "pf1.class-abilities.4bOrPB5xUT5p1zxR",
          "dataType": "compendium",
          "name": "Improved Invocation",
          "img": "systems/pf1/icons/skills/affliction_24.jpg",
          "level": 11,
          "_index": 3
        },
        {
          "id": "pf1.class-abilities.Itt5uycnpzrnrKM9",
          "dataType": "compendium",
          "name": "Greater Invocation",
          "img": "systems/pf1/icons/skills/emerald_06.jpg",
          "level": 20,
          "_index": 4
        },
        {
          "id": "pf1.class-abilities.bWPWEkpSOHEr5RNz",
          "dataType": "compendium",
          "name": "Divine Touch",
          "img": "systems/pf1/icons/skills/ice_16.jpg",
          "level": 2,
          "_index": 5
        },
        {
          "id": "pf1.class-abilities.VUR9dwJLHieLwbEH",
          "dataType": "compendium",
          "name": "Divine Infusion",
          "img": "systems/pf1/icons/skills/arrow_18.jpg",
          "level": 3,
          "_index": 6
        },
        {
          "id": "pf1.class-abilities.GGIJUPfgLWU4FmNU",
          "dataType": "compendium",
          "name": "Divine Might",
          "img": "systems/pf1/icons/skills/blue_23.jpg",
          "level": 4,
          "_index": 7
        },
        {
          "id": "pf1.class-abilities.22lXokptV5JXN2R9",
          "dataType": "compendium",
          "name": "Greater Divine Might",
          "img": "systems/pf1/icons/skills/blue_27.jpg",
          "level": 18,
          "_index": 8
        },
        {
          "id": "pf1.class-abilities.XxiLuE2jlp5aQZK2",
          "dataType": "compendium",
          "name": "Divine Weapon",
          "img": "systems/pf1/icons/skills/light_09.jpg",
          "level": 5,
          "_index": 9
        },
        {
          "id": "pf1.class-abilities.N9pNy8Knym9U2CPn",
          "dataType": "compendium",
          "name": "Commune",
          "img": "systems/pf1/icons/skills/light_10.jpg",
          "level": 7,
          "_index": 10
        }
      ]
    },
    "tag": "omdura",
    "useCustomTag": true,
    "armorProf": {
      "value": ["lgt", "med", "shl"]
    },
    "weaponProf": {
      "value": ["sim"]
    },
    "languages": {
      "value": []
    },
    "scriptCalls": [],
    "bab": "med",
    "skillsPerLevel": 4,
    "savingThrows": {
      "fort": {
        "value": "high"
      },
      "will": {
        "value": "high"
      }
    },
    "classSkills": {
      "acr": false,
      "apr": true,
      "art": true,
      "blf": true,
      "clm": false,
      "crf": true,
      "dip": true,
      "dev": false,
      "dis": false,
      "esc": false,
      "fly": false,
      "han": false,
      "hea": true,
      "int": true,
      "kar": true,
      "kdu": false,
      "ken": false,
      "kge": false,
      "khi": false,
      "klo": false,
      "kna": false,
      "kno": true,
      "kpl": true,
      "kre": true,
      "lin": true,
      "lor": true,
      "per": true,
      "prf": false,
      "pro": true,
      "rid": false,
      "sen": true,
      "slt": false,
      "spl": true,
      "ste": false,
      "sur": false,
      "swm": false,
      "umd": false
    }
  }
}
