{
  "_id": "yM8xfml1Xrccfwux",
  "name": "Samurai",
  "type": "class",
  "img": "systems/pf1/icons/items/weapons/katana.png",
  "sort": 0,
  "flags": {},
  "system": {
    "description": {
      "value": "<p>Few warriors are more dedicated to honor and the code of the warrior than the samurai. Trained from an early age in the art of war and sworn to the service of a lord, the samurai holds a position of power and respect in many lands, often serving as the voice and justice of the local noble. The samurai takes on his training with zeal, learning the way of the blade (typically a katana), the bow, and the horse. Some even learn how to effectively use firearms, if they are available. The samurai is often the most trusted soldier in his lord’s employ. In him, the common folk see honor and sacrifice. He is an honorable warrior, dedicated to the realm and the leaders that guide it.</p>\n<p><strong>Role:</strong> While typically sworn to the service of a lord, a samurai is usually given free reign as to how he performs that service. As such, samurai can sometimes be found with other adventurers, taking the fight to the enemies of their masters. Other samurai become ronin, striving to serve an ideal without paying fealty to a lord. In either case, samurai make powerful allies, capable of withstanding nearly any harm while dispatching their foes with deadly precision.</p>\n<p><strong>Alignment:</strong> Any.</p>\n<p><strong>Hit Die</strong>: d10.</p>\n<p><strong>Starting Wealth</strong> 5d6 × 10 gp (average 175 gp.) In addition, each character begins play with an outfit worth 10 gp or less.</p>\n<h2>Class Skills</h2>\n<p>The samurai’s class skills are <em>Bluff</em> (<em>Cha</em>), <em>Climb</em> (<em>Str</em>), <em>Craft</em> (<em>Int</em>), <em>Diplomacy</em> (<em>Cha</em>), <em>Handle Animal</em> (<em>Cha</em>), <em>Intimidate</em> (<em>Cha</em>), <em>Profession</em> (<em>Wis</em>), <em>Ride</em> (<em>Dex</em>), <em>Sense Motive</em> (<em>Wis</em>), and <em>Swim</em> (<em>Str</em>).</p>\n<p><strong>Skill Ranks per Level</strong>: 4 + <em>Int</em> modifier.</p>"
    },
    "tags": [],
    "changes": [],
    "links": {
      "children": [],
      "classAssociations": [
        {
          "id": "pf1.class-abilities.AOasku7u72NB0q3J",
          "dataType": "compendium",
          "name": "Challenge (SAM)",
          "img": "systems/pf1/icons/skills/gray_08.jpg",
          "level": 1,
          "_index": 0
        },
        {
          "id": "pf1.class-abilities.EpDI0Qi5SDRmL4lK",
          "dataType": "compendium",
          "name": "Mount (SAM)",
          "img": "systems/pf1/icons/feats/animal-affinity.jpg",
          "level": 1,
          "_index": 1
        },
        {
          "id": "pf1.class-abilities.Uo3yrfkyguM5wkI2",
          "dataType": "compendium",
          "name": "Order (SAM)",
          "img": "systems/pf1/icons/items/weapons/katana.png",
          "level": 1,
          "_index": 2
        },
        {
          "id": "pf1.class-abilities.fdEn4hZJkIhJEwrQ",
          "dataType": "compendium",
          "name": "Resolve",
          "img": "systems/pf1/icons/skills/red_04.jpg",
          "level": 1,
          "_index": 3
        },
        {
          "id": "pf1.class-abilities.SDe1qkWV2217wSao",
          "dataType": "compendium",
          "name": "Weapon Expertise",
          "img": "systems/pf1/icons/skills/weapon_23.jpg",
          "level": 3,
          "_index": 4
        },
        {
          "id": "pf1.class-abilities.IA4Z4xwEeubcDqF4",
          "dataType": "compendium",
          "name": "Mounted Archer",
          "img": "systems/pf1/icons/skills/arrow_07.jpg",
          "level": 4,
          "_index": 5
        },
        {
          "id": "pf1.class-abilities.QyW6ly6dN84Ev6AY",
          "dataType": "compendium",
          "name": "Banner (SAM)",
          "img": "systems/pf1/icons/items/inventory/badge-banner.jpg",
          "level": 5,
          "_index": 6
        },
        {
          "id": "pf1.class-abilities.lKnfkRSOpPjT4qRy",
          "dataType": "compendium",
          "name": "Bonus Feat (SAM)",
          "img": "systems/pf1/icons/items/inventory/map-treasure.jpg",
          "level": 6,
          "_index": 7
        },
        {
          "id": "pf1.class-abilities.5yPVt0Gip4Q1TTs4",
          "dataType": "compendium",
          "name": "Greater Resolve",
          "img": "systems/pf1/icons/skills/red_05.jpg",
          "level": 9,
          "_index": 8
        },
        {
          "id": "pf1.class-abilities.t2XEI2AKkv1CY8to",
          "dataType": "compendium",
          "name": "Honorable Stand",
          "img": "systems/pf1/icons/skills/red_01.jpg",
          "level": 11,
          "_index": 9
        },
        {
          "id": "pf1.class-abilities.BDP3HgB0vmZ9vbQY",
          "dataType": "compendium",
          "name": "Demanding Challenge (SAM)",
          "img": "systems/pf1/icons/feats/stunning-critical.jpg",
          "level": 12,
          "_index": 10
        },
        {
          "id": "pf1.class-abilities.f2Xg4pkJelnVyTCH",
          "dataType": "compendium",
          "name": "Greater Banner (SAM)",
          "img": "systems/pf1/icons/items/inventory/tabard-green.jpg",
          "level": 14,
          "_index": 11
        },
        {
          "id": "pf1.class-abilities.CZrFfvYMX3HK03lC",
          "dataType": "compendium",
          "name": "True Resolve",
          "img": "systems/pf1/icons/skills/yellow_13.jpg",
          "level": 17,
          "_index": 12
        },
        {
          "id": "pf1.class-abilities.k2CQRwlyblNHuius",
          "dataType": "compendium",
          "name": "Last Stand",
          "img": "systems/pf1/icons/skills/red_10.jpg",
          "level": 20,
          "_index": 13
        }
      ]
    },
    "tag": "samurai",
    "useCustomTag": true,
    "armorProf": {
      "value": ["lgt", "med", "hvy", "shl"]
    },
    "weaponProf": {
      "value": ["sim", "mar"],
      "custom": "Katana;Naginata;Wakizashi"
    },
    "languages": {
      "value": []
    },
    "scriptCalls": [],
    "hd": 10,
    "hp": 10,
    "bab": "high",
    "skillsPerLevel": 4,
    "savingThrows": {
      "fort": {
        "value": "high"
      }
    },
    "classSkills": {
      "acr": false,
      "apr": false,
      "art": true,
      "blf": true,
      "clm": true,
      "crf": true,
      "dip": true,
      "dev": false,
      "dis": false,
      "esc": false,
      "fly": false,
      "han": true,
      "hea": false,
      "int": true,
      "kar": false,
      "kdu": false,
      "ken": false,
      "kge": false,
      "khi": false,
      "klo": false,
      "kna": false,
      "kno": false,
      "kpl": false,
      "kre": false,
      "lin": false,
      "lor": true,
      "per": false,
      "prf": false,
      "pro": true,
      "rid": true,
      "sen": true,
      "slt": false,
      "spl": false,
      "ste": false,
      "sur": false,
      "swm": true,
      "umd": false
    }
  }
}
